G04 #@! TF.GenerationSoftware,KiCad,Pcbnew,(5.1.4)-1*
G04 #@! TF.CreationDate,2021-04-28T09:38:17+02:00*
G04 #@! TF.ProjectId,Geo-Logger-v3-1,47656f2d-4c6f-4676-9765-722d76332d31,rev?*
G04 #@! TF.SameCoordinates,Original*
G04 #@! TF.FileFunction,Legend,Bot*
G04 #@! TF.FilePolarity,Positive*
%FSLAX46Y46*%
G04 Gerber Fmt 4.6, Leading zero omitted, Abs format (unit mm)*
G04 Created by KiCad (PCBNEW (5.1.4)-1) date 2021-04-28 09:38:17*
%MOMM*%
%LPD*%
G04 APERTURE LIST*
%ADD10C,0.120000*%
G04 APERTURE END LIST*
D10*
X200940000Y-78060000D02*
X200940000Y-73940000D01*
X213000000Y-78060000D02*
X200940000Y-78060000D01*
X215060000Y-73940000D02*
X200940000Y-73940000D01*
X213000000Y-78060000D02*
X213000000Y-76000000D01*
X213000000Y-76000000D02*
X215060000Y-76000000D01*
X215060000Y-76000000D02*
X215060000Y-73940000D01*
X214000000Y-78060000D02*
X215060000Y-78060000D01*
X215060000Y-78060000D02*
X215060000Y-77000000D01*
M02*
