(export (version D)
  (design
    (source C:\Users\morit\Documents\Diplomarbeit\diplomarbeit\Hardware\Geo-Logger-v3\Geo-Logger-v3-1.sch)
    (date "28.04.2021 09:05:06")
    (tool "Eeschema (5.1.4)-1")
    (sheet (number 1) (name /) (tstamps /)
      (title_block
        (title Geo-Logger)
        (company "HTL Rankweil")
        (rev v2.1)
        (date 2021-02-01)
        (source Geo-Logger-v3-1.sch)
        (comment (number 1) (value "Prototyp 2"))
        (comment (number 2) (value "Moritz Schwärzler 5BHEL"))
        (comment (number 3) (value Diplomarbeit))
        (comment (number 4) (value RidingData)))))
  (components
    (comp (ref Reset1)
      (value SW_Push)
      (footprint Connector_PinHeader_2.54mm:PinHeader_1x02_P2.54mm_Vertical)
      (datasheet ~)
      (libsource (lib Switch) (part SW_Push) (description "Push button switch, generic, two pins"))
      (sheetpath (names /) (tstamps /))
      (tstamp 5F815D83))
    (comp (ref C4)
      (value 0µ1)
      (footprint Capacitor_SMD:C_0805_2012Metric)
      (datasheet ~)
      (libsource (lib Device) (part C) (description "Unpolarized capacitor"))
      (sheetpath (names /) (tstamps /))
      (tstamp 5F81D188))
    (comp (ref C1)
      (value 0µ1)
      (footprint Capacitor_SMD:C_0805_2012Metric)
      (datasheet ~)
      (libsource (lib Device) (part C) (description "Unpolarized capacitor"))
      (sheetpath (names /) (tstamps /))
      (tstamp 5F826731))
    (comp (ref C6)
      (value 47µ)
      (footprint Capacitor_Tantalum_SMD:CP_EIA-6032-28_Kemet-C_Pad2.25x2.35mm_HandSolder)
      (datasheet ~)
      (libsource (lib Device) (part CP) (description "Polarized capacitor"))
      (sheetpath (names /) (tstamps /))
      (tstamp 5F82D74A))
    (comp (ref C7)
      (value 1µ)
      (footprint Capacitor_SMD:C_0805_2012Metric)
      (datasheet ~)
      (libsource (lib Device) (part C) (description "Unpolarized capacitor"))
      (sheetpath (names /) (tstamps /))
      (tstamp 5F82E4AF))
    (comp (ref C8)
      (value 0µ1)
      (footprint Capacitor_SMD:C_0805_2012Metric)
      (datasheet ~)
      (libsource (lib Device) (part C) (description "Unpolarized capacitor"))
      (sheetpath (names /) (tstamps /))
      (tstamp 5F82E8E9))
    (comp (ref C5)
      (value 0µ1)
      (footprint Capacitor_SMD:C_0805_2012Metric)
      (datasheet ~)
      (libsource (lib Device) (part C) (description "Unpolarized capacitor"))
      (sheetpath (names /) (tstamps /))
      (tstamp 5F82EB6A))
    (comp (ref Flash1)
      (value SST26VF064B-104I_SM)
      (footprint 0_SST26VF064B-104I/SM:SST26VF064B-104I&slash_SM)
      (libsource (lib 0_SST26VF064B-104I/SM) (part SST26VF064B-104I_SM) (description ""))
      (sheetpath (names /) (tstamps /))
      (tstamp 5F954BFB))
    (comp (ref ISP1)
      (value AVR-ISP-6)
      (footprint Connector_PinHeader_2.54mm:PinHeader_2x03_P2.54mm_Vertical)
      (datasheet " ~")
      (libsource (lib Connector) (part AVR-ISP-6) (description "Atmel 6-pin ISP connector"))
      (sheetpath (names /) (tstamps /))
      (tstamp 5FB1459D))
    (comp (ref C14)
      (value 100nF)
      (footprint Capacitor_SMD:C_0805_2012Metric)
      (datasheet ~)
      (libsource (lib Device) (part C) (description "Unpolarized capacitor"))
      (sheetpath (names /) (tstamps /))
      (tstamp 5FD62A20))
    (comp (ref R1)
      (value 10k)
      (footprint Resistor_SMD:R_0805_2012Metric)
      (datasheet ~)
      (libsource (lib Device) (part R) (description Resistor))
      (sheetpath (names /) (tstamps /))
      (tstamp 5F827560))
    (comp (ref C16)
      (value 4.7µF)
      (footprint Capacitor_Tantalum_SMD:CP_EIA-6032-28_Kemet-C_Pad2.25x2.35mm_HandSolder)
      (datasheet ~)
      (libsource (lib Device) (part CP) (description "Polarized capacitor"))
      (sheetpath (names /) (tstamps /))
      (tstamp 5FE1B903))
    (comp (ref C15)
      (value 100nF)
      (footprint Capacitor_SMD:C_0805_2012Metric)
      (datasheet ~)
      (libsource (lib Device) (part C) (description "Unpolarized capacitor"))
      (sheetpath (names /) (tstamps /))
      (tstamp 5FE1B915))
    (comp (ref C17)
      (value 100nF)
      (footprint Capacitor_SMD:C_0805_2012Metric)
      (datasheet ~)
      (libsource (lib Device) (part C) (description "Unpolarized capacitor"))
      (sheetpath (names /) (tstamps /))
      (tstamp 5F9E022C))
    (comp (ref SO-W1)
      (value SN74LVC1T45DBVR)
      (footprint 0_SN74LVC1T45DBVR:SN74LVC1T45DBVR)
      (libsource (lib 0_SN74LVC1T45DBVR) (part SN74LVC1T45DBVR) (description ""))
      (sheetpath (names /) (tstamps /))
      (tstamp 5FD670CF))
    (comp (ref LED1)
      (value LED)
      (footprint LED_SMD:LED_1206_3216Metric)
      (datasheet ~)
      (libsource (lib Device) (part LED) (description "Light emitting diode"))
      (sheetpath (names /) (tstamps /))
      (tstamp 5FAEFA55))
    (comp (ref R14)
      (value 470R)
      (footprint Resistor_SMD:R_0805_2012Metric)
      (datasheet ~)
      (libsource (lib Device) (part R) (description Resistor))
      (sheetpath (names /) (tstamps /))
      (tstamp 5FAEFF49))
    (comp (ref USB-W1)
      (value FT232RLREEL)
      (footprint 0_FT232RL:FT232RLREEL)
      (libsource (lib 0_FT232RL) (part FT232RLREEL) (description ""))
      (sheetpath (names /) (tstamps /))
      (tstamp 5F958B1B))
    (comp (ref R4)
      (value 3k)
      (footprint Resistor_SMD:R_0805_2012Metric)
      (datasheet ~)
      (libsource (lib Device) (part R) (description Resistor))
      (sheetpath (names /) (tstamps /))
      (tstamp 5FE484E8))
    (comp (ref R15)
      (value 5k6)
      (footprint Resistor_SMD:R_0805_2012Metric)
      (datasheet ~)
      (libsource (lib Device) (part R) (description Resistor))
      (sheetpath (names /) (tstamps /))
      (tstamp 5FE4897A))
    (comp (ref R23)
      (value 5k6)
      (footprint Resistor_SMD:R_0805_2012Metric)
      (datasheet ~)
      (libsource (lib Device) (part R) (description Resistor))
      (sheetpath (names /) (tstamps /))
      (tstamp 5FF52134))
    (comp (ref R21)
      (value 5k6)
      (footprint Resistor_SMD:R_0805_2012Metric)
      (datasheet ~)
      (libsource (lib Device) (part R) (description Resistor))
      (sheetpath (names /) (tstamps /))
      (tstamp 5FF52707))
    (comp (ref R20)
      (value 3k)
      (footprint Resistor_SMD:R_0805_2012Metric)
      (datasheet ~)
      (libsource (lib Device) (part R) (description Resistor))
      (sheetpath (names /) (tstamps /))
      (tstamp 5FF540AA))
    (comp (ref R22)
      (value 3k)
      (footprint Resistor_SMD:R_0805_2012Metric)
      (datasheet ~)
      (libsource (lib Device) (part R) (description Resistor))
      (sheetpath (names /) (tstamps /))
      (tstamp 5FF547E7))
    (comp (ref LED2)
      (value LED)
      (footprint LED_SMD:LED_1206_3216Metric)
      (datasheet ~)
      (libsource (lib Device) (part LED) (description "Light emitting diode"))
      (sheetpath (names /) (tstamps /))
      (tstamp 5FFD5B83))
    (comp (ref R5)
      (value 470R)
      (footprint Resistor_SMD:R_0805_2012Metric)
      (datasheet ~)
      (libsource (lib Device) (part R) (description Resistor))
      (sheetpath (names /) (tstamps /))
      (tstamp 5FFD5B89))
    (comp (ref µC1)
      (value "ATMEGA328PB-AUR TQFP")
      (footprint 0_ATMEGA328PB-AU:ATMEGA328PB-AUR)
      (libsource (lib 0_ATMEGA328PB-AU) (part ATMEGA328PB-AUR) (description ""))
      (sheetpath (names /) (tstamps /))
      (tstamp 5F956584))
    (comp (ref LED3)
      (value LED)
      (footprint LED_SMD:LED_1206_3216Metric)
      (datasheet ~)
      (libsource (lib Device) (part LED) (description "Light emitting diode"))
      (sheetpath (names /) (tstamps /))
      (tstamp 5FFDEA3E))
    (comp (ref R6)
      (value 470R)
      (footprint Resistor_SMD:R_0805_2012Metric)
      (datasheet ~)
      (libsource (lib Device) (part R) (description Resistor))
      (sheetpath (names /) (tstamps /))
      (tstamp 5FFDEA44))
    (comp (ref R9)
      (value 470)
      (footprint Resistor_SMD:R_0805_2012Metric)
      (datasheet ~)
      (libsource (lib Device) (part R) (description Resistor))
      (sheetpath (names /) (tstamps /))
      (tstamp 6007B246))
    (comp (ref R7)
      (value 10k)
      (footprint Resistor_SMD:R_0805_2012Metric)
      (datasheet ~)
      (libsource (lib Device) (part R) (description Resistor))
      (sheetpath (names /) (tstamps /))
      (tstamp 6005C523))
    (comp (ref LadeLED1)
      (value LED)
      (footprint LED_SMD:LED_1206_3216Metric)
      (datasheet ~)
      (libsource (lib Device) (part LED) (description "Light emitting diode"))
      (sheetpath (names /) (tstamps /))
      (tstamp 60051A8D))
    (comp (ref R3)
      (value 675)
      (footprint Resistor_SMD:R_0805_2012Metric)
      (datasheet ~)
      (libsource (lib Device) (part R) (description Resistor))
      (sheetpath (names /) (tstamps /))
      (tstamp 60040B79))
    (comp (ref Zellen1)
      (value Akku)
      (footprint Connector_PinHeader_2.54mm:PinHeader_1x02_P2.54mm_Vertical)
      (datasheet ~)
      (libsource (lib Connector_Generic) (part Conn_01x02) (description "Generic connector, single row, 01x02, script generated (kicad-library-utils/schlib/autogen/connector/)"))
      (sheetpath (names /) (tstamps /))
      (tstamp 5F7B6466))
    (comp (ref U1)
      (value BQ21040DBVR)
      (footprint 0_BQ21040DBVR:BQ21040DBVR)
      (libsource (lib 0_BQ21040DBVR) (part BQ21040DBVR) (description ""))
      (sheetpath (names /) (tstamps /))
      (tstamp 600125C0))
    (comp (ref VCC1)
      (value VCC)
      (footprint Connector_PinHeader_2.54mm:PinHeader_1x02_P2.54mm_Vertical)
      (datasheet ~)
      (libsource (lib Connector) (part Conn_01x02_Male) (description "Generic connector, single row, 01x02, script generated (kicad-library-utils/schlib/autogen/connector/)"))
      (sheetpath (names /) (tstamps /))
      (tstamp 5FF4E7D8))
    (comp (ref Boost1)
      (value LT1302CN8-5-PBF)
      (footprint 0_LT1302CS8-5PBF:SO-8_S)
      (libsource (lib 0_LT1302CN85#PBF) (part LT1302CN8-5-PBF) (description ""))
      (sheetpath (names /) (tstamps /))
      (tstamp 5F9525CC))
    (comp (ref C21)
      (value 1µF)
      (footprint Capacitor_SMD:C_0805_2012Metric)
      (datasheet ~)
      (libsource (lib Device) (part C) (description "Unpolarized capacitor"))
      (sheetpath (names /) (tstamps /))
      (tstamp 5FD8AE20))
    (comp (ref C20)
      (value 200pF)
      (footprint Capacitor_SMD:C_0805_2012Metric)
      (datasheet ~)
      (libsource (lib Device) (part C) (description "Unpolarized capacitor"))
      (sheetpath (names /) (tstamps /))
      (tstamp 5FB9FF37))
    (comp (ref C18)
      (value 100µF)
      (footprint Capacitor_Tantalum_SMD:CP_EIA-6032-28_Kemet-C_Pad2.25x2.35mm_HandSolder)
      (datasheet ~)
      (libsource (lib Device) (part CP) (description "Polarized capacitor"))
      (sheetpath (names /) (tstamps /))
      (tstamp 5FAC2089))
    (comp (ref R13)
      (value ?)
      (footprint Resistor_SMD:R_0805_2012Metric)
      (datasheet ~)
      (libsource (lib Device) (part R) (description Resistor))
      (sheetpath (names /) (tstamps /))
      (tstamp 5FAA065E))
    (comp (ref C19)
      (value ?)
      (footprint Capacitor_SMD:C_0805_2012Metric)
      (datasheet ~)
      (libsource (lib Device) (part C) (description "Unpolarized capacitor"))
      (sheetpath (names /) (tstamps /))
      (tstamp 5FA9F5F6))
    (comp (ref CR1)
      (value MBR0520-TP)
      (footprint 0_MBR0520-TP:MBR0520-TP)
      (libsource (lib 0_MBR0520-TP) (part MBR0520-TP) (description ""))
      (sheetpath (names /) (tstamps /))
      (tstamp 5FEC766A))
    (comp (ref L1)
      (value 74406043100)
      (footprint 0_74406043100:INDPM4848X280N)
      (datasheet https://katalog.we-online.de/pbs/datasheet/74406043100.pdf)
      (fields
        (field (name Description) "Fixed Inductors WE-LQFS 4828 10uH 1.77A 86mOhms")
        (field (name Height) 2.8)
        (field (name Manufacturer_Name) "Wurth Elektronik")
        (field (name Manufacturer_Part_Number) 74406043100)
        (field (name "Mouser Part Number") 710-74406043100)
        (field (name "Mouser Price/Stock") https://www.mouser.co.uk/ProductDetail/Wurth-Elektronik/74406043100?qs=h3%2Fj8evtlm3skzJES1%252BLdA%3D%3D))
      (libsource (lib 0_74406043100) (part 74406043100) (description "Fixed Inductors WE-LQFS 4828 10uH 1.77A 86mOhms"))
      (sheetpath (names /) (tstamps /))
      (tstamp 5FD98E1F))
    (comp (ref R11)
      (value 5k6)
      (footprint Resistor_SMD:R_0805_2012Metric)
      (datasheet ~)
      (libsource (lib Device) (part R) (description Resistor))
      (sheetpath (names /) (tstamps /))
      (tstamp 5F7E36E5))
    (comp (ref R12)
      (value 1k8)
      (footprint Resistor_SMD:R_0805_2012Metric)
      (datasheet ~)
      (libsource (lib Device) (part R) (description Resistor))
      (sheetpath (names /) (tstamps /))
      (tstamp 5F7E457B))
    (comp (ref C13)
      (value 100µF)
      (footprint Capacitor_Tantalum_SMD:CP_EIA-6032-28_Kemet-C_Pad2.25x2.35mm_HandSolder)
      (datasheet ~)
      (libsource (lib Device) (part CP) (description "Polarized capacitor"))
      (sheetpath (names /) (tstamps /))
      (tstamp 5F7EACA9))
    (comp (ref C12)
      (value 1µF)
      (footprint Capacitor_SMD:C_0805_2012Metric)
      (datasheet ~)
      (libsource (lib Device) (part C) (description "Unpolarized capacitor"))
      (sheetpath (names /) (tstamps /))
      (tstamp 5F7EBA04))
    (comp (ref C11)
      (value 100µF)
      (footprint Capacitor_Tantalum_SMD:CP_EIA-6032-28_Kemet-C_Pad2.25x2.35mm_HandSolder)
      (datasheet ~)
      (libsource (lib Device) (part CP) (description "Polarized capacitor"))
      (sheetpath (names /) (tstamps /))
      (tstamp 5F7C6E7E))
    (comp (ref C10)
      (value 1µF)
      (footprint Capacitor_SMD:C_0805_2012Metric)
      (datasheet ~)
      (libsource (lib Device) (part C) (description "Unpolarized capacitor"))
      (sheetpath (names /) (tstamps /))
      (tstamp 5F7C653F))
    (comp (ref R8)
      (value 20k)
      (footprint Resistor_SMD:R_0805_2012Metric)
      (datasheet ~)
      (libsource (lib Device) (part R) (description Resistor))
      (sheetpath (names /) (tstamps /))
      (tstamp 5F7C5C0D))
    (comp (ref C9)
      (value 10n)
      (footprint Capacitor_SMD:C_0805_2012Metric)
      (datasheet ~)
      (libsource (lib Device) (part C) (description "Unpolarized capacitor"))
      (sheetpath (names /) (tstamps /))
      (tstamp 5F7DB4CE))
    (comp (ref H1)
      (value MountingHole)
      (footprint MountingHole:MountingHole_2.2mm_M2)
      (datasheet ~)
      (libsource (lib Mechanical) (part MountingHole) (description "Mounting Hole without connection"))
      (sheetpath (names /) (tstamps /))
      (tstamp 60088C22))
    (comp (ref H2)
      (value MountingHole)
      (footprint MountingHole:MountingHole_2.2mm_M2)
      (datasheet ~)
      (libsource (lib Mechanical) (part MountingHole) (description "Mounting Hole without connection"))
      (sheetpath (names /) (tstamps /))
      (tstamp 60089AFC))
    (comp (ref H3)
      (value MountingHole)
      (footprint MountingHole:MountingHole_2.2mm_M2)
      (datasheet ~)
      (libsource (lib Mechanical) (part MountingHole) (description "Mounting Hole without connection"))
      (sheetpath (names /) (tstamps /))
      (tstamp 60089D6E))
    (comp (ref H4)
      (value MountingHole)
      (footprint MountingHole:MountingHole_2.2mm_M2)
      (datasheet ~)
      (libsource (lib Mechanical) (part MountingHole) (description "Mounting Hole without connection"))
      (sheetpath (names /) (tstamps /))
      (tstamp 60089F5E))
    (comp (ref Fuse1)
      (value Fuse)
      (footprint Resistor_SMD:R_1206_3216Metric)
      (datasheet ~)
      (libsource (lib Device) (part Fuse) (description Fuse))
      (sheetpath (names /) (tstamps /))
      (tstamp 5F845E48))
    (comp (ref R16)
      (value 10k)
      (footprint Resistor_SMD:R_0805_2012Metric)
      (datasheet ~)
      (libsource (lib Device) (part R) (description Resistor))
      (sheetpath (names /) (tstamps /))
      (tstamp 604C8C06))
    (comp (ref J3)
      (value 10118192-0002LF)
      (footprint 0_Micro-USB:10118192-0002LF)
      (libsource (lib 0_Micro_USB) (part 10118192-0002LF) (description ""))
      (sheetpath (names /) (tstamps /))
      (tstamp 60870DAC))
    (comp (ref R2)
      (value 3k3)
      (footprint Resistor_SMD:R_0805_2012Metric)
      (datasheet ~)
      (libsource (lib Device) (part R) (description Resistor))
      (sheetpath (names /) (tstamps /))
      (tstamp 5FD626DB))
    (comp (ref SW2)
      (value SW_SPST)
      (footprint Connector_PinHeader_2.54mm:PinHeader_1x02_P2.54mm_Vertical)
      (datasheet ~)
      (libsource (lib Switch) (part SW_SPST) (description "Single Pole Single Throw (SPST) switch"))
      (sheetpath (names /) (tstamps /))
      (tstamp 6092DDA6))
    (comp (ref SW1)
      (value SW_Push)
      (footprint Connector_PinHeader_2.00mm:PinHeader_1x02_P2.00mm_Vertical)
      (datasheet ~)
      (libsource (lib Switch) (part SW_Push) (description "Push button switch, generic, two pins"))
      (sheetpath (names /) (tstamps /))
      (tstamp 60969B00))
    (comp (ref J2)
      (value Conn_01x14_Male)
      (footprint Connector_PinHeader_2.00mm:PinHeader_2x07_P2.00mm_Vertical)
      (datasheet ~)
      (libsource (lib Connector) (part Conn_01x14_Male) (description "Generic connector, single row, 01x14, script generated (kicad-library-utils/schlib/autogen/connector/)"))
      (sheetpath (names /) (tstamps /))
      (tstamp 60CF82BC))
    (comp (ref J1)
      (value Conn_01x14_Female)
      (footprint Connector_PinSocket_2.00mm:PinSocket_2x07_P2.00mm_Vertical)
      (datasheet ~)
      (libsource (lib Connector) (part Conn_01x14_Female) (description "Generic connector, single row, 01x14, script generated (kicad-library-utils/schlib/autogen/connector/)"))
      (sheetpath (names /) (tstamps /))
      (tstamp 60CFA727))
    (comp (ref H5)
      (value MountingHole)
      (footprint MountingHole:MountingHole_2.2mm_M2)
      (datasheet ~)
      (libsource (lib Mechanical) (part MountingHole) (description "Mounting Hole without connection"))
      (sheetpath (names /) (tstamps /))
      (tstamp 60EA62E7))
    (comp (ref H6)
      (value MountingHole)
      (footprint MountingHole:MountingHole_2.2mm_M2)
      (datasheet ~)
      (libsource (lib Mechanical) (part MountingHole) (description "Mounting Hole without connection"))
      (sheetpath (names /) (tstamps /))
      (tstamp 60EA62ED))
    (comp (ref H7)
      (value MountingHole)
      (footprint MountingHole:MountingHole_2.2mm_M2)
      (datasheet ~)
      (libsource (lib Mechanical) (part MountingHole) (description "Mounting Hole without connection"))
      (sheetpath (names /) (tstamps /))
      (tstamp 60EA62F3))
    (comp (ref H8)
      (value MountingHole)
      (footprint MountingHole:MountingHole_2.2mm_M2)
      (datasheet ~)
      (libsource (lib Mechanical) (part MountingHole) (description "Mounting Hole without connection"))
      (sheetpath (names /) (tstamps /))
      (tstamp 60EA62F9))
    (comp (ref H9)
      (value MountingHole)
      (footprint MountingHole:MountingHole_2.2mm_M2)
      (datasheet ~)
      (libsource (lib Mechanical) (part MountingHole) (description "Mounting Hole without connection"))
      (sheetpath (names /) (tstamps /))
      (tstamp 60892C5B))
    (comp (ref H10)
      (value MountingHole)
      (footprint MountingHole:MountingHole_2.2mm_M2)
      (datasheet ~)
      (libsource (lib Mechanical) (part MountingHole) (description "Mounting Hole without connection"))
      (sheetpath (names /) (tstamps /))
      (tstamp 60892C61))
    (comp (ref J4)
      (value Conn_01x05_Female)
      (footprint Connector_PinHeader_2.00mm:PinHeader_1x05_P2.00mm_Vertical)
      (datasheet ~)
      (libsource (lib Connector) (part Conn_01x05_Female) (description "Generic connector, single row, 01x05, script generated (kicad-library-utils/schlib/autogen/connector/)"))
      (sheetpath (names /) (tstamps /))
      (tstamp 609C0EF3))
    (comp (ref U2)
      (value 74LVC2G04)
      (footprint Package_TO_SOT_SMD:SOT-363_SC-70-6)
      (datasheet http://www.ti.com/lit/sg/scyt129e/scyt129e.pdf)
      (libsource (lib 74xGxx) (part 74LVC2G04) (description "Dual NOT Gate, Low-Voltage CMOS"))
      (sheetpath (names /) (tstamps /))
      (tstamp 60897BF2)))
  (libparts
    (libpart (lib 0_74406043100) (part 74406043100)
      (description "Fixed Inductors WE-LQFS 4828 10uH 1.77A 86mOhms")
      (docs https://katalog.we-online.de/pbs/datasheet/74406043100.pdf)
      (fields
        (field (name Reference) L)
        (field (name Value) 74406043100)
        (field (name Footprint) INDPM4848X280N)
        (field (name Datasheet) https://katalog.we-online.de/pbs/datasheet/74406043100.pdf)
        (field (name Description) "Fixed Inductors WE-LQFS 4828 10uH 1.77A 86mOhms")
        (field (name Height) 2.8)
        (field (name Manufacturer_Name) "Wurth Elektronik")
        (field (name Manufacturer_Part_Number) 74406043100)
        (field (name "Mouser Part Number") 710-74406043100)
        (field (name "Mouser Price/Stock") https://www.mouser.co.uk/ProductDetail/Wurth-Elektronik/74406043100?qs=h3%2Fj8evtlm3skzJES1%252BLdA%3D%3D))
      (pins
        (pin (num 1) (name ~) (type passive))
        (pin (num 2) (name ~) (type passive))))
    (libpart (lib 0_ATMEGA328PB-AU) (part ATMEGA328PB-AUR)
      (footprints
        (fp 32A_MCH)
        (fp 32A_MCH-M)
        (fp 32A_MCH-L))
      (fields
        (field (name Reference) U)
        (field (name Value) ATMEGA328PB-AUR)
        (field (name Footprint) 32A_MCH))
      (pins
        (pin (num 1) (name PCINT19/OC2B/INT1PD3) (type BiDi))
        (pin (num 2) (name PCINT20/XCK/T0PD4) (type BiDi))
        (pin (num 3) (name GND) (type power_in))
        (pin (num 4) (name VCC) (type power_in))
        (pin (num 5) (name GND) (type power_in))
        (pin (num 6) (name VCC) (type power_in))
        (pin (num 7) (name PCINT6/XTAL1/TOSC1PB6) (type BiDi))
        (pin (num 8) (name PCINT7/XTAL2/TOSC2PB7) (type BiDi))
        (pin (num 9) (name PCINT21/OC0B/T1PD5) (type BiDi))
        (pin (num 10) (name PCINT22/OC0A/AIN0PD6) (type BiDi))
        (pin (num 11) (name PCINT23/AIN1PD7) (type BiDi))
        (pin (num 12) (name PCINT0/CLKO/ICP1PB0) (type BiDi))
        (pin (num 13) (name PCINT1/OC1APB1) (type BiDi))
        (pin (num 14) (name PCINT2/SS/OC1BPB2) (type BiDi))
        (pin (num 15) (name PCINT3/OC2A/MOSIPB3) (type BiDi))
        (pin (num 16) (name PCINT4/MISOPB4) (type BiDi))
        (pin (num 17) (name PB5SCK/PCINT5) (type BiDi))
        (pin (num 18) (name AVCC) (type power_in))
        (pin (num 19) (name ADC6) (type input))
        (pin (num 20) (name AREF) (type unspc))
        (pin (num 21) (name GND) (type power_in))
        (pin (num 22) (name ADC7) (type input))
        (pin (num 23) (name PC0ADC0/PCINT8) (type BiDi))
        (pin (num 24) (name PC1ADC1/PCINT9) (type BiDi))
        (pin (num 25) (name PC2ADC2/PCINT10) (type BiDi))
        (pin (num 26) (name PC3ADC3/PCINT11) (type BiDi))
        (pin (num 27) (name PC4ADC4/SDA/PCINT12) (type BiDi))
        (pin (num 28) (name PC5ADC5/SCL/PCINT13) (type BiDi))
        (pin (num 29) (name PC6RESET/PCINT14) (type BiDi))
        (pin (num 30) (name PD0RXD/PCINT16) (type BiDi))
        (pin (num 31) (name PD1TXD/PCINT17) (type BiDi))
        (pin (num 32) (name PD2INT0/PCINT18) (type BiDi))))
    (libpart (lib 0_BQ21040DBVR) (part BQ21040DBVR)
      (footprints
        (fp DBV0006A_N)
        (fp DBV0006A_M)
        (fp DBV0006A_L))
      (fields
        (field (name Reference) U)
        (field (name Value) BQ21040DBVR)
        (field (name Footprint) DBV0006A_N))
      (pins
        (pin (num 1) (name TS) (type input))
        (pin (num 2) (name OUT) (type power_in))
        (pin (num 3) (name CHG_N) (type openCol))
        (pin (num 4) (name ISET) (type input))
        (pin (num 5) (name VSS) (type power_in))
        (pin (num 6) (name IN) (type power_in))))
    (libpart (lib 0_FT232RL) (part FT232RLREEL)
      (footprints
        (fp SSOP-28_FTD)
        (fp SSOP-28_FTD-M)
        (fp SSOP-28_FTD-L))
      (fields
        (field (name Reference) U)
        (field (name Value) FT232RLREEL)
        (field (name Footprint) SSOP-28_FTD))
      (pins
        (pin (num 1) (name TXD) (type output))
        (pin (num 2) (name DTR#) (type output))
        (pin (num 3) (name RTS#) (type output))
        (pin (num 4) (name VCCIO) (type power_in))
        (pin (num 5) (name RXD) (type input))
        (pin (num 6) (name RI#) (type input))
        (pin (num 7) (name GND) (type power_in))
        (pin (num 8) (name NC) (type NotConnected))
        (pin (num 9) (name DSR#) (type input))
        (pin (num 10) (name DCD#) (type input))
        (pin (num 11) (name CTS#) (type input))
        (pin (num 12) (name CBUS4) (type BiDi))
        (pin (num 13) (name CBUS2) (type BiDi))
        (pin (num 14) (name CBUS3) (type BiDi))
        (pin (num 15) (name USBDP) (type BiDi))
        (pin (num 16) (name USBDM) (type BiDi))
        (pin (num 17) (name 3V3OUT) (type output))
        (pin (num 18) (name GND) (type power_in))
        (pin (num 19) (name RESET#) (type input))
        (pin (num 20) (name VCC) (type power_in))
        (pin (num 21) (name GND) (type power_in))
        (pin (num 22) (name CBUS1) (type BiDi))
        (pin (num 23) (name CBUS0) (type BiDi))
        (pin (num 24) (name NC) (type NotConnected))
        (pin (num 25) (name AGND) (type power_in))
        (pin (num 26) (name TEST) (type input))
        (pin (num 27) (name OSCI) (type input))
        (pin (num 28) (name OSCO) (type output))))
    (libpart (lib 0_LT1302CN85#PBF) (part LT1302CN8-5-PBF)
      (footprints
        (fp PDIP-8_N_LIT))
      (fields
        (field (name Reference) U)
        (field (name Value) LT1302CN8-5-PBF)
        (field (name Footprint) PDIP-8_N_LIT))
      (pins
        (pin (num 1) (name GND) (type power_in))
        (pin (num 2) (name VC) (type unspc))
        (pin (num 3) (name SHDN) (type unspc))
        (pin (num 4) (name FBSENSE) (type unspc))
        (pin (num 5) (name IT) (type unspc))
        (pin (num 6) (name VIN) (type input))
        (pin (num 7) (name SW) (type unspc))
        (pin (num 8) (name PGND) (type power_in))))
    (libpart (lib 0_MBR0520-TP) (part MBR0520-TP)
      (footprints
        (fp DIODE_SOD123_2P7X1P6_MCC)
        (fp DIODE_SOD123_2P7X1P6_MCC-M)
        (fp DIODE_SOD123_2P7X1P6_MCC-L))
      (fields
        (field (name Reference) CR)
        (field (name Value) MBR0520-TP)
        (field (name Footprint) DIODE_SOD123_2P7X1P6_MCC))
      (pins
        (pin (num 1) (name 1) (type unspc))
        (pin (num 2) (name 2) (type unspc))))
    (libpart (lib 0_Micro_USB) (part 10118192-0002LF)
      (footprints
        (fp CONN_10118192-0002LF_AMP))
      (fields
        (field (name Reference) J)
        (field (name Value) 10118192-0002LF)
        (field (name Footprint) CONN_10118192-0002LF_AMP))
      (pins
        (pin (num 1) (name 1) (type unspc))
        (pin (num 2) (name 2) (type unspc))
        (pin (num 3) (name 3) (type unspc))
        (pin (num 4) (name 4) (type unspc))
        (pin (num 5) (name 5) (type unspc))))
    (libpart (lib 0_SN74LVC1T45DBVR) (part SN74LVC1T45DBVR)
      (footprints
        (fp DBV0006A_N)
        (fp DBV0006A_M)
        (fp DBV0006A_L))
      (fields
        (field (name Reference) U)
        (field (name Value) SN74LVC1T45DBVR)
        (field (name Footprint) DBV0006A_N))
      (pins
        (pin (num 1) (name VCCA) (type power_in))
        (pin (num 2) (name GND) (type power_in))
        (pin (num 3) (name A) (type BiDi))
        (pin (num 4) (name B) (type BiDi))
        (pin (num 5) (name DIR) (type input))
        (pin (num 6) (name VCCB) (type power_in))))
    (libpart (lib 0_SST26VF064B-104I/SM) (part SST26VF064B-104I_SM)
      (footprints
        (fp SOIJ8_SM_MCH)
        (fp SOIJ8_SM_MCH-M)
        (fp SOIJ8_SM_MCH-L))
      (fields
        (field (name Reference) U)
        (field (name Value) SST26VF064B-104I_SM)
        (field (name Footprint) SOIJ8_SM_MCH))
      (pins
        (pin (num 1) (name CE#) (type input))
        (pin (num 2) (name SO/SIO1) (type BiDi))
        (pin (num 3) (name WP#/SIO2) (type BiDi))
        (pin (num 4) (name VSS) (type power_in))
        (pin (num 5) (name SI/SIO0) (type BiDi))
        (pin (num 6) (name SCK) (type unspc))
        (pin (num 7) (name HOLD/SIO3) (type BiDi))
        (pin (num 8) (name VDD) (type power_in))))
    (libpart (lib 74xGxx) (part 74LVC2G04)
      (aliases
        (alias 74AUC2G04)
        (alias 74LVC2GU04)
        (alias 74AUC2GU04))
      (description "Dual NOT Gate, Low-Voltage CMOS")
      (docs http://www.ti.com/lit/sg/scyt129e/scyt129e.pdf)
      (footprints
        (fp SG-*)
        (fp SOT*))
      (fields
        (field (name Reference) U)
        (field (name Value) 74LVC2G04))
      (pins
        (pin (num 1) (name ~) (type input))
        (pin (num 2) (name GND) (type power_in))
        (pin (num 3) (name ~) (type input))
        (pin (num 4) (name ~) (type output))
        (pin (num 5) (name VCC) (type power_in))
        (pin (num 6) (name ~) (type output))))
    (libpart (lib Connector) (part AVR-ISP-6)
      (description "Atmel 6-pin ISP connector")
      (docs " ~")
      (footprints
        (fp IDC?Header*2x03*)
        (fp Pin?Header*2x03*))
      (fields
        (field (name Reference) J)
        (field (name Value) AVR-ISP-6))
      (pins
        (pin (num 1) (name MISO) (type passive))
        (pin (num 2) (name VCC) (type power_in))
        (pin (num 3) (name SCK) (type passive))
        (pin (num 4) (name MOSI) (type passive))
        (pin (num 5) (name ~RST) (type passive))
        (pin (num 6) (name GND) (type power_in))))
    (libpart (lib Connector) (part Conn_01x02_Male)
      (description "Generic connector, single row, 01x02, script generated (kicad-library-utils/schlib/autogen/connector/)")
      (docs ~)
      (footprints
        (fp Connector*:*_1x??_*))
      (fields
        (field (name Reference) J)
        (field (name Value) Conn_01x02_Male))
      (pins
        (pin (num 1) (name Pin_1) (type passive))
        (pin (num 2) (name Pin_2) (type passive))))
    (libpart (lib Connector) (part Conn_01x05_Female)
      (description "Generic connector, single row, 01x05, script generated (kicad-library-utils/schlib/autogen/connector/)")
      (docs ~)
      (footprints
        (fp Connector*:*_1x??_*))
      (fields
        (field (name Reference) J)
        (field (name Value) Conn_01x05_Female))
      (pins
        (pin (num 1) (name Pin_1) (type passive))
        (pin (num 2) (name Pin_2) (type passive))
        (pin (num 3) (name Pin_3) (type passive))
        (pin (num 4) (name Pin_4) (type passive))
        (pin (num 5) (name Pin_5) (type passive))))
    (libpart (lib Connector) (part Conn_01x14_Female)
      (description "Generic connector, single row, 01x14, script generated (kicad-library-utils/schlib/autogen/connector/)")
      (docs ~)
      (footprints
        (fp Connector*:*_1x??_*))
      (fields
        (field (name Reference) J)
        (field (name Value) Conn_01x14_Female))
      (pins
        (pin (num 1) (name Pin_1) (type passive))
        (pin (num 2) (name Pin_2) (type passive))
        (pin (num 3) (name Pin_3) (type passive))
        (pin (num 4) (name Pin_4) (type passive))
        (pin (num 5) (name Pin_5) (type passive))
        (pin (num 6) (name Pin_6) (type passive))
        (pin (num 7) (name Pin_7) (type passive))
        (pin (num 8) (name Pin_8) (type passive))
        (pin (num 9) (name Pin_9) (type passive))
        (pin (num 10) (name Pin_10) (type passive))
        (pin (num 11) (name Pin_11) (type passive))
        (pin (num 12) (name Pin_12) (type passive))
        (pin (num 13) (name Pin_13) (type passive))
        (pin (num 14) (name Pin_14) (type passive))))
    (libpart (lib Connector) (part Conn_01x14_Male)
      (description "Generic connector, single row, 01x14, script generated (kicad-library-utils/schlib/autogen/connector/)")
      (docs ~)
      (footprints
        (fp Connector*:*_1x??_*))
      (fields
        (field (name Reference) J)
        (field (name Value) Conn_01x14_Male))
      (pins
        (pin (num 1) (name Pin_1) (type passive))
        (pin (num 2) (name Pin_2) (type passive))
        (pin (num 3) (name Pin_3) (type passive))
        (pin (num 4) (name Pin_4) (type passive))
        (pin (num 5) (name Pin_5) (type passive))
        (pin (num 6) (name Pin_6) (type passive))
        (pin (num 7) (name Pin_7) (type passive))
        (pin (num 8) (name Pin_8) (type passive))
        (pin (num 9) (name Pin_9) (type passive))
        (pin (num 10) (name Pin_10) (type passive))
        (pin (num 11) (name Pin_11) (type passive))
        (pin (num 12) (name Pin_12) (type passive))
        (pin (num 13) (name Pin_13) (type passive))
        (pin (num 14) (name Pin_14) (type passive))))
    (libpart (lib Connector_Generic) (part Conn_01x02)
      (description "Generic connector, single row, 01x02, script generated (kicad-library-utils/schlib/autogen/connector/)")
      (docs ~)
      (footprints
        (fp Connector*:*_1x??_*))
      (fields
        (field (name Reference) J)
        (field (name Value) Conn_01x02))
      (pins
        (pin (num 1) (name Pin_1) (type passive))
        (pin (num 2) (name Pin_2) (type passive))))
    (libpart (lib Device) (part C)
      (description "Unpolarized capacitor")
      (docs ~)
      (footprints
        (fp C_*))
      (fields
        (field (name Reference) C)
        (field (name Value) C))
      (pins
        (pin (num 1) (name ~) (type passive))
        (pin (num 2) (name ~) (type passive))))
    (libpart (lib Device) (part CP)
      (description "Polarized capacitor")
      (docs ~)
      (footprints
        (fp CP_*))
      (fields
        (field (name Reference) C)
        (field (name Value) CP))
      (pins
        (pin (num 1) (name ~) (type passive))
        (pin (num 2) (name ~) (type passive))))
    (libpart (lib Device) (part Fuse)
      (description Fuse)
      (docs ~)
      (footprints
        (fp *Fuse*))
      (fields
        (field (name Reference) F)
        (field (name Value) Fuse))
      (pins
        (pin (num 1) (name ~) (type passive))
        (pin (num 2) (name ~) (type passive))))
    (libpart (lib Device) (part LED)
      (description "Light emitting diode")
      (docs ~)
      (footprints
        (fp LED*)
        (fp LED_SMD:*)
        (fp LED_THT:*))
      (fields
        (field (name Reference) D)
        (field (name Value) LED))
      (pins
        (pin (num 1) (name K) (type passive))
        (pin (num 2) (name A) (type passive))))
    (libpart (lib Device) (part R)
      (description Resistor)
      (docs ~)
      (footprints
        (fp R_*))
      (fields
        (field (name Reference) R)
        (field (name Value) R))
      (pins
        (pin (num 1) (name ~) (type passive))
        (pin (num 2) (name ~) (type passive))))
    (libpart (lib Mechanical) (part MountingHole)
      (description "Mounting Hole without connection")
      (docs ~)
      (footprints
        (fp MountingHole*))
      (fields
        (field (name Reference) H)
        (field (name Value) MountingHole)))
    (libpart (lib Switch) (part SW_Push)
      (description "Push button switch, generic, two pins")
      (docs ~)
      (fields
        (field (name Reference) SW)
        (field (name Value) SW_Push))
      (pins
        (pin (num 1) (name 1) (type passive))
        (pin (num 2) (name 2) (type passive))))
    (libpart (lib Switch) (part SW_SPST)
      (description "Single Pole Single Throw (SPST) switch")
      (docs ~)
      (fields
        (field (name Reference) SW)
        (field (name Value) SW_SPST))
      (pins
        (pin (num 1) (name A) (type passive))
        (pin (num 2) (name B) (type passive)))))
  (libraries
    (library (logical 0_74406043100)
      (uri "C:/Program Files/KiCad/share/kicad/lib_Geo_Logger/SamacSys_Parts.lib"))
    (library (logical 0_ATMEGA328PB-AU)
      (uri "C:/Program Files/KiCad/share/kicad/lib_Geo_Logger/ul_ATMEGA328PBAUR/KiCAD/2020-10-20_15-15-39/2020-10-20_15-15-39.lib"))
    (library (logical 0_BQ21040DBVR)
      (uri "C:/Program Files/KiCad/share/kicad/lib_Geo_Logger/ul_BQ21040DBVR/KiCAD/2021-01-11_13-03-42/2021-01-11_13-03-42.lib"))
    (library (logical 0_FT232RL)
      (uri "C:/Program Files/KiCad/share/kicad/lib_Geo_Logger/ul_FT232RLREEL/KiCAD/2020-10-20_14-50-53/2020-10-20_14-50-53.lib"))
    (library (logical 0_LT1302CN85#PBF)
      (uri "C:/Program Files/KiCad/share/kicad/lib_Geo_Logger/ul_LT1302CN85PBF/KiCAD/2020-10-20_14-54-21/2020-10-20_14-54-21.lib"))
    (library (logical 0_MBR0520-TP)
      (uri "C:/Program Files/KiCad/share/kicad/lib_Geo_Logger/ul_MBR0520TP/KiCAD/2020-10-21_11-59-29/2020-10-21_11-59-29.lib"))
    (library (logical 0_Micro_USB)
      (uri "C:/Program Files/KiCad/share/kicad/lib_Geo_Logger/ul_101181920002LF/KiCAD/2020-10-19_12-19-30/2020-10-19_12-19-30.lib"))
    (library (logical 0_SN74LVC1T45DBVR)
      (uri "C:/Program Files/KiCad/share/kicad/lib_Geo_Logger/ul_SN74LVC1T45DBVR/KiCAD/2020-10-29_08-51-37/2020-10-29_08-51-37.lib"))
    (library (logical 0_SST26VF064B-104I/SM)
      (uri "C:/Program Files/KiCad/share/kicad/lib_Geo_Logger/ul_SST26VF064B104ISM/KiCAD/2020-10-20_14-59-45/2020-10-20_14-59-45.lib"))
    (library (logical 74xGxx)
      (uri "C:\\Program Files\\KiCad\\share\\kicad\\library/74xGxx.lib"))
    (library (logical Connector)
      (uri "C:\\Program Files\\KiCad\\share\\kicad\\library/Connector.lib"))
    (library (logical Connector_Generic)
      (uri "C:\\Program Files\\KiCad\\share\\kicad\\library/Connector_Generic.lib"))
    (library (logical Device)
      (uri "C:\\Program Files\\KiCad\\share\\kicad\\library/Device.lib"))
    (library (logical Mechanical)
      (uri "C:\\Program Files\\KiCad\\share\\kicad\\library/Mechanical.lib"))
    (library (logical Switch)
      (uri "C:\\Program Files\\KiCad\\share\\kicad\\library/Switch.lib")))
  (nets
    (net (code 1) (name GND)
      (node (ref C7) (pin 2))
      (node (ref R3) (pin 1))
      (node (ref C5) (pin 2))
      (node (ref Zellen1) (pin 2))
      (node (ref C8) (pin 2))
      (node (ref C19) (pin 1))
      (node (ref C6) (pin 2))
      (node (ref Boost1) (pin 8))
      (node (ref C4) (pin 2))
      (node (ref Reset1) (pin 1))
      (node (ref Boost1) (pin 1))
      (node (ref C21) (pin 2))
      (node (ref R7) (pin 2))
      (node (ref R15) (pin 1))
      (node (ref SO-W1) (pin 2))
      (node (ref U2) (pin 2))
      (node (ref U2) (pin 2))
      (node (ref J4) (pin 2))
      (node (ref J4) (pin 3))
      (node (ref ISP1) (pin 6))
      (node (ref C20) (pin 2))
      (node (ref µC1) (pin 21))
      (node (ref C18) (pin 2))
      (node (ref C10) (pin 2))
      (node (ref J1) (pin 14))
      (node (ref SO-W1) (pin 5))
      (node (ref Flash1) (pin 4))
      (node (ref C12) (pin 2))
      (node (ref C9) (pin 2))
      (node (ref C11) (pin 2))
      (node (ref µC1) (pin 3))
      (node (ref R21) (pin 1))
      (node (ref C13) (pin 2))
      (node (ref R23) (pin 1))
      (node (ref µC1) (pin 5))
      (node (ref R12) (pin 1))
      (node (ref U1) (pin 5))
      (node (ref C1) (pin 2))
      (node (ref Boost1) (pin 3)))
    (net (code 2) (name "Net-(Boost1-Pad2)")
      (node (ref R8) (pin 1))
      (node (ref Boost1) (pin 2)))
    (net (code 3) (name "Net-(C9-Pad1)")
      (node (ref C9) (pin 1))
      (node (ref R8) (pin 2)))
    (net (code 4) (name VCC)
      (node (ref U2) (pin 5))
      (node (ref µC1) (pin 6))
      (node (ref U2) (pin 5))
      (node (ref J4) (pin 1))
      (node (ref µC1) (pin 4))
      (node (ref C5) (pin 1))
      (node (ref µC1) (pin 18))
      (node (ref C8) (pin 1))
      (node (ref R1) (pin 2))
      (node (ref C6) (pin 1))
      (node (ref C7) (pin 1))
      (node (ref ISP1) (pin 2))
      (node (ref J1) (pin 1))
      (node (ref VCC1) (pin 1))
      (node (ref SO-W1) (pin 1)))
    (net (code 5) (name "Net-(C12-Pad1)")
      (node (ref C12) (pin 1))
      (node (ref VCC1) (pin 2))
      (node (ref C13) (pin 1))
      (node (ref CR1) (pin 1))
      (node (ref R11) (pin 2)))
    (net (code 6) (name "Net-(µC1-Pad28)")
      (node (ref µC1) (pin 28)))
    (net (code 7) (name "Net-(µC1-Pad27)")
      (node (ref µC1) (pin 27)))
    (net (code 8) (name "Net-(J4-Pad4)")
      (node (ref J4) (pin 4))
      (node (ref U2) (pin 1)))
    (net (code 9) (name U-Zellen)
      (node (ref µC1) (pin 25))
      (node (ref R16) (pin 1)))
    (net (code 10) (name "Net-(µC1-Pad26)")
      (node (ref µC1) (pin 26)))
    (net (code 11) (name "Net-(Fuse1-Pad1)")
      (node (ref Fuse1) (pin 1))
      (node (ref J3) (pin 1)))
    (net (code 12) (name "Net-(Boost1-Pad4)")
      (node (ref R12) (pin 2))
      (node (ref Boost1) (pin 4))
      (node (ref C20) (pin 1))
      (node (ref R11) (pin 1)))
    (net (code 13) (name "Net-(R3-Pad2)")
      (node (ref U1) (pin 4))
      (node (ref R3) (pin 2)))
    (net (code 14) (name Vin)
      (node (ref C21) (pin 1))
      (node (ref U1) (pin 6))
      (node (ref J1) (pin 5)))
    (net (code 15) (name "Net-(Boost1-Pad5)")
      (node (ref Boost1) (pin 5)))
    (net (code 16) (name "Net-(R7-Pad1)")
      (node (ref R7) (pin 1))
      (node (ref U1) (pin 1)))
    (net (code 17) (name "Net-(J2-Pad9)")
      (node (ref LadeLED1) (pin 1))
      (node (ref J2) (pin 9)))
    (net (code 18) (name "Net-(LadeLED1-Pad2)")
      (node (ref LadeLED1) (pin 2))
      (node (ref R9) (pin 1)))
    (net (code 19) (name "Net-(Boost1-Pad7)")
      (node (ref CR1) (pin 2))
      (node (ref L1) (pin 2))
      (node (ref R13) (pin 1))
      (node (ref Boost1) (pin 7)))
    (net (code 20) (name "Net-(C19-Pad2)")
      (node (ref R13) (pin 2))
      (node (ref C19) (pin 2)))
    (net (code 21) (name "Net-(J2-Pad8)")
      (node (ref J2) (pin 8))
      (node (ref LED3) (pin 2)))
    (net (code 22) (name "Net-(J2-Pad12)")
      (node (ref LED1) (pin 2))
      (node (ref J2) (pin 12)))
    (net (code 23) (name "Net-(J2-Pad10)")
      (node (ref J2) (pin 10))
      (node (ref LED2) (pin 2)))
    (net (code 24) (name "Net-(J2-Pad6)")
      (node (ref SW1) (pin 1))
      (node (ref J2) (pin 6)))
    (net (code 25) (name GNSS-TX-RX)
      (node (ref µC1) (pin 30))
      (node (ref U2) (pin 6)))
    (net (code 26) (name "Net-(J4-Pad5)")
      (node (ref U2) (pin 4))
      (node (ref J4) (pin 5)))
    (net (code 27) (name "Net-(Fuse1-Pad2)")
      (node (ref J2) (pin 5))
      (node (ref Fuse1) (pin 2)))
    (net (code 28) (name "Net-(J2-Pad3)")
      (node (ref J2) (pin 3))
      (node (ref SW2) (pin 2)))
    (net (code 29) (name GNSS-RX-TX)
      (node (ref µC1) (pin 31))
      (node (ref U2) (pin 3)))
    (net (code 30) (name "Net-(J2-Pad7)")
      (node (ref J2) (pin 7))
      (node (ref R9) (pin 2))
      (node (ref SW2) (pin 1)))
    (net (code 31) (name "Net-(USB-W1-Pad2)")
      (node (ref USB-W1) (pin 2)))
    (net (code 32) (name HT)
      (node (ref C17) (pin 1))
      (node (ref C15) (pin 1))
      (node (ref USB-W1) (pin 4))
      (node (ref J2) (pin 1))
      (node (ref C16) (pin 1))
      (node (ref USB-W1) (pin 20)))
    (net (code 33) (name "Net-(J2-Pad11)")
      (node (ref J2) (pin 11)))
    (net (code 34) (name VCC-3v3-1)
      (node (ref C14) (pin 1))
      (node (ref USB-W1) (pin 17))
      (node (ref J2) (pin 13)))
    (net (code 35) (name TXD-USB-W1)
      (node (ref J2) (pin 2))
      (node (ref USB-W1) (pin 1)))
    (net (code 36) (name "Net-(J3-Pad4)")
      (node (ref J3) (pin 4)))
    (net (code 37) (name "Net-(R2-Pad2)")
      (node (ref R2) (pin 2))
      (node (ref SW1) (pin 2)))
    (net (code 38) (name "Net-(J1-Pad11)")
      (node (ref J1) (pin 11)))
    (net (code 39) (name LadeLED1)
      (node (ref J1) (pin 9))
      (node (ref U1) (pin 3)))
    (net (code 40) (name RXD-USB-W1)
      (node (ref USB-W1) (pin 5))
      (node (ref J2) (pin 4)))
    (net (code 41) (name LED2)
      (node (ref J1) (pin 10))
      (node (ref µC1) (pin 1)))
    (net (code 42) (name EinAus2)
      (node (ref Boost1) (pin 6))
      (node (ref L1) (pin 1))
      (node (ref C18) (pin 1))
      (node (ref J1) (pin 3)))
    (net (code 43) (name EinAus1)
      (node (ref U1) (pin 2))
      (node (ref Zellen1) (pin 1))
      (node (ref J1) (pin 7))
      (node (ref R16) (pin 2))
      (node (ref C11) (pin 1))
      (node (ref C10) (pin 1)))
    (net (code 44) (name LED3)
      (node (ref J1) (pin 8))
      (node (ref µC1) (pin 2)))
    (net (code 45) (name SI-Flash-IN)
      (node (ref µC1) (pin 22))
      (node (ref R22) (pin 2)))
    (net (code 46) (name ISP-MISO)
      (node (ref ISP1) (pin 1))
      (node (ref µC1) (pin 16))
      (node (ref J1) (pin 2)))
    (net (code 47) (name ISP-SCK)
      (node (ref µC1) (pin 17))
      (node (ref ISP1) (pin 3)))
    (net (code 48) (name ISP-MOSI)
      (node (ref µC1) (pin 15))
      (node (ref ISP1) (pin 4))
      (node (ref J1) (pin 4)))
    (net (code 49) (name "Net-(USB-W1-Pad28)")
      (node (ref USB-W1) (pin 28)))
    (net (code 50) (name "Net-(USB-W1-Pad27)")
      (node (ref USB-W1) (pin 27)))
    (net (code 51) (name "Net-(C4-Pad1)")
      (node (ref µC1) (pin 20))
      (node (ref C4) (pin 1)))
    (net (code 52) (name "Net-(USB-W1-Pad14)")
      (node (ref USB-W1) (pin 14)))
    (net (code 53) (name "Net-(USB-W1-Pad13)")
      (node (ref USB-W1) (pin 13)))
    (net (code 54) (name "Net-(USB-W1-Pad12)")
      (node (ref USB-W1) (pin 12)))
    (net (code 55) (name "Net-(USB-W1-Pad11)")
      (node (ref USB-W1) (pin 11)))
    (net (code 56) (name "Net-(USB-W1-Pad10)")
      (node (ref USB-W1) (pin 10)))
    (net (code 57) (name "Net-(USB-W1-Pad9)")
      (node (ref USB-W1) (pin 9)))
    (net (code 58) (name "Net-(USB-W1-Pad6)")
      (node (ref USB-W1) (pin 6)))
    (net (code 59) (name Prog-SS)
      (node (ref µC1) (pin 14))
      (node (ref µC1) (pin 29))
      (node (ref ISP1) (pin 5))
      (node (ref R1) (pin 1))
      (node (ref Reset1) (pin 2))
      (node (ref C1) (pin 1)))
    (net (code 60) (name "Net-(USB-W1-Pad3)")
      (node (ref USB-W1) (pin 3)))
    (net (code 61) (name CE-Flash-OUT)
      (node (ref R15) (pin 2))
      (node (ref R4) (pin 1))
      (node (ref Flash1) (pin 1)))
    (net (code 62) (name SO_Flash_IN)
      (node (ref SO-W1) (pin 4))
      (node (ref Flash1) (pin 2)))
    (net (code 63) (name VCC-3v3)
      (node (ref J1) (pin 13))
      (node (ref SO-W1) (pin 6))
      (node (ref Flash1) (pin 8))
      (node (ref Flash1) (pin 3))
      (node (ref Flash1) (pin 7)))
    (net (code 64) (name SI-Flash-OUT)
      (node (ref R23) (pin 2))
      (node (ref Flash1) (pin 5))
      (node (ref R22) (pin 1)))
    (net (code 65) (name SCK-Flash-OUT)
      (node (ref Flash1) (pin 6))
      (node (ref R20) (pin 1))
      (node (ref R21) (pin 2)))
    (net (code 66) (name GNDD)
      (node (ref J2) (pin 14))
      (node (ref C17) (pin 2))
      (node (ref J3) (pin 5))
      (node (ref R2) (pin 1))
      (node (ref R14) (pin 1))
      (node (ref USB-W1) (pin 21))
      (node (ref USB-W1) (pin 18))
      (node (ref USB-W1) (pin 7))
      (node (ref R5) (pin 1))
      (node (ref R6) (pin 2))
      (node (ref USB-W1) (pin 26))
      (node (ref C16) (pin 2))
      (node (ref C15) (pin 2))
      (node (ref USB-W1) (pin 25))
      (node (ref C14) (pin 2)))
    (net (code 67) (name "Net-(LED2-Pad1)")
      (node (ref LED2) (pin 1))
      (node (ref R5) (pin 2)))
    (net (code 68) (name "Net-(µC1-Pad7)")
      (node (ref µC1) (pin 7)))
    (net (code 69) (name "Net-(µC1-Pad8)")
      (node (ref µC1) (pin 8)))
    (net (code 70) (name "Net-(µC1-Pad9)")
      (node (ref µC1) (pin 9)))
    (net (code 71) (name "Net-(µC1-Pad10)")
      (node (ref µC1) (pin 10)))
    (net (code 72) (name "Net-(µC1-Pad11)")
      (node (ref µC1) (pin 11)))
    (net (code 73) (name "Net-(µC1-Pad12)")
      (node (ref µC1) (pin 12)))
    (net (code 74) (name Start1)
      (node (ref J1) (pin 6))
      (node (ref µC1) (pin 13)))
    (net (code 75) (name SCK-Flash-IN)
      (node (ref R20) (pin 2))
      (node (ref µC1) (pin 24)))
    (net (code 76) (name "Net-(USB-W1-Pad23)")
      (node (ref USB-W1) (pin 23)))
    (net (code 77) (name "Net-(USB-W1-Pad22)")
      (node (ref USB-W1) (pin 22)))
    (net (code 78) (name "Net-(LED3-Pad1)")
      (node (ref LED3) (pin 1))
      (node (ref R6) (pin 1)))
    (net (code 79) (name SO_Flash_OUT)
      (node (ref SO-W1) (pin 3))
      (node (ref µC1) (pin 23)))
    (net (code 80) (name LED1)
      (node (ref J1) (pin 12))
      (node (ref µC1) (pin 32)))
    (net (code 81) (name "Net-(LED1-Pad1)")
      (node (ref R14) (pin 2))
      (node (ref LED1) (pin 1)))
    (net (code 82) (name CE-Flash-IN)
      (node (ref µC1) (pin 19))
      (node (ref R4) (pin 2)))
    (net (code 83) (name "Net-(USB-W1-Pad19)")
      (node (ref USB-W1) (pin 19)))
    (net (code 84) (name D+)
      (node (ref USB-W1) (pin 15))
      (node (ref J3) (pin 3)))
    (net (code 85) (name "Net-(USB-W1-Pad8)")
      (node (ref USB-W1) (pin 8)))
    (net (code 86) (name D-)
      (node (ref USB-W1) (pin 16))
      (node (ref J3) (pin 2)))
    (net (code 87) (name "Net-(USB-W1-Pad24)")
      (node (ref USB-W1) (pin 24)))))