EESchema Schematic File Version 4
LIBS:Geo-Logger-v3-1-cache
EELAYER 30 0
EELAYER END
$Descr A3 16535 11693
encoding utf-8
Sheet 1 1
Title "Geo-Logger"
Date "2021-02-01"
Rev "v2.1"
Comp "HTL Rankweil"
Comment1 "Prototyp 2"
Comment2 "Moritz Schwärzler 5BHEL"
Comment3 "Diplomarbeit"
Comment4 "RidingData"
$EndDescr
$Comp
L power:GND #PWR0101
U 1 1 5F7BAB67
P 10350 6900
F 0 "#PWR0101" H 10350 6650 50  0001 C CNN
F 1 "GND" H 10355 6727 50  0000 C CNN
F 2 "" H 10350 6900 50  0001 C CNN
F 3 "" H 10350 6900 50  0001 C CNN
	1    10350 6900
	0    1    1    0   
$EndComp
$Comp
L Switch:SW_Push Reset1
U 1 1 5F815D83
P 1050 5350
F 0 "Reset1" V 1096 5302 50  0000 R CNN
F 1 "SW_Push" V 1005 5302 50  0000 R CNN
F 2 "Connector_PinHeader_2.54mm:PinHeader_1x02_P2.54mm_Vertical" H 1050 5550 50  0001 C CNN
F 3 "~" H 1050 5550 50  0001 C CNN
	1    1050 5350
	0    -1   -1   0   
$EndComp
$Comp
L Device:C C4
U 1 1 5F81D188
P 9050 7150
F 0 "C4" H 9165 7196 50  0000 L CNN
F 1 "0µ1" H 9165 7105 50  0000 L CNN
F 2 "Capacitor_SMD:C_0805_2012Metric" H 9088 7000 50  0001 C CNN
F 3 "~" H 9050 7150 50  0001 C CNN
	1    9050 7150
	1    0    0    -1  
$EndComp
$Comp
L power:GND #PWR0115
U 1 1 5F81DB4D
P 9050 7350
F 0 "#PWR0115" H 9050 7100 50  0001 C CNN
F 1 "GND" H 9055 7177 50  0000 C CNN
F 2 "" H 9050 7350 50  0001 C CNN
F 3 "" H 9050 7350 50  0001 C CNN
	1    9050 7350
	1    0    0    -1  
$EndComp
$Comp
L Device:C C1
U 1 1 5F826731
P 800 5300
F 0 "C1" H 915 5346 50  0000 L CNN
F 1 "0µ1" H 915 5255 50  0000 L CNN
F 2 "Capacitor_SMD:C_0805_2012Metric" H 838 5150 50  0001 C CNN
F 3 "~" H 800 5300 50  0001 C CNN
	1    800  5300
	1    0    0    -1  
$EndComp
$Comp
L power:GND #PWR0118
U 1 1 5F826C14
P 800 5450
F 0 "#PWR0118" H 800 5200 50  0001 C CNN
F 1 "GND" H 805 5277 50  0000 C CNN
F 2 "" H 800 5450 50  0001 C CNN
F 3 "" H 800 5450 50  0001 C CNN
	1    800  5450
	1    0    0    -1  
$EndComp
$Comp
L power:GND #PWR0119
U 1 1 5F827191
P 1050 5550
F 0 "#PWR0119" H 1050 5300 50  0001 C CNN
F 1 "GND" H 1055 5377 50  0000 C CNN
F 2 "" H 1050 5550 50  0001 C CNN
F 3 "" H 1050 5550 50  0001 C CNN
	1    1050 5550
	1    0    0    -1  
$EndComp
$Comp
L power:VCC #PWR0120
U 1 1 5F8284D5
P 800 4750
F 0 "#PWR0120" H 800 4600 50  0001 C CNN
F 1 "VCC" H 817 4923 50  0000 C CNN
F 2 "" H 800 4750 50  0001 C CNN
F 3 "" H 800 4750 50  0001 C CNN
	1    800  4750
	1    0    0    -1  
$EndComp
Wire Wire Line
	800  5050 800  5150
Wire Wire Line
	1050 5150 800  5150
Connection ~ 800  5150
Wire Wire Line
	1050 5150 1400 5150
Connection ~ 1050 5150
$Comp
L Device:CP C6
U 1 1 5F82D74A
P 4750 5050
F 0 "C6" H 4868 5096 50  0000 L CNN
F 1 "47µ" H 4868 5005 50  0000 L CNN
F 2 "Capacitor_Tantalum_SMD:CP_EIA-6032-28_Kemet-C_Pad2.25x2.35mm_HandSolder" H 4788 4900 50  0001 C CNN
F 3 "~" H 4750 5050 50  0001 C CNN
	1    4750 5050
	1    0    0    -1  
$EndComp
$Comp
L Device:C C7
U 1 1 5F82E4AF
P 5100 5050
F 0 "C7" H 5215 5096 50  0000 L CNN
F 1 "1µ" H 5215 5005 50  0000 L CNN
F 2 "Capacitor_SMD:C_0805_2012Metric" H 5138 4900 50  0001 C CNN
F 3 "~" H 5100 5050 50  0001 C CNN
	1    5100 5050
	1    0    0    -1  
$EndComp
$Comp
L Device:C C8
U 1 1 5F82E8E9
P 5350 5050
F 0 "C8" H 5465 5096 50  0000 L CNN
F 1 "0µ1" H 5465 5005 50  0000 L CNN
F 2 "Capacitor_SMD:C_0805_2012Metric" H 5388 4900 50  0001 C CNN
F 3 "~" H 5350 5050 50  0001 C CNN
	1    5350 5050
	1    0    0    -1  
$EndComp
$Comp
L Device:C C5
U 1 1 5F82EB6A
P 4450 5050
F 0 "C5" H 4565 5096 50  0000 L CNN
F 1 "0µ1" H 4565 5005 50  0000 L CNN
F 2 "Capacitor_SMD:C_0805_2012Metric" H 4488 4900 50  0001 C CNN
F 3 "~" H 4450 5050 50  0001 C CNN
	1    4450 5050
	1    0    0    -1  
$EndComp
Wire Wire Line
	4450 4900 4750 4900
Connection ~ 4750 4900
Wire Wire Line
	4750 4900 4900 4900
Connection ~ 5100 4900
Wire Wire Line
	5100 4900 5350 4900
$Comp
L power:GND #PWR0121
U 1 1 5F8326FD
P 4900 5200
F 0 "#PWR0121" H 4900 4950 50  0001 C CNN
F 1 "GND" H 4905 5027 50  0000 C CNN
F 2 "" H 4900 5200 50  0001 C CNN
F 3 "" H 4900 5200 50  0001 C CNN
	1    4900 5200
	1    0    0    -1  
$EndComp
Wire Wire Line
	4450 5200 4750 5200
Connection ~ 4750 5200
Connection ~ 5100 5200
Wire Wire Line
	5100 5200 5350 5200
Text Notes 10000 850  0    79   ~ 16
µ-USB-Schnittstelle-mit-Wandler
Text Notes 6800 3400 2    50   ~ 0
PPS 3.3V TTL?
Text Notes 6800 3500 2    50   ~ 0
RS232 RXD
Text Notes 6800 3600 2    50   ~ 0
RS232 TXD
Text Notes 6800 3700 2    50   ~ 0
shield --> GND
Text Notes 6800 3800 2    50   ~ 0
GND
Text Notes 6800 3900 2    50   ~ 0
VCC
Wire Wire Line
	7050 3700 7150 3700
Wire Wire Line
	7150 3700 7150 3750
Wire Wire Line
	7150 3800 7050 3800
$Comp
L power:VCC #PWR0127
U 1 1 5F8D848C
P 7050 3900
F 0 "#PWR0127" H 7050 3750 50  0001 C CNN
F 1 "VCC" V 7050 4100 50  0000 C CNN
F 2 "" H 7050 3900 50  0001 C CNN
F 3 "" H 7050 3900 50  0001 C CNN
	1    7050 3900
	0    1    1    0   
$EndComp
$Comp
L power:GND #PWR0128
U 1 1 5F8D9100
P 7150 3750
F 0 "#PWR0128" H 7150 3500 50  0001 C CNN
F 1 "GND" H 7155 3577 50  0000 C CNN
F 2 "" H 7150 3750 50  0001 C CNN
F 3 "" H 7150 3750 50  0001 C CNN
	1    7150 3750
	0    -1   -1   0   
$EndComp
Connection ~ 7150 3750
Wire Wire Line
	7150 3750 7150 3800
Text Notes 7950 3300 2    79   ~ 16
GNSS-Modul
Wire Wire Line
	4750 5200 4900 5200
$Comp
L power:VCC #PWR0129
U 1 1 5FB74F61
P 4900 4900
F 0 "#PWR0129" H 4900 4750 50  0001 C CNN
F 1 "VCC" H 4917 5073 50  0000 C CNN
F 2 "" H 4900 4900 50  0001 C CNN
F 3 "" H 4900 4900 50  0001 C CNN
	1    4900 4900
	1    0    0    -1  
$EndComp
Connection ~ 4900 4900
Wire Wire Line
	4900 4900 5100 4900
$Comp
L 0_SST26VF064B-104I/SM:SST26VF064B-104I_SM Flash1
U 1 1 5F954BFB
P 10100 3550
F 0 "Flash1" H 11300 3937 60  0000 C CNN
F 1 "SST26VF064B-104I_SM" H 11300 3831 60  0000 C CNN
F 2 "0_SST26VF064B-104I/SM:SST26VF064B-104I&slash_SM" H 11300 3790 60  0001 C CNN
F 3 "" H 10100 3550 60  0000 C CNN
	1    10100 3550
	1    0    0    -1  
$EndComp
Text GLabel 10350 6000 0    47   Input ~ 0
Vin
Text GLabel 13400 5000 0    47   Input ~ 0
D+
Text GLabel 13400 4900 0    47   Input ~ 0
D-
Connection ~ 4900 5200
Wire Wire Line
	4900 5200 5100 5200
$Comp
L power:VCC #PWR012
U 1 1 5FA8D450
P 2700 6050
F 0 "#PWR012" H 2700 5900 50  0001 C CNN
F 1 "VCC" V 2750 6200 50  0000 C CNN
F 2 "" H 2700 6050 50  0001 C CNN
F 3 "" H 2700 6050 50  0001 C CNN
	1    2700 6050
	0    -1   -1   0   
$EndComp
$Comp
L power:VCC #PWR014
U 1 1 5FA8E45D
P 2700 6250
F 0 "#PWR014" H 2700 6100 50  0001 C CNN
F 1 "VCC" V 2750 6400 50  0000 C CNN
F 2 "" H 2700 6250 50  0001 C CNN
F 3 "" H 2700 6250 50  0001 C CNN
	1    2700 6250
	0    -1   -1   0   
$EndComp
$Comp
L power:GND #PWR013
U 1 1 5FA8E819
P 2700 6150
F 0 "#PWR013" H 2700 5900 50  0001 C CNN
F 1 "GND" V 2650 6000 50  0000 C CNN
F 2 "" H 2700 6150 50  0001 C CNN
F 3 "" H 2700 6150 50  0001 C CNN
	1    2700 6150
	0    1    1    0   
$EndComp
Wire Wire Line
	2800 6250 2700 6250
Wire Wire Line
	2800 6150 2700 6150
Wire Wire Line
	2800 6050 2700 6050
Wire Wire Line
	2800 5950 2700 5950
Wire Wire Line
	9050 7300 9050 7350
$Comp
L power:VCC #PWR023
U 1 1 5FB0511C
P 8450 7150
F 0 "#PWR023" H 8450 7000 50  0001 C CNN
F 1 "VCC" H 8467 7323 50  0000 C CNN
F 2 "" H 8450 7150 50  0001 C CNN
F 3 "" H 8450 7150 50  0001 C CNN
	1    8450 7150
	0    1    1    0   
$EndComp
$Comp
L power:GND #PWR022
U 1 1 5FB06D81
P 8450 6850
F 0 "#PWR022" H 8450 6600 50  0001 C CNN
F 1 "GND" H 8455 6677 50  0000 C CNN
F 2 "" H 8450 6850 50  0001 C CNN
F 3 "" H 8450 6850 50  0001 C CNN
	1    8450 6850
	0    -1   -1   0   
$EndComp
Wire Wire Line
	8450 6850 8400 6850
Wire Wire Line
	8400 7150 8450 7150
$Comp
L Connector:AVR-ISP-6 ISP1
U 1 1 5FB1459D
P 1950 5100
F 0 "ISP1" H 1671 5196 50  0000 R CNN
F 1 "AVR-ISP-6" H 1671 5105 50  0000 R CNN
F 2 "Connector_PinHeader_2.54mm:PinHeader_2x03_P2.54mm_Vertical" V 1700 5150 50  0001 C CNN
F 3 " ~" H 675 4550 50  0001 C CNN
	1    1950 5100
	1    0    0    -1  
$EndComp
Text GLabel 8400 6050 2    47   Input ~ 0
Reset
Text GLabel 1400 5150 2    47   Input ~ 0
Reset
Text GLabel 2950 5200 2    47   Input ~ 0
Reset
Wire Wire Line
	2350 5200 2950 5200
$Comp
L power:VCC #PWR016
U 1 1 5FB3263B
P 1850 4550
F 0 "#PWR016" H 1850 4400 50  0001 C CNN
F 1 "VCC" H 1867 4723 50  0000 C CNN
F 2 "" H 1850 4550 50  0001 C CNN
F 3 "" H 1850 4550 50  0001 C CNN
	1    1850 4550
	1    0    0    -1  
$EndComp
$Comp
L power:GND #PWR017
U 1 1 5FB32CB9
P 1850 5550
F 0 "#PWR017" H 1850 5300 50  0001 C CNN
F 1 "GND" H 1855 5377 50  0000 C CNN
F 2 "" H 1850 5550 50  0001 C CNN
F 3 "" H 1850 5550 50  0001 C CNN
	1    1850 5550
	1    0    0    -1  
$EndComp
Wire Wire Line
	1850 5550 1850 5500
Wire Wire Line
	1850 4600 1850 4550
Text GLabel 2350 4900 2    47   Input ~ 0
ISP-MISO
Text GLabel 2350 5000 2    47   Input ~ 0
ISP-MOSI
Text GLabel 2350 5100 2    47   Input ~ 0
ISP-SCK
Text GLabel 2850 5200 1    47   Input ~ 0
Prog-SS
Text GLabel 2800 7050 0    47   Input ~ 0
Prog-SS
Text GLabel 12500 3550 2    47   Input ~ 0
VCC-3v3
$Comp
L power:GND #PWR015
U 1 1 5FBD166E
P 10050 3850
F 0 "#PWR015" H 10050 3600 50  0001 C CNN
F 1 "GND" H 10055 3677 50  0000 C CNN
F 2 "" H 10050 3850 50  0001 C CNN
F 3 "" H 10050 3850 50  0001 C CNN
	1    10050 3850
	0    1    1    0   
$EndComp
Wire Wire Line
	10100 3850 10050 3850
Text GLabel 10100 3650 0    47   Input ~ 0
SO_Flash_IN
Text GLabel 12500 3750 2    47   Input ~ 0
SCK-Flash-OUT
Text GLabel 12500 3850 2    47   Input ~ 0
SI-Flash-OUT
Text GLabel 10100 3550 0    47   Input ~ 0
CE-Flash-OUT
Text Notes 9850 3250 0    47   ~ 9
Flash
Text GLabel 8250 3500 2    47   Input ~ 0
GNSS-RX-TX
Text GLabel 8000 3900 2    47   Input ~ 0
GNSS-TX-RX
Wire Notes Line
	9050 4150 9050 3100
Wire Notes Line
	8950 3150 6100 3150
Wire Notes Line
	6100 3150 6100 4200
Text GLabel 8000 1400 2    47   Input ~ 0
SI-Flash-OUT
Text GLabel 7850 1000 2    47   Input ~ 0
SI-Flash-IN
Text GLabel 6400 1400 3    47   Input ~ 0
CE-Flash-OUT
Text GLabel 6250 1000 2    47   Input ~ 0
CE-Flash-IN
$Comp
L power:GND #PWR018
U 1 1 5FBF3C9E
P 6200 1750
F 0 "#PWR018" H 6200 1500 50  0001 C CNN
F 1 "GND" H 6205 1577 50  0000 C CNN
F 2 "" H 6200 1750 50  0001 C CNN
F 3 "" H 6200 1750 50  0001 C CNN
	1    6200 1750
	1    0    0    -1  
$EndComp
Text GLabel 7150 1400 3    47   Input ~ 0
SCK-Flash-OUT
Text GLabel 7050 1000 2    47   Input ~ 0
SCK-Flash-IN
Text Notes 6200 850  0    87   ~ 17
Pegelwandler 3V3 - 5V
Text GLabel 8500 2500 3    47   Input ~ 0
SO_Flash_IN
Wire Notes Line
	600  550  600  4150
Text GLabel 11350 2650 2    47   Input ~ 0
D+
$Comp
L Device:C C14
U 1 1 5FD62A20
P 12050 2450
F 0 "C14" H 12165 2496 50  0000 L CNN
F 1 "100nF" H 12165 2405 50  0000 L CNN
F 2 "Capacitor_SMD:C_0805_2012Metric" H 12088 2300 50  0001 C CNN
F 3 "~" H 12050 2450 50  0001 C CNN
	1    12050 2450
	0    -1   -1   0   
$EndComp
Wire Wire Line
	9500 1950 9550 1950
Wire Wire Line
	11350 2050 11400 2050
Wire Wire Line
	11350 1650 11400 1650
Wire Wire Line
	11350 2150 11400 2150
Wire Wire Line
	11350 2350 11400 2350
Wire Wire Line
	12200 2450 12250 2450
$Comp
L Device:R R1
U 1 1 5F827560
P 800 4900
F 0 "R1" H 730 4854 50  0000 R CNN
F 1 "10k" H 730 4945 50  0000 R CNN
F 2 "Resistor_SMD:R_0805_2012Metric" V 730 4900 50  0001 C CNN
F 3 "~" H 800 4900 50  0001 C CNN
	1    800  4900
	-1   0    0    1   
$EndComp
NoConn ~ 9550 2650
NoConn ~ 9550 2550
NoConn ~ 9550 2450
NoConn ~ 9550 2350
NoConn ~ 9550 2250
NoConn ~ 9550 2150
NoConn ~ 9550 1850
$Comp
L Device:CP C16
U 1 1 5FE1B903
P 12350 1600
F 0 "C16" H 12400 1700 50  0000 L CNN
F 1 "4.7µF" H 12400 1500 50  0000 L CNN
F 2 "Capacitor_Tantalum_SMD:CP_EIA-6032-28_Kemet-C_Pad2.25x2.35mm_HandSolder" H 12388 1450 50  0001 C CNN
F 3 "~" H 12350 1600 50  0001 C CNN
	1    12350 1600
	1    0    0    -1  
$EndComp
$Comp
L Device:C C15
U 1 1 5FE1B915
P 12050 1600
F 0 "C15" H 12100 1700 50  0000 L CNN
F 1 "100nF" H 12100 1500 50  0000 L CNN
F 2 "Capacitor_SMD:C_0805_2012Metric" H 12088 1450 50  0001 C CNN
F 3 "~" H 12050 1600 50  0001 C CNN
	1    12050 1600
	1    0    0    -1  
$EndComp
Text GLabel 11850 2450 1    47   Input ~ 0
VCC-3v3-1
NoConn ~ 11350 1350
NoConn ~ 11350 1450
Text GLabel 9450 1350 1    47   Input ~ 0
TXD-USB-W1
Text GLabel 9350 1750 3    47   Input ~ 0
RXD-USB-W1
Wire Notes Line
	8950 650  13150 650 
Wire Notes Line
	13150 650  13150 2950
Wire Notes Line
	13150 2950 8950 2950
Wire Notes Line
	8950 2950 8950 650 
Text GLabel 2500 7450 0    47   Input ~ 0
TXD-USB-W
Text GLabel 2500 7250 0    47   Input ~ 0
RXD-USB-W
Text GLabel 2500 7350 0    47   Input ~ 0
ISP-MISO
Text GLabel 2500 7150 0    47   Input ~ 0
ISP-MOSI
Text GLabel 8400 7250 2    47   Input ~ 0
ISP-SCK
Text GLabel 8400 6650 2    47   Input ~ 0
SO_Flash_OUT
Text GLabel 8400 6750 2    47   Input ~ 0
SI-Flash-IN
Text GLabel 8400 6550 2    47   Input ~ 0
SCK-Flash-IN
Text GLabel 8400 7050 2    47   Input ~ 0
CE-Flash-IN
Wire Wire Line
	9050 7000 9050 6950
Wire Wire Line
	8400 6950 9050 6950
NoConn ~ 9550 1550
Text GLabel 8400 5850 2    47   Input ~ 0
GNSS-RX-TX
Text GLabel 8400 5950 2    47   Input ~ 0
GNSS-TX-RX
Wire Wire Line
	2500 7350 2500 7450
Wire Wire Line
	2500 7250 2500 7150
Wire Wire Line
	2500 7150 2800 7150
Wire Wire Line
	2500 7350 2800 7350
Wire Wire Line
	2800 7350 2800 7250
Text Notes 12200 2150 0    39   ~ 0
3V3 SpgVersorg Flash
Wire Notes Line
	9500 4200 9500 3100
Wire Notes Line
	9000 3100 14050 3100
Wire Notes Line
	13200 3100 13200 4200
Wire Notes Line
	14050 4200 9000 4200
Wire Wire Line
	11350 1550 11400 1550
$Comp
L Device:C C17
U 1 1 5F9E022C
P 11850 1600
F 0 "C17" H 11900 1700 50  0000 L CNN
F 1 "100nF" H 11800 1500 50  0000 L CNN
F 2 "Capacitor_SMD:C_0805_2012Metric" H 11888 1450 50  0001 C CNN
F 3 "~" H 11850 1600 50  0001 C CNN
	1    11850 1600
	1    0    0    -1  
$EndComp
Wire Wire Line
	11850 1450 12050 1450
Connection ~ 12050 1450
Wire Wire Line
	11850 1750 12050 1750
Connection ~ 12050 1750
$Comp
L power:GND #PWR046
U 1 1 5FC1191F
P 6950 1750
F 0 "#PWR046" H 6950 1500 50  0001 C CNN
F 1 "GND" H 6955 1577 50  0000 C CNN
F 2 "" H 6950 1750 50  0001 C CNN
F 3 "" H 6950 1750 50  0001 C CNN
	1    6950 1750
	1    0    0    -1  
$EndComp
Wire Notes Line
	600  7600 9350 7600
Wire Notes Line
	9350 7600 9350 4250
Wire Notes Line
	9350 4250 600  4250
Wire Notes Line
	600  4250 600  7600
$Comp
L power:GND #PWR047
U 1 1 5FD47F39
P 7800 1750
F 0 "#PWR047" H 7800 1500 50  0001 C CNN
F 1 "GND" H 7805 1577 50  0000 C CNN
F 2 "" H 7800 1750 50  0001 C CNN
F 3 "" H 7800 1750 50  0001 C CNN
	1    7800 1750
	1    0    0    -1  
$EndComp
$Comp
L 0_SN74LVC1T45DBVR:SN74LVC1T45DBVR SO-W1
U 1 1 5FD670CF
P 7550 2500
F 0 "SO-W1" H 7550 3050 60  0000 C CNN
F 1 "SN74LVC1T45DBVR" H 7750 2950 60  0000 C CNN
F 2 "0_SN74LVC1T45DBVR:SN74LVC1T45DBVR" H 7550 2440 60  0001 C CNN
F 3 "" H 7550 2500 60  0000 C CNN
	1    7550 2500
	1    0    0    -1  
$EndComp
$Comp
L power:VCC #PWR026
U 1 1 5FD670D5
P 6750 2300
F 0 "#PWR026" H 6750 2150 50  0001 C CNN
F 1 "VCC" H 6767 2473 50  0000 C CNN
F 2 "" H 6750 2300 50  0001 C CNN
F 3 "" H 6750 2300 50  0001 C CNN
	1    6750 2300
	1    0    0    -1  
$EndComp
Text GLabel 8350 2300 2    47   Input ~ 0
VCC-3v3
$Comp
L power:GND #PWR034
U 1 1 5FD670E9
P 8350 2700
F 0 "#PWR034" H 8350 2450 50  0001 C CNN
F 1 "GND" H 8355 2527 50  0000 C CNN
F 2 "" H 8350 2700 50  0001 C CNN
F 3 "" H 8350 2700 50  0001 C CNN
	1    8350 2700
	1    0    0    -1  
$EndComp
$Comp
L Device:LED LED1
U 1 1 5FAEFA55
P 11300 7150
F 0 "LED1" V 11339 7033 50  0000 R CNN
F 1 "LED" V 11248 7033 50  0000 R CNN
F 2 "LED_SMD:LED_1206_3216Metric" H 11300 7150 50  0001 C CNN
F 3 "~" H 11300 7150 50  0001 C CNN
	1    11300 7150
	0    -1   -1   0   
$EndComp
$Comp
L Device:R R14
U 1 1 5FAEFF49
P 11300 7500
F 0 "R14" V 11093 7500 50  0000 C CNN
F 1 "470R" V 11184 7500 50  0000 C CNN
F 2 "Resistor_SMD:R_0805_2012Metric" V 11230 7500 50  0001 C CNN
F 3 "~" H 11300 7500 50  0001 C CNN
	1    11300 7500
	-1   0    0    1   
$EndComp
Wire Wire Line
	11300 7300 11300 7350
Wire Wire Line
	11300 7650 11300 7700
Text GLabel 6750 2500 0    47   Input ~ 0
SO_Flash_OUT
$Comp
L 0_FT232RL:FT232RLREEL USB-W1
U 1 1 5F958B1B
P 9550 1350
F 0 "USB-W1" H 10450 1737 60  0000 C CNN
F 1 "FT232RLREEL" H 10450 1631 60  0000 C CNN
F 2 "0_FT232RL:FT232RLREEL" H 10450 1590 60  0001 C CNN
F 3 "" H 9550 1350 60  0000 C CNN
	1    9550 1350
	1    0    0    -1  
$EndComp
NoConn ~ 11350 2250
$Comp
L Device:R R4
U 1 1 5FE484E8
P 6200 1200
F 0 "R4" H 6130 1154 50  0000 R CNN
F 1 "3k" H 6130 1245 50  0000 R CNN
F 2 "Resistor_SMD:R_0805_2012Metric" V 6130 1200 50  0001 C CNN
F 3 "~" H 6200 1200 50  0001 C CNN
	1    6200 1200
	-1   0    0    1   
$EndComp
$Comp
L Device:R R15
U 1 1 5FE4897A
P 6200 1600
F 0 "R15" H 6130 1554 50  0000 R CNN
F 1 "5k6" H 6130 1645 50  0000 R CNN
F 2 "Resistor_SMD:R_0805_2012Metric" V 6130 1600 50  0001 C CNN
F 3 "~" H 6200 1600 50  0001 C CNN
	1    6200 1600
	-1   0    0    1   
$EndComp
Wire Wire Line
	6250 1000 6200 1000
Wire Wire Line
	6200 1000 6200 1050
Wire Wire Line
	6200 1350 6200 1400
Connection ~ 6200 1400
Wire Wire Line
	6200 1400 6200 1450
Wire Wire Line
	7800 1450 7800 1400
Connection ~ 7800 1400
Wire Wire Line
	7800 1400 7800 1350
Wire Wire Line
	7850 1000 7800 1000
Wire Wire Line
	7800 1000 7800 1050
Wire Wire Line
	6950 1450 6950 1400
Connection ~ 6950 1400
Wire Wire Line
	6950 1400 6950 1350
Wire Wire Line
	6950 1050 6950 1000
Wire Wire Line
	6950 1000 7050 1000
NoConn ~ 2800 6550
NoConn ~ 2800 6650
NoConn ~ 2800 6750
NoConn ~ 2800 6850
$Comp
L Device:R R23
U 1 1 5FF52134
P 7800 1600
F 0 "R23" H 7730 1554 50  0000 R CNN
F 1 "5k6" H 7730 1645 50  0000 R CNN
F 2 "Resistor_SMD:R_0805_2012Metric" V 7730 1600 50  0001 C CNN
F 3 "~" H 7800 1600 50  0001 C CNN
	1    7800 1600
	-1   0    0    1   
$EndComp
$Comp
L Device:R R21
U 1 1 5FF52707
P 6950 1600
F 0 "R21" H 6880 1554 50  0000 R CNN
F 1 "5k6" H 6880 1645 50  0000 R CNN
F 2 "Resistor_SMD:R_0805_2012Metric" V 6880 1600 50  0001 C CNN
F 3 "~" H 6950 1600 50  0001 C CNN
	1    6950 1600
	-1   0    0    1   
$EndComp
$Comp
L Device:R R20
U 1 1 5FF540AA
P 6950 1200
F 0 "R20" H 6880 1154 50  0000 R CNN
F 1 "3k" H 6880 1245 50  0000 R CNN
F 2 "Resistor_SMD:R_0805_2012Metric" V 6880 1200 50  0001 C CNN
F 3 "~" H 6950 1200 50  0001 C CNN
	1    6950 1200
	-1   0    0    1   
$EndComp
$Comp
L Device:R R22
U 1 1 5FF547E7
P 7800 1200
F 0 "R22" H 7730 1154 50  0000 R CNN
F 1 "3k" H 7730 1245 50  0000 R CNN
F 2 "Resistor_SMD:R_0805_2012Metric" V 7730 1200 50  0001 C CNN
F 3 "~" H 7800 1200 50  0001 C CNN
	1    7800 1200
	-1   0    0    1   
$EndComp
$Comp
L power:GND #PWR024
U 1 1 5FF61290
P 6750 2700
F 0 "#PWR024" H 6750 2450 50  0001 C CNN
F 1 "GND" H 6755 2527 50  0000 C CNN
F 2 "" H 6750 2700 50  0001 C CNN
F 3 "" H 6750 2700 50  0001 C CNN
	1    6750 2700
	0    1    1    0   
$EndComp
NoConn ~ 2800 6350
NoConn ~ 2800 6450
Text GLabel 12500 3650 2    47   Input ~ 0
VCC-3v3
Text GLabel 8400 6450 2    50   Input ~ 0
U-Zellen
$Comp
L Device:LED LED2
U 1 1 5FFD5B83
P 11850 7100
F 0 "LED2" H 11900 7300 50  0000 R CNN
F 1 "LED" H 11750 7200 50  0000 R CNN
F 2 "LED_SMD:LED_1206_3216Metric" H 11850 7100 50  0001 C CNN
F 3 "~" H 11850 7100 50  0001 C CNN
	1    11850 7100
	0    -1   -1   0   
$EndComp
$Comp
L Device:R R5
U 1 1 5FFD5B89
P 11850 7450
F 0 "R5" V 11643 7450 50  0000 C CNN
F 1 "470R" V 11734 7450 50  0000 C CNN
F 2 "Resistor_SMD:R_0805_2012Metric" V 11780 7450 50  0001 C CNN
F 3 "~" H 11850 7450 50  0001 C CNN
	1    11850 7450
	-1   0    0    1   
$EndComp
Wire Wire Line
	11850 7250 11850 7300
$Comp
L 0_ATMEGA328PB-AU:ATMEGA328PB-AUR µC1
U 1 1 5F956584
P 2800 5750
F 0 "µC1" H 5600 6137 60  0000 C CNN
F 1 "ATMEGA328PB-AUR TQFP" H 5600 6031 60  0000 C CNN
F 2 "0_ATMEGA328PB-AU:ATMEGA328PB-AUR" H 5600 5990 60  0001 C CNN
F 3 "" H 2800 5750 60  0000 C CNN
	1    2800 5750
	1    0    0    -1  
$EndComp
$Comp
L Device:LED LED3
U 1 1 5FFDEA3E
P 12350 7150
F 0 "LED3" H 12400 7250 50  0000 R CNN
F 1 "LED" H 12350 7350 50  0000 R CNN
F 2 "LED_SMD:LED_1206_3216Metric" H 12350 7150 50  0001 C CNN
F 3 "~" H 12350 7150 50  0001 C CNN
	1    12350 7150
	0    -1   -1   0   
$EndComp
$Comp
L Device:R R6
U 1 1 5FFDEA44
P 12350 7450
F 0 "R6" V 12143 7450 50  0000 C CNN
F 1 "470R" V 12234 7450 50  0000 C CNN
F 2 "Resistor_SMD:R_0805_2012Metric" V 12280 7450 50  0001 C CNN
F 3 "~" H 12350 7450 50  0001 C CNN
	1    12350 7450
	1    0    0    -1  
$EndComp
Wire Wire Line
	11850 7650 11850 7600
NoConn ~ 11350 1850
NoConn ~ 11350 1950
Connection ~ 3550 1050
Connection ~ 3750 1050
Wire Wire Line
	3750 1050 3550 1050
Wire Wire Line
	2850 1350 2900 1350
Wire Wire Line
	2500 1350 2550 1350
$Comp
L Device:R R9
U 1 1 6007B246
P 12800 7400
F 0 "R9" V 12850 7550 50  0000 C CNN
F 1 "470" V 12850 7200 50  0000 C CNN
F 2 "Resistor_SMD:R_0805_2012Metric" V 12730 7400 50  0001 C CNN
F 3 "~" H 12800 7400 50  0001 C CNN
	1    12800 7400
	1    0    0    -1  
$EndComp
Connection ~ 3250 1150
Wire Wire Line
	3250 1050 3550 1050
Wire Wire Line
	3250 1150 3250 1050
Wire Wire Line
	3150 1150 3250 1150
Connection ~ 3150 1150
Wire Wire Line
	3150 1100 3150 1150
Wire Wire Line
	3200 1250 3250 1250
Wire Wire Line
	3200 1300 3200 1250
Wire Wire Line
	2500 1150 3150 1150
Text Notes 900  2050 0    50   ~ 0
R=675...10,8k-->0,8A...50mA)
$Comp
L power:GND #PWR029
U 1 1 6005CB9F
P 2900 1350
F 0 "#PWR029" H 2900 1100 50  0001 C CNN
F 1 "GND" H 2905 1177 50  0000 C CNN
F 2 "" H 2900 1350 50  0001 C CNN
F 3 "" H 2900 1350 50  0001 C CNN
	1    2900 1350
	0    -1   -1   0   
$EndComp
$Comp
L Device:R R7
U 1 1 6005C523
P 2700 1350
F 0 "R7" V 2800 1500 50  0000 C CNN
F 1 "10k" V 2800 1350 50  0000 C CNN
F 2 "Resistor_SMD:R_0805_2012Metric" V 2630 1350 50  0001 C CNN
F 3 "~" H 2700 1350 50  0001 C CNN
	1    2700 1350
	0    -1   -1   0   
$EndComp
$Comp
L Device:LED LadeLED1
U 1 1 60051A8D
P 12800 7100
F 0 "LadeLED1" V 12839 6983 50  0000 R CNN
F 1 "LED" V 12748 6983 50  0000 R CNN
F 2 "LED_SMD:LED_1206_3216Metric" H 12800 7100 50  0001 C CNN
F 3 "~" H 12800 7100 50  0001 C CNN
	1    12800 7100
	0    1    1    0   
$EndComp
Wire Wire Line
	2600 1750 2600 1800
Wire Wire Line
	2500 1750 2600 1750
Wire Wire Line
	1150 1950 1150 2000
Wire Wire Line
	1150 1650 1300 1650
$Comp
L power:GND #PWR028
U 1 1 60041860
P 2600 1800
F 0 "#PWR028" H 2600 1550 50  0001 C CNN
F 1 "GND" H 2605 1627 50  0000 C CNN
F 2 "" H 2600 1800 50  0001 C CNN
F 3 "" H 2600 1800 50  0001 C CNN
	1    2600 1800
	1    0    0    -1  
$EndComp
$Comp
L power:GND #PWR04
U 1 1 60041505
P 1150 2000
F 0 "#PWR04" H 1150 1750 50  0001 C CNN
F 1 "GND" H 1155 1827 50  0000 C CNN
F 2 "" H 1150 2000 50  0001 C CNN
F 3 "" H 1150 2000 50  0001 C CNN
	1    1150 2000
	1    0    0    -1  
$EndComp
$Comp
L Device:R R3
U 1 1 60040B79
P 1150 1800
F 0 "R3" V 943 1800 50  0000 C CNN
F 1 "675" V 1034 1800 50  0000 C CNN
F 2 "Resistor_SMD:R_0805_2012Metric" V 1080 1800 50  0001 C CNN
F 3 "~" H 1150 1800 50  0001 C CNN
	1    1150 1800
	-1   0    0    1   
$EndComp
Wire Wire Line
	3750 1050 4050 1050
$Comp
L Connector_Generic:Conn_01x02 Zellen1
U 1 1 5F7B6466
P 3450 1150
F 0 "Zellen1" H 3530 1142 50  0000 L CNN
F 1 "Akku" H 3530 1051 50  0000 L CNN
F 2 "Connector_PinHeader_2.54mm:PinHeader_1x02_P2.54mm_Vertical" H 3450 1150 50  0001 C CNN
F 3 "~" H 3450 1150 50  0001 C CNN
	1    3450 1150
	1    0    0    -1  
$EndComp
$Comp
L 0_BQ21040DBVR:BQ21040DBVR U1
U 1 1 600125C0
P 1900 1450
F 0 "U1" H 1900 2138 60  0000 C CNN
F 1 "BQ21040DBVR" H 1900 2032 60  0000 C CNN
F 2 "0_BQ21040DBVR:BQ21040DBVR" H 1900 1390 60  0001 C CNN
F 3 "" H 1900 1450 60  0000 C CNN
	1    1900 1450
	1    0    0    -1  
$EndComp
Text GLabel 3150 800  2    50   Input ~ 0
U-Zellen
$Comp
L Connector:Conn_01x02_Male VCC1
U 1 1 5FF4E7D8
P 5800 2900
F 0 "VCC1" H 5772 2782 50  0000 R CNN
F 1 "VCC" H 5772 2873 50  0000 R CNN
F 2 "Connector_PinHeader_2.54mm:PinHeader_1x02_P2.54mm_Vertical" H 5800 2900 50  0001 C CNN
F 3 "~" H 5800 2900 50  0001 C CNN
	1    5800 2900
	0    1    1    0   
$EndComp
$Comp
L 0_LT1302CN85#PBF:LT1302CN8-5-PBF Boost1
U 1 1 5F9525CC
P 1500 2700
F 0 "Boost1" H 2500 3087 60  0000 C CNN
F 1 "LT1302CN8-5-PBF" H 2500 2981 60  0000 C CNN
F 2 "0_LT1302CS8-5PBF:SO-8_S" H 2500 2940 60  0001 C CNN
F 3 "" H 1500 2700 60  0000 C CNN
	1    1500 2700
	1    0    0    -1  
$EndComp
$Comp
L power:GND #PWR01
U 1 1 5FD8B5D2
P 1300 1450
F 0 "#PWR01" H 1300 1200 50  0001 C CNN
F 1 "GND" H 1305 1277 50  0000 C CNN
F 2 "" H 1300 1450 50  0001 C CNN
F 3 "" H 1300 1450 50  0001 C CNN
	1    1300 1450
	1    0    0    -1  
$EndComp
$Comp
L Device:C C21
U 1 1 5FD8AE20
P 1300 1300
F 0 "C21" H 1415 1346 50  0000 L CNN
F 1 "1µF" H 1415 1255 50  0000 L CNN
F 2 "Capacitor_SMD:C_0805_2012Metric" H 1338 1150 50  0001 C CNN
F 3 "~" H 1300 1300 50  0001 C CNN
	1    1300 1300
	1    0    0    -1  
$EndComp
Connection ~ 5500 3100
Wire Wire Line
	4600 3800 4600 3900
$Comp
L power:GND #PWR052
U 1 1 5FBA07A8
P 4600 3900
F 0 "#PWR052" H 4600 3650 50  0001 C CNN
F 1 "GND" H 4605 3727 50  0000 C CNN
F 2 "" H 4600 3900 50  0001 C CNN
F 3 "" H 4600 3900 50  0001 C CNN
	1    4600 3900
	1    0    0    -1  
$EndComp
Wire Wire Line
	4600 3500 4950 3500
Connection ~ 4600 3500
$Comp
L Device:C C20
U 1 1 5FB9FF37
P 4600 3650
F 0 "C20" H 4350 3750 50  0000 L CNN
F 1 "200pF" H 4350 3550 50  0000 L CNN
F 2 "Capacitor_SMD:C_0805_2012Metric" H 4638 3500 50  0001 C CNN
F 3 "~" H 4600 3650 50  0001 C CNN
	1    4600 3650
	1    0    0    -1  
$EndComp
Wire Wire Line
	3550 3050 3550 2900
$Comp
L power:GND #PWR049
U 1 1 5FAC42D5
P 3550 3350
F 0 "#PWR049" H 3550 3100 50  0001 C CNN
F 1 "GND" H 3555 3177 50  0000 C CNN
F 2 "" H 3550 3350 50  0001 C CNN
F 3 "" H 3550 3350 50  0001 C CNN
	1    3550 3350
	1    0    0    -1  
$EndComp
$Comp
L Device:CP C18
U 1 1 5FAC2089
P 3550 3200
F 0 "C18" H 3668 3246 50  0000 L CNN
F 1 "100µF" H 3668 3155 50  0000 L CNN
F 2 "Capacitor_Tantalum_SMD:CP_EIA-6032-28_Kemet-C_Pad2.25x2.35mm_HandSolder" H 3588 3050 50  0001 C CNN
F 3 "~" H 3550 3200 50  0001 C CNN
	1    3550 3200
	1    0    0    -1  
$EndComp
Wire Wire Line
	5000 2500 5100 2500
Wire Wire Line
	4600 2500 4700 2500
Wire Wire Line
	4250 2800 4500 2800
Connection ~ 4250 2800
Wire Wire Line
	4250 2500 4300 2500
Wire Wire Line
	4250 2800 4250 2500
$Comp
L power:GND #PWR050
U 1 1 5FAA0C2C
P 5100 2500
F 0 "#PWR050" H 5100 2250 50  0001 C CNN
F 1 "GND" H 5105 2327 50  0000 C CNN
F 2 "" H 5100 2500 50  0001 C CNN
F 3 "" H 5100 2500 50  0001 C CNN
	1    5100 2500
	1    0    0    -1  
$EndComp
$Comp
L Device:R R13
U 1 1 5FAA065E
P 4450 2500
F 0 "R13" H 4380 2454 50  0000 R CNN
F 1 "1k" H 4380 2545 50  0000 R CNN
F 2 "Resistor_SMD:R_0805_2012Metric" V 4380 2500 50  0001 C CNN
F 3 "~" H 4450 2500 50  0001 C CNN
	1    4450 2500
	0    -1   -1   0   
$EndComp
$Comp
L Device:C C19
U 1 1 5FA9F5F6
P 4850 2500
F 0 "C19" H 4965 2546 50  0000 L CNN
F 1 "1u" H 4965 2455 50  0000 L CNN
F 2 "Capacitor_SMD:C_0805_2012Metric" H 4888 2350 50  0001 C CNN
F 3 "~" H 4850 2500 50  0001 C CNN
	1    4850 2500
	0    1    1    0   
$EndComp
Wire Wire Line
	4950 3100 5200 3100
$Comp
L power:PWR_FLAG #FLG0104
U 1 1 5FF86EC8
P 5800 3100
F 0 "#FLG0104" H 5800 3175 50  0001 C CNN
F 1 "PWR_FLAG" H 5750 3450 50  0000 C CNN
F 2 "" H 5800 3100 50  0001 C CNN
F 3 "~" H 5800 3100 50  0001 C CNN
	1    5800 3100
	-1   0    0    1   
$EndComp
Wire Wire Line
	3500 2800 4250 2800
Wire Wire Line
	1500 3500 4600 3500
Connection ~ 4950 3100
$Comp
L 0_MBR0520-TP:MBR0520-TP CR1
U 1 1 5FEC766A
P 4550 3100
F 0 "CR1" H 4750 3363 60  0000 C CNN
F 1 "MBR0520-TP" H 4750 3257 60  0000 C CNN
F 2 "0_MBR0520-TP:MBR0520-TP" H 4750 2740 60  0001 C CNN
F 3 "" H 4550 3100 60  0000 C CNN
	1    4550 3100
	1    0    0    -1  
$EndComp
Connection ~ 4500 3100
Wire Wire Line
	4500 2800 4500 3100
Wire Wire Line
	4500 3100 4550 3100
$Comp
L 0_74406043100:74406043100 L1
U 1 1 5FD98E1F
P 3700 3100
F 0 "L1" H 4100 3325 50  0000 C CNN
F 1 "74406043100" H 4100 3234 50  0000 C CNN
F 2 "0_74406043100:INDPM4848X280N" H 4350 3150 50  0001 L CNN
F 3 "https://katalog.we-online.de/pbs/datasheet/74406043100.pdf" H 4350 3050 50  0001 L CNN
F 4 "Fixed Inductors WE-LQFS 4828 10uH 1.77A 86mOhms" H 4350 2950 50  0001 L CNN "Description"
F 5 "2.8" H 4350 2850 50  0001 L CNN "Height"
F 6 "Wurth Elektronik" H 4350 2750 50  0001 L CNN "Manufacturer_Name"
F 7 "74406043100" H 4350 2650 50  0001 L CNN "Manufacturer_Part_Number"
F 8 "" H 4350 2550 50  0001 L CNN "Arrow Part Number"
F 9 "" H 4350 2450 50  0001 L CNN "Arrow Price/Stock"
F 10 "710-74406043100" H 4350 2350 50  0001 L CNN "Mouser Part Number"
F 11 "https://www.mouser.co.uk/ProductDetail/Wurth-Elektronik/74406043100?qs=h3%2Fj8evtlm3skzJES1%252BLdA%3D%3D" H 4350 2250 50  0001 L CNN "Mouser Price/Stock"
	1    3700 3100
	1    0    0    -1  
$EndComp
NoConn ~ 3500 3000
Wire Wire Line
	3500 2700 3500 2350
Wire Wire Line
	3500 2900 3550 2900
Wire Wire Line
	3700 3100 3700 2900
$Comp
L Device:R R11
U 1 1 5F7E36E5
P 4950 3250
F 0 "R11" H 5150 3200 50  0000 R CNN
F 1 "5k6" H 5150 3300 50  0000 R CNN
F 2 "Resistor_SMD:R_0805_2012Metric" V 4880 3250 50  0001 C CNN
F 3 "~" H 4950 3250 50  0001 C CNN
	1    4950 3250
	-1   0    0    1   
$EndComp
$Comp
L Device:R R12
U 1 1 5F7E457B
P 4950 3700
F 0 "R12" H 5150 3600 50  0000 R CNN
F 1 "1k8" H 5150 3700 50  0000 R CNN
F 2 "Resistor_SMD:R_0805_2012Metric" V 4880 3700 50  0001 C CNN
F 3 "~" H 4950 3700 50  0001 C CNN
	1    4950 3700
	-1   0    0    1   
$EndComp
$Comp
L power:GND #PWR0109
U 1 1 5F7E4981
P 4950 3900
F 0 "#PWR0109" H 4950 3650 50  0001 C CNN
F 1 "GND" H 4955 3727 50  0000 C CNN
F 2 "" H 4950 3900 50  0001 C CNN
F 3 "" H 4950 3900 50  0001 C CNN
	1    4950 3900
	1    0    0    -1  
$EndComp
$Comp
L power:VCC #PWR0110
U 1 1 5F7E875C
P 5800 3100
F 0 "#PWR0110" H 5800 2950 50  0001 C CNN
F 1 "VCC" H 5817 3273 50  0000 C CNN
F 2 "" H 5800 3100 50  0001 C CNN
F 3 "" H 5800 3100 50  0001 C CNN
	1    5800 3100
	0    1    1    0   
$EndComp
$Comp
L Device:CP C13
U 1 1 5F7EACA9
P 5500 3250
F 0 "C13" H 5350 3150 50  0000 L CNN
F 1 "100µF" H 5550 3150 50  0000 L CNN
F 2 "Capacitor_Tantalum_SMD:CP_EIA-6032-28_Kemet-C_Pad2.25x2.35mm_HandSolder" H 5538 3100 50  0001 C CNN
F 3 "~" H 5500 3250 50  0001 C CNN
	1    5500 3250
	1    0    0    -1  
$EndComp
$Comp
L Device:C C12
U 1 1 5F7EBA04
P 5200 3250
F 0 "C12" H 5200 3350 50  0000 L CNN
F 1 "1µF" H 5200 3150 50  0000 L CNN
F 2 "Capacitor_SMD:C_0805_2012Metric" H 5238 3100 50  0001 C CNN
F 3 "~" H 5200 3250 50  0001 C CNN
	1    5200 3250
	1    0    0    -1  
$EndComp
$Comp
L power:GND #PWR0112
U 1 1 5F7EC405
P 5200 3450
F 0 "#PWR0112" H 5200 3200 50  0001 C CNN
F 1 "GND" H 5205 3277 50  0000 C CNN
F 2 "" H 5200 3450 50  0001 C CNN
F 3 "" H 5200 3450 50  0001 C CNN
	1    5200 3450
	1    0    0    -1  
$EndComp
Connection ~ 5200 3100
Wire Wire Line
	5200 3100 5500 3100
$Comp
L power:GND #PWR0113
U 1 1 5F7ED703
P 5500 3450
F 0 "#PWR0113" H 5500 3200 50  0001 C CNN
F 1 "GND" H 5505 3277 50  0000 C CNN
F 2 "" H 5500 3450 50  0001 C CNN
F 3 "" H 5500 3450 50  0001 C CNN
	1    5500 3450
	1    0    0    -1  
$EndComp
Text Notes 950  700  0    79   ~ 16
Power-Managment
Wire Wire Line
	5500 3400 5500 3450
Wire Wire Line
	5200 3400 5200 3450
Wire Wire Line
	4950 3900 4950 3850
$Comp
L power:GND #PWR0111
U 1 1 5F7EB670
P 4050 1350
F 0 "#PWR0111" H 4050 1100 50  0001 C CNN
F 1 "GND" H 4055 1177 50  0000 C CNN
F 2 "" H 4050 1350 50  0001 C CNN
F 3 "" H 4050 1350 50  0001 C CNN
	1    4050 1350
	1    0    0    -1  
$EndComp
$Comp
L power:GND #PWR0106
U 1 1 5F7D25B1
P 3750 1350
F 0 "#PWR0106" H 3750 1100 50  0001 C CNN
F 1 "GND" H 3755 1177 50  0000 C CNN
F 2 "" H 3750 1350 50  0001 C CNN
F 3 "" H 3750 1350 50  0001 C CNN
	1    3750 1350
	1    0    0    -1  
$EndComp
$Comp
L power:GND #PWR0105
U 1 1 5F7D17CD
P 3200 1300
F 0 "#PWR0105" H 3200 1050 50  0001 C CNN
F 1 "GND" H 3350 1250 50  0000 C CNN
F 2 "" H 3200 1300 50  0001 C CNN
F 3 "" H 3200 1300 50  0001 C CNN
	1    3200 1300
	1    0    0    -1  
$EndComp
$Comp
L Device:CP C11
U 1 1 5F7C6E7E
P 4050 1200
F 0 "C11" H 4168 1246 50  0000 L CNN
F 1 "100µF" H 4168 1155 50  0000 L CNN
F 2 "Capacitor_Tantalum_SMD:CP_EIA-6032-28_Kemet-C_Pad2.25x2.35mm_HandSolder" H 4088 1050 50  0001 C CNN
F 3 "~" H 4050 1200 50  0001 C CNN
	1    4050 1200
	1    0    0    -1  
$EndComp
$Comp
L Device:C C10
U 1 1 5F7C653F
P 3750 1200
F 0 "C10" H 3865 1246 50  0000 L CNN
F 1 "1µF" H 3865 1155 50  0000 L CNN
F 2 "Capacitor_SMD:C_0805_2012Metric" H 3788 1050 50  0001 C CNN
F 3 "~" H 3750 1200 50  0001 C CNN
	1    3750 1200
	1    0    0    -1  
$EndComp
$Comp
L Device:R R8
U 1 1 5F7C5C0D
P 1050 2800
F 0 "R8" V 843 2800 50  0000 C CNN
F 1 "20k" V 934 2800 50  0000 C CNN
F 2 "Resistor_SMD:R_0805_2012Metric" V 980 2800 50  0001 C CNN
F 3 "~" H 1050 2800 50  0001 C CNN
	1    1050 2800
	0    1    1    0   
$EndComp
$Comp
L Device:C C9
U 1 1 5F7DB4CE
P 900 2950
F 0 "C9" H 1015 2996 50  0000 L CNN
F 1 "10n" H 1015 2905 50  0000 L CNN
F 2 "Capacitor_SMD:C_0805_2012Metric" H 938 2800 50  0001 C CNN
F 3 "~" H 900 2950 50  0001 C CNN
	1    900  2950
	1    0    0    -1  
$EndComp
$Comp
L power:GND #PWR0107
U 1 1 5F7DBC90
P 900 3100
F 0 "#PWR0107" H 900 2850 50  0001 C CNN
F 1 "GND" H 905 2927 50  0000 C CNN
F 2 "" H 900 3100 50  0001 C CNN
F 3 "" H 900 3100 50  0001 C CNN
	1    900  3100
	1    0    0    -1  
$EndComp
$Comp
L power:GND #PWR0108
U 1 1 5F7DDFCA
P 1450 2350
F 0 "#PWR0108" H 1450 2100 50  0001 C CNN
F 1 "GND" H 1455 2177 50  0000 C CNN
F 2 "" H 1450 2350 50  0001 C CNN
F 3 "" H 1450 2350 50  0001 C CNN
	1    1450 2350
	1    0    0    -1  
$EndComp
Wire Wire Line
	4950 3400 4950 3500
Connection ~ 4950 3500
Wire Wire Line
	4950 3500 4950 3550
Connection ~ 3550 2900
Wire Wire Line
	3550 2900 3700 2900
Text GLabel 1300 1150 0    47   Input ~ 0
Vin
Wire Wire Line
	1500 2700 1250 2700
Wire Wire Line
	1250 2700 1250 2350
Wire Wire Line
	1250 2350 1450 2350
Wire Wire Line
	1500 2900 1250 2900
Wire Wire Line
	1250 2900 1250 2700
Connection ~ 1250 2700
Wire Wire Line
	1500 3000 1500 3500
Connection ~ 1450 2350
Wire Wire Line
	1200 2800 1500 2800
Wire Notes Line
	6050 4150 6050 550 
Wire Notes Line
	6050 550  600  550 
Wire Notes Line
	6100 700  8800 700 
Wire Notes Line
	8800 700  8800 3100
Wire Notes Line
	8800 3100 6100 3100
Wire Notes Line
	6100 3100 6100 700 
Wire Wire Line
	3550 2000 3550 2900
$Comp
L power:GND #PWR011
U 1 1 5FA8F191
P 2700 5950
F 0 "#PWR011" H 2700 5700 50  0001 C CNN
F 1 "GND" V 2650 5800 50  0000 C CNN
F 2 "" H 2700 5950 50  0001 C CNN
F 3 "" H 2700 5950 50  0001 C CNN
	1    2700 5950
	0    1    1    0   
$EndComp
Connection ~ 5800 3100
Wire Wire Line
	5500 3100 5650 3100
$Comp
L power:PWR_FLAG #FLG0101
U 1 1 601E29E1
P 5650 3100
F 0 "#FLG0101" H 5650 3175 50  0001 C CNN
F 1 "PWR_FLAG" H 5450 3450 50  0000 C CNN
F 2 "" H 5650 3100 50  0001 C CNN
F 3 "~" H 5650 3100 50  0001 C CNN
	1    5650 3100
	-1   0    0    1   
$EndComp
Connection ~ 5650 3100
Wire Wire Line
	5650 3100 5700 3100
NoConn ~ 8400 6150
NoConn ~ 8400 6250
Wire Wire Line
	7800 1400 8000 1400
Wire Wire Line
	6950 1400 7150 1400
Wire Wire Line
	6200 1400 6400 1400
Wire Wire Line
	8350 2500 8500 2500
Wire Wire Line
	7050 3600 7400 3600
Wire Wire Line
	9550 1750 9350 1750
Wire Wire Line
	9550 1350 9450 1350
Text GLabel 10100 3750 0    47   Input ~ 0
VCC-3v3
$Comp
L Mechanical:MountingHole H1
U 1 1 60088C22
P 10000 4500
F 0 "H1" H 10100 4546 50  0000 L CNN
F 1 "MountingHole" H 10000 4300 50  0000 L CNN
F 2 "MountingHole:MountingHole_2.2mm_M2" H 10000 4500 50  0001 C CNN
F 3 "~" H 10000 4500 50  0001 C CNN
	1    10000 4500
	1    0    0    -1  
$EndComp
$Comp
L Mechanical:MountingHole H2
U 1 1 60089AFC
P 10250 4500
F 0 "H2" H 10350 4546 50  0000 L CNN
F 1 "MountingHole" H 10000 4300 50  0000 L CNN
F 2 "MountingHole:MountingHole_2.2mm_M2" H 10250 4500 50  0001 C CNN
F 3 "~" H 10250 4500 50  0001 C CNN
	1    10250 4500
	1    0    0    -1  
$EndComp
$Comp
L Mechanical:MountingHole H3
U 1 1 60089D6E
P 10500 4500
F 0 "H3" H 10600 4546 50  0000 L CNN
F 1 "MountingHole" H 10000 4300 50  0000 L CNN
F 2 "MountingHole:MountingHole_2.2mm_M2" H 10500 4500 50  0001 C CNN
F 3 "~" H 10500 4500 50  0001 C CNN
	1    10500 4500
	1    0    0    -1  
$EndComp
$Comp
L Mechanical:MountingHole H4
U 1 1 60089F5E
P 10800 4500
F 0 "H4" H 10900 4546 50  0000 L CNN
F 1 "MountingHole" H 10050 4300 50  0000 L CNN
F 2 "MountingHole:MountingHole_2.2mm_M2" H 10800 4500 50  0001 C CNN
F 3 "~" H 10800 4500 50  0001 C CNN
	1    10800 4500
	1    0    0    -1  
$EndComp
Wire Notes Line
	600  4150 8900 4150
$Comp
L Device:Fuse Fuse1
U 1 1 5F845E48
P 12200 4800
F 0 "Fuse1" V 11910 4800 50  0000 C CNN
F 1 "Fuse" V 12001 4800 50  0000 C CNN
F 2 "Resistor_SMD:R_1206_3216Metric" H 12250 4600 50  0001 L CNN
F 3 "~" H 12200 4800 50  0001 C CNN
	1    12200 4800
	0    1    1    0   
$EndComp
$Comp
L Device:R R16
U 1 1 604C8C06
P 3150 950
F 0 "R16" V 2943 950 50  0000 C CNN
F 1 "10k" V 3034 950 50  0000 C CNN
F 2 "Resistor_SMD:R_0805_2012Metric" V 3080 950 50  0001 C CNN
F 3 "~" H 3150 950 50  0001 C CNN
	1    3150 950 
	1    0    0    -1  
$EndComp
NoConn ~ 8400 6350
Text GLabel 11350 2550 2    47   Input ~ 0
D-
Wire Wire Line
	11350 2450 11900 2450
$Comp
L 0_Micro_USB:10118192-0002LF J3
U 1 1 60870DAC
P 13400 4800
F 0 "J3" H 13928 4653 60  0000 L CNN
F 1 "10118192-0002LF" H 13928 4547 60  0000 L CNN
F 2 "0_Micro-USB:10118192-0002LF" H 13800 4540 60  0001 C CNN
F 3 "" H 13400 4800 60  0000 C CNN
	1    13400 4800
	1    0    0    -1  
$EndComp
NoConn ~ 13400 5100
Wire Wire Line
	3550 1050 3550 1900
Text GLabel 10350 6400 0    50   Input ~ 0
LadeLED1
Text GLabel 2500 1550 2    50   Input ~ 0
LadeLED1
Text GLabel 3550 1900 2    50   Input ~ 0
EinAus1
Text GLabel 3550 2000 2    50   Input ~ 0
EinAus2
Text GLabel 10350 5800 0    50   Input ~ 0
EinAus2
Wire Wire Line
	12850 5400 12700 5400
$Comp
L Device:R R2
U 1 1 5FD626DB
P 13000 5400
F 0 "R2" H 12930 5354 50  0000 R CNN
F 1 "3k3" H 12930 5445 50  0000 R CNN
F 2 "Resistor_SMD:R_0805_2012Metric" V 12930 5400 50  0001 C CNN
F 3 "~" H 13000 5400 50  0001 C CNN
	1    13000 5400
	0    1    1    0   
$EndComp
$Comp
L Switch:SW_SPST SW2
U 1 1 6092DDA6
P 12050 6100
F 0 "SW2" H 12050 6335 50  0000 C CNN
F 1 "SW_SPST" H 12050 6244 50  0000 C CNN
F 2 "Connector_PinHeader_2.54mm:PinHeader_1x02_P2.54mm_Vertical" H 12050 6100 50  0001 C CNN
F 3 "~" H 12050 6100 50  0001 C CNN
	1    12050 6100
	1    0    0    -1  
$EndComp
Text GLabel 2800 6950 0    50   Input ~ 0
Start1
Text GLabel 10350 6100 0    50   Input ~ 0
Start1
$Comp
L Switch:SW_Push SW1
U 1 1 60969B00
P 12500 5400
F 0 "SW1" H 12500 5685 50  0000 C CNN
F 1 "SW_Push" H 12500 5594 50  0000 C CNN
F 2 "Connector_PinHeader_2.00mm:PinHeader_1x02_P2.00mm_Vertical" H 12500 5600 50  0001 C CNN
F 3 "~" H 12500 5600 50  0001 C CNN
	1    12500 5400
	1    0    0    -1  
$EndComp
Text GLabel 10350 6700 0    50   Input ~ 0
LED1
Text GLabel 10350 6500 0    50   Input ~ 0
LED2
Text GLabel 10350 6300 0    50   Input ~ 0
LED3
Text GLabel 8400 5750 2    50   Input ~ 0
LED1
Text GLabel 2800 5750 0    50   Input ~ 0
LED2
Text GLabel 2800 5850 0    50   Input ~ 0
LED3
Wire Wire Line
	12800 7550 12800 7650
Wire Wire Line
	12800 7650 13000 7650
Text GLabel 10350 6200 0    50   Input ~ 0
EinAus1
NoConn ~ 9550 1450
Text GLabel 10350 5900 0    47   Input ~ 0
RXD-USB-W
Text GLabel 10350 5700 0    47   Input ~ 0
TXD-USB-W
Text GLabel 10800 5900 2    47   Input ~ 0
RXD-USB-W1
Text GLabel 10800 5700 2    47   Input ~ 0
TXD-USB-W1
$Comp
L Connector:Conn_01x14_Male J2
U 1 1 60CF82BC
P 10600 6200
F 0 "J2" H 10572 6082 50  0000 R CNN
F 1 "Conn_01x14_Male" H 10572 6173 50  0000 R CNN
F 2 "Connector_PinHeader_2.00mm:PinHeader_2x07_P2.00mm_Vertical" H 10600 6200 50  0001 C CNN
F 3 "~" H 10600 6200 50  0001 C CNN
	1    10600 6200
	1    0    0    -1  
$EndComp
$Comp
L Connector:Conn_01x14_Female J1
U 1 1 60CFA727
P 10550 6200
F 0 "J1" H 10442 5275 50  0000 C CNN
F 1 "Conn_01x14_Female" H 10442 5366 50  0000 C CNN
F 2 "Connector_PinSocket_2.00mm:PinSocket_2x07_P2.00mm_Vertical" H 10550 6200 50  0001 C CNN
F 3 "~" H 10550 6200 50  0001 C CNN
	1    10550 6200
	1    0    0    -1  
$EndComp
$Comp
L power:VCC #PWR0103
U 1 1 60D3C7AD
P 10350 5600
F 0 "#PWR0103" H 10350 5450 50  0001 C CNN
F 1 "VCC" H 10367 5773 50  0000 C CNN
F 2 "" H 10350 5600 50  0001 C CNN
F 3 "" H 10350 5600 50  0001 C CNN
	1    10350 5600
	0    -1   -1   0   
$EndComp
Text GLabel 10350 6800 0    47   Input ~ 0
VCC-3v3
Text GLabel 10800 6800 2    47   Input ~ 0
VCC-3v3-1
NoConn ~ 10350 6600
NoConn ~ 10800 6600
$Comp
L Mechanical:MountingHole H5
U 1 1 60EA62E7
P 9950 4850
F 0 "H5" H 10050 4896 50  0000 L CNN
F 1 "MountingHole" H 9950 4650 50  0000 L CNN
F 2 "MountingHole:MountingHole_2.2mm_M2" H 9950 4850 50  0001 C CNN
F 3 "~" H 9950 4850 50  0001 C CNN
	1    9950 4850
	1    0    0    -1  
$EndComp
$Comp
L Mechanical:MountingHole H6
U 1 1 60EA62ED
P 10200 4850
F 0 "H6" H 10300 4896 50  0000 L CNN
F 1 "MountingHole" H 9950 4650 50  0000 L CNN
F 2 "MountingHole:MountingHole_2.2mm_M2" H 10200 4850 50  0001 C CNN
F 3 "~" H 10200 4850 50  0001 C CNN
	1    10200 4850
	1    0    0    -1  
$EndComp
$Comp
L Mechanical:MountingHole H7
U 1 1 60EA62F3
P 10450 4850
F 0 "H7" H 10550 4896 50  0000 L CNN
F 1 "MountingHole" H 9950 4650 50  0000 L CNN
F 2 "MountingHole:MountingHole_2.2mm_M2" H 10450 4850 50  0001 C CNN
F 3 "~" H 10450 4850 50  0001 C CNN
	1    10450 4850
	1    0    0    -1  
$EndComp
$Comp
L Mechanical:MountingHole H8
U 1 1 60EA62F9
P 10700 4850
F 0 "H8" H 10800 4896 50  0000 L CNN
F 1 "MountingHole" H 9950 4650 50  0000 L CNN
F 2 "MountingHole:MountingHole_2.2mm_M2" H 10700 4850 50  0001 C CNN
F 3 "~" H 10700 4850 50  0001 C CNN
	1    10700 4850
	1    0    0    -1  
$EndComp
$Comp
L power:GNDD #PWR06
U 1 1 608906C0
P 10800 6900
F 0 "#PWR06" H 10800 6650 50  0001 C CNN
F 1 "GNDD" V 10804 6790 50  0000 R CNN
F 2 "" H 10800 6900 50  0001 C CNN
F 3 "" H 10800 6900 50  0001 C CNN
	1    10800 6900
	0    -1   -1   0   
$EndComp
$Comp
L power:HT #PWR05
U 1 1 608914B6
P 10800 5600
F 0 "#PWR05" H 10800 5720 50  0001 C CNN
F 1 "HT" V 10820 5698 50  0000 L CNN
F 2 "" H 10800 5600 50  0001 C CNN
F 3 "" H 10800 5600 50  0001 C CNN
	1    10800 5600
	0    1    1    0   
$EndComp
$Comp
L Mechanical:MountingHole H9
U 1 1 60892C5B
P 11100 4500
F 0 "H9" H 11200 4546 50  0000 L CNN
F 1 "MountingHole" H 10600 4300 50  0000 L CNN
F 2 "MountingHole:MountingHole_2.2mm_M2" H 11100 4500 50  0001 C CNN
F 3 "~" H 11100 4500 50  0001 C CNN
	1    11100 4500
	1    0    0    -1  
$EndComp
$Comp
L Mechanical:MountingHole H10
U 1 1 60892C61
P 11350 4500
F 0 "H10" H 11450 4546 50  0000 L CNN
F 1 "MountingHole" H 10600 4300 50  0000 L CNN
F 2 "MountingHole:MountingHole_2.2mm_M2" H 11350 4500 50  0001 C CNN
F 3 "~" H 11350 4500 50  0001 C CNN
	1    11350 4500
	1    0    0    -1  
$EndComp
$Comp
L power:HT #PWR03
U 1 1 608E0993
P 9550 1650
F 0 "#PWR03" H 9550 1770 50  0001 C CNN
F 1 "HT" V 9570 1748 50  0000 L CNN
F 2 "" H 9550 1650 50  0001 C CNN
F 3 "" H 9550 1650 50  0001 C CNN
	1    9550 1650
	0    -1   -1   0   
$EndComp
$Comp
L power:HT #PWR027
U 1 1 608E2E25
P 12150 1450
F 0 "#PWR027" H 12150 1570 50  0001 C CNN
F 1 "HT" H 12170 1593 50  0000 C CNN
F 2 "" H 12150 1450 50  0001 C CNN
F 3 "" H 12150 1450 50  0001 C CNN
	1    12150 1450
	1    0    0    -1  
$EndComp
Wire Wire Line
	12050 1450 12150 1450
Connection ~ 12150 1450
Wire Wire Line
	12150 1450 12350 1450
$Comp
L power:HT #PWR019
U 1 1 608E38D1
P 11400 2150
F 0 "#PWR019" H 11400 2270 50  0001 C CNN
F 1 "HT" V 11420 2248 50  0000 L CNN
F 2 "" H 11400 2150 50  0001 C CNN
F 3 "" H 11400 2150 50  0001 C CNN
	1    11400 2150
	0    1    1    0   
$EndComp
$Comp
L power:GNDD #PWR030
U 1 1 608E511A
P 12250 2450
F 0 "#PWR030" H 12250 2200 50  0001 C CNN
F 1 "GNDD" V 12254 2340 50  0000 R CNN
F 2 "" H 12250 2450 50  0001 C CNN
F 3 "" H 12250 2450 50  0001 C CNN
	1    12250 2450
	0    -1   -1   0   
$EndComp
$Comp
L power:GNDD #PWR010
U 1 1 608E5F15
P 11400 2050
F 0 "#PWR010" H 11400 1800 50  0001 C CNN
F 1 "GNDD" V 11404 1940 50  0000 R CNN
F 2 "" H 11400 2050 50  0001 C CNN
F 3 "" H 11400 2050 50  0001 C CNN
	1    11400 2050
	0    -1   -1   0   
$EndComp
$Comp
L power:GNDD #PWR020
U 1 1 608E6594
P 11400 2350
F 0 "#PWR020" H 11400 2100 50  0001 C CNN
F 1 "GNDD" V 11404 2240 50  0000 R CNN
F 2 "" H 11400 2350 50  0001 C CNN
F 3 "" H 11400 2350 50  0001 C CNN
	1    11400 2350
	0    -1   -1   0   
$EndComp
Wire Wire Line
	12050 1750 12100 1750
$Comp
L power:GNDD #PWR09
U 1 1 608E6FE2
P 11400 1650
F 0 "#PWR09" H 11400 1400 50  0001 C CNN
F 1 "GNDD" V 11404 1540 50  0000 R CNN
F 2 "" H 11400 1650 50  0001 C CNN
F 3 "" H 11400 1650 50  0001 C CNN
	1    11400 1650
	0    -1   -1   0   
$EndComp
$Comp
L power:GNDD #PWR08
U 1 1 608E7399
P 11400 1550
F 0 "#PWR08" H 11400 1300 50  0001 C CNN
F 1 "GNDD" V 11404 1440 50  0000 R CNN
F 2 "" H 11400 1550 50  0001 C CNN
F 3 "" H 11400 1550 50  0001 C CNN
	1    11400 1550
	0    -1   -1   0   
$EndComp
$Comp
L power:GNDD #PWR025
U 1 1 608E755C
P 12100 1750
F 0 "#PWR025" H 12100 1500 50  0001 C CNN
F 1 "GNDD" H 12104 1595 50  0000 C CNN
F 2 "" H 12100 1750 50  0001 C CNN
F 3 "" H 12100 1750 50  0001 C CNN
	1    12100 1750
	1    0    0    -1  
$EndComp
Connection ~ 12100 1750
Wire Wire Line
	12100 1750 12350 1750
$Comp
L power:GNDD #PWR02
U 1 1 608E7C86
P 9500 1950
F 0 "#PWR02" H 9500 1700 50  0001 C CNN
F 1 "GNDD" V 9504 1840 50  0000 R CNN
F 2 "" H 9500 1950 50  0001 C CNN
F 3 "" H 9500 1950 50  0001 C CNN
	1    9500 1950
	0    1    1    0   
$EndComp
$Comp
L power:GNDD #PWR07
U 1 1 608EA062
P 11300 7700
F 0 "#PWR07" H 11300 7450 50  0001 C CNN
F 1 "GNDD" V 11304 7590 50  0000 R CNN
F 2 "" H 11300 7700 50  0001 C CNN
F 3 "" H 11300 7700 50  0001 C CNN
	1    11300 7700
	1    0    0    -1  
$EndComp
$Comp
L power:GNDD #PWR031
U 1 1 608EA63F
P 12350 7600
F 0 "#PWR031" H 12350 7350 50  0001 C CNN
F 1 "GNDD" V 12354 7490 50  0000 R CNN
F 2 "" H 12350 7600 50  0001 C CNN
F 3 "" H 12350 7600 50  0001 C CNN
	1    12350 7600
	1    0    0    -1  
$EndComp
$Comp
L power:GNDD #PWR021
U 1 1 608EAC6A
P 11850 7650
F 0 "#PWR021" H 11850 7400 50  0001 C CNN
F 1 "GNDD" V 11854 7540 50  0000 R CNN
F 2 "" H 11850 7650 50  0001 C CNN
F 3 "" H 11850 7650 50  0001 C CNN
	1    11850 7650
	1    0    0    -1  
$EndComp
$Comp
L power:GNDD #PWR032
U 1 1 608EAF57
P 13150 5400
F 0 "#PWR032" H 13150 5150 50  0001 C CNN
F 1 "GNDD" V 13154 5290 50  0000 R CNN
F 2 "" H 13150 5400 50  0001 C CNN
F 3 "" H 13150 5400 50  0001 C CNN
	1    13150 5400
	0    -1   -1   0   
$EndComp
$Comp
L power:GNDD #PWR033
U 1 1 608EB966
P 13400 5200
F 0 "#PWR033" H 13400 4950 50  0001 C CNN
F 1 "GNDD" V 13404 5090 50  0000 R CNN
F 2 "" H 13400 5200 50  0001 C CNN
F 3 "" H 13400 5200 50  0001 C CNN
	1    13400 5200
	0    1    1    0   
$EndComp
Wire Wire Line
	10800 6700 11300 6700
Wire Wire Line
	11300 6700 11300 7000
Wire Wire Line
	11850 6950 11850 6500
Wire Wire Line
	11850 6500 10800 6500
Wire Wire Line
	12350 7000 12350 6300
Wire Wire Line
	12350 6300 10800 6300
Wire Wire Line
	12800 6400 12800 6950
Wire Wire Line
	10800 6400 12800 6400
Wire Wire Line
	13000 7650 13000 6200
Wire Wire Line
	10800 6200 11850 6200
Wire Wire Line
	11850 6100 11850 6200
Connection ~ 11850 6200
Wire Wire Line
	11850 6200 13000 6200
Wire Wire Line
	10800 6100 11600 6100
Wire Wire Line
	11600 6100 11600 5400
Wire Wire Line
	11600 5400 12300 5400
Wire Wire Line
	11450 6000 10800 6000
Wire Wire Line
	11450 4800 11450 6000
Wire Wire Line
	10800 5800 12250 5800
Wire Wire Line
	12250 5800 12250 6100
Wire Wire Line
	13400 4800 12350 4800
Wire Wire Line
	12050 4800 11450 4800
$Comp
L Connector:Conn_01x05_Female J4
U 1 1 609C0EF3
P 6850 3700
F 0 "J4" H 6742 3275 50  0000 C CNN
F 1 "Conn_01x05_Female" H 6742 3366 50  0000 C CNN
F 2 "Connector_PinHeader_2.00mm:PinHeader_1x05_P2.00mm_Vertical" H 6850 3700 50  0001 C CNN
F 3 "~" H 6850 3700 50  0001 C CNN
	1    6850 3700
	-1   0    0    1   
$EndComp
$Comp
L 74xGxx:74LVC2G04 U2
U 2 1 60897BF2
P 7950 3500
F 0 "U2" H 7925 3233 50  0000 C CNN
F 1 "74LVC2G04" H 7925 3324 50  0000 C CNN
F 2 "Package_TO_SOT_SMD:SOT-363_SC-70-6" H 7950 3500 50  0001 C CNN
F 3 "http://www.ti.com/lit/sg/scyt129e/scyt129e.pdf" H 7950 3500 50  0001 C CNN
	2    7950 3500
	-1   0    0    1   
$EndComp
$Comp
L 74xGxx:74LVC2G04 U2
U 1 1 60898A8E
P 7750 3900
F 0 "U2" H 7725 4167 50  0000 C CNN
F 1 "74LVC2G04" H 7725 4076 50  0000 C CNN
F 2 "Package_TO_SOT_SMD:SOT-363_SC-70-6" H 7750 3900 50  0001 C CNN
F 3 "http://www.ti.com/lit/sg/scyt129e/scyt129e.pdf" H 7750 3900 50  0001 C CNN
	1    7750 3900
	1    0    0    -1  
$EndComp
Wire Wire Line
	7050 3500 7700 3500
Wire Wire Line
	7400 3600 7400 3900
Wire Wire Line
	7400 3900 7450 3900
$Comp
L power:VCC #PWR037
U 1 1 608C1C12
P 7950 3600
F 0 "#PWR037" H 7950 3450 50  0001 C CNN
F 1 "VCC" V 7950 3800 50  0000 C CNN
F 2 "" H 7950 3600 50  0001 C CNN
F 3 "" H 7950 3600 50  0001 C CNN
	1    7950 3600
	-1   0    0    1   
$EndComp
$Comp
L power:VCC #PWR035
U 1 1 608C274E
P 7750 3800
F 0 "#PWR035" H 7750 3650 50  0001 C CNN
F 1 "VCC" V 7750 4000 50  0000 C CNN
F 2 "" H 7750 3800 50  0001 C CNN
F 3 "" H 7750 3800 50  0001 C CNN
	1    7750 3800
	1    0    0    -1  
$EndComp
$Comp
L power:GND #PWR036
U 1 1 608C2C75
P 7750 4000
F 0 "#PWR036" H 7750 3750 50  0001 C CNN
F 1 "GND" H 7755 3827 50  0000 C CNN
F 2 "" H 7750 4000 50  0001 C CNN
F 3 "" H 7750 4000 50  0001 C CNN
	1    7750 4000
	1    0    0    -1  
$EndComp
$Comp
L power:GND #PWR038
U 1 1 608C9D9E
P 7950 3400
F 0 "#PWR038" H 7950 3150 50  0001 C CNN
F 1 "GND" H 7955 3227 50  0000 C CNN
F 2 "" H 7950 3400 50  0001 C CNN
F 3 "" H 7950 3400 50  0001 C CNN
	1    7950 3400
	-1   0    0    1   
$EndComp
Wire Wire Line
	1450 2350 3150 2350
$Comp
L power:PWR_FLAG #FLG0102
U 1 1 608DA99B
P 3150 2350
F 0 "#FLG0102" H 3150 2425 50  0001 C CNN
F 1 "PWR_FLAG" H 3100 2700 50  0000 C CNN
F 2 "" H 3150 2350 50  0001 C CNN
F 3 "~" H 3150 2350 50  0001 C CNN
	1    3150 2350
	-1   0    0    1   
$EndComp
Connection ~ 3150 2350
Wire Wire Line
	3150 2350 3500 2350
$EndSCHEMATC
