EESchema Schematic File Version 4
LIBS:Geo-Logger-v1-cache
EELAYER 30 0
EELAYER END
$Descr A3 16535 11693
encoding utf-8
Sheet 1 1
Title "Geo-Logger"
Date "2020-11-14"
Rev "v8"
Comp "Moritz Schwärzler"
Comment1 "Prototyp 1"
Comment2 ""
Comment3 ""
Comment4 ""
$EndDescr
$Comp
L power:GND #PWR0101
U 1 1 5F7BAB67
P 13450 4600
F 0 "#PWR0101" H 13450 4350 50  0001 C CNN
F 1 "GND" V 13500 4650 50  0000 C CNN
F 2 "" H 13450 4600 50  0001 C CNN
F 3 "" H 13450 4600 50  0001 C CNN
	1    13450 4600
	0    -1   -1   0   
$EndComp
$Comp
L Switch:SW_Push Reset
U 1 1 5F815D83
P 1050 5350
F 0 "Reset" V 1096 5302 50  0000 R CNN
F 1 "SW_Push" V 1005 5302 50  0000 R CNN
F 2 "Button_Switch_SMD:SW_Push_1P1T_NO_CK_KSC7xxJ" H 1050 5550 50  0001 C CNN
F 3 "~" H 1050 5550 50  0001 C CNN
	1    1050 5350
	0    -1   -1   0   
$EndComp
$Comp
L Device:C C4
U 1 1 5F81D188
P 9050 7150
F 0 "C4" H 9165 7196 50  0000 L CNN
F 1 "0µ1" H 9165 7105 50  0000 L CNN
F 2 "Capacitor_SMD:C_1206_3216Metric" H 9088 7000 50  0001 C CNN
F 3 "~" H 9050 7150 50  0001 C CNN
	1    9050 7150
	1    0    0    -1  
$EndComp
$Comp
L power:GND #PWR0115
U 1 1 5F81DB4D
P 9050 7350
F 0 "#PWR0115" H 9050 7100 50  0001 C CNN
F 1 "GND" H 9055 7177 50  0000 C CNN
F 2 "" H 9050 7350 50  0001 C CNN
F 3 "" H 9050 7350 50  0001 C CNN
	1    9050 7350
	1    0    0    -1  
$EndComp
$Comp
L Device:Crystal Y1
U 1 1 5F81EDE1
P 2000 6100
F 0 "Y1" H 2000 6368 50  0000 C CNN
F 1 "12MHz" H 2000 6277 50  0000 C CNN
F 2 "Crystal:Crystal_SMD_HC49-SD" H 2000 6100 50  0001 C CNN
F 3 "~" H 2000 6100 50  0001 C CNN
	1    2000 6100
	0    1    1    0   
$EndComp
$Comp
L Device:C C2
U 1 1 5F8210EE
P 1850 5950
F 0 "C2" H 1965 5996 50  0000 L CNN
F 1 "27p" H 1965 5905 50  0000 L CNN
F 2 "Capacitor_SMD:C_1206_3216Metric" H 1888 5800 50  0001 C CNN
F 3 "~" H 1850 5950 50  0001 C CNN
	1    1850 5950
	0    1    1    0   
$EndComp
$Comp
L Device:C C3
U 1 1 5F82180A
P 1850 6250
F 0 "C3" H 1965 6296 50  0000 L CNN
F 1 "27p" H 1965 6205 50  0000 L CNN
F 2 "Capacitor_SMD:C_1206_3216Metric" H 1888 6100 50  0001 C CNN
F 3 "~" H 1850 6250 50  0001 C CNN
	1    1850 6250
	0    1    1    0   
$EndComp
$Comp
L power:GND #PWR0116
U 1 1 5F821CA2
P 1650 5950
F 0 "#PWR0116" H 1650 5700 50  0001 C CNN
F 1 "GND" H 1655 5777 50  0000 C CNN
F 2 "" H 1650 5950 50  0001 C CNN
F 3 "" H 1650 5950 50  0001 C CNN
	1    1650 5950
	0    1    1    0   
$EndComp
$Comp
L power:GND #PWR0117
U 1 1 5F822123
P 1650 6250
F 0 "#PWR0117" H 1650 6000 50  0001 C CNN
F 1 "GND" H 1655 6077 50  0000 C CNN
F 2 "" H 1650 6250 50  0001 C CNN
F 3 "" H 1650 6250 50  0001 C CNN
	1    1650 6250
	0    1    1    0   
$EndComp
Connection ~ 2000 5950
$Comp
L Device:C C1
U 1 1 5F826731
P 800 5300
F 0 "C1" H 915 5346 50  0000 L CNN
F 1 "0µ1" H 915 5255 50  0000 L CNN
F 2 "Capacitor_SMD:C_1206_3216Metric" H 838 5150 50  0001 C CNN
F 3 "~" H 800 5300 50  0001 C CNN
	1    800  5300
	1    0    0    -1  
$EndComp
$Comp
L power:GND #PWR0118
U 1 1 5F826C14
P 800 5450
F 0 "#PWR0118" H 800 5200 50  0001 C CNN
F 1 "GND" H 805 5277 50  0000 C CNN
F 2 "" H 800 5450 50  0001 C CNN
F 3 "" H 800 5450 50  0001 C CNN
	1    800  5450
	1    0    0    -1  
$EndComp
$Comp
L power:GND #PWR0119
U 1 1 5F827191
P 1050 5550
F 0 "#PWR0119" H 1050 5300 50  0001 C CNN
F 1 "GND" H 1055 5377 50  0000 C CNN
F 2 "" H 1050 5550 50  0001 C CNN
F 3 "" H 1050 5550 50  0001 C CNN
	1    1050 5550
	1    0    0    -1  
$EndComp
$Comp
L power:VCC #PWR0120
U 1 1 5F8284D5
P 800 4750
F 0 "#PWR0120" H 800 4600 50  0001 C CNN
F 1 "VCC" H 817 4923 50  0000 C CNN
F 2 "" H 800 4750 50  0001 C CNN
F 3 "" H 800 4750 50  0001 C CNN
	1    800  4750
	1    0    0    -1  
$EndComp
Wire Wire Line
	800  5050 800  5150
Wire Wire Line
	1050 5150 800  5150
Connection ~ 800  5150
Wire Wire Line
	1050 5150 1400 5150
Connection ~ 1050 5150
$Comp
L Device:CP C6
U 1 1 5F82D74A
P 4750 5050
F 0 "C6" H 4868 5096 50  0000 L CNN
F 1 "47µ" H 4868 5005 50  0000 L CNN
F 2 "Capacitor_THT:CP_Radial_D4.0mm_P1.50mm" H 4788 4900 50  0001 C CNN
F 3 "~" H 4750 5050 50  0001 C CNN
	1    4750 5050
	1    0    0    -1  
$EndComp
$Comp
L Device:C C7
U 1 1 5F82E4AF
P 5100 5050
F 0 "C7" H 5215 5096 50  0000 L CNN
F 1 "1µ" H 5215 5005 50  0000 L CNN
F 2 "Capacitor_SMD:C_1206_3216Metric" H 5138 4900 50  0001 C CNN
F 3 "~" H 5100 5050 50  0001 C CNN
	1    5100 5050
	1    0    0    -1  
$EndComp
$Comp
L Device:C C8
U 1 1 5F82E8E9
P 5350 5050
F 0 "C8" H 5465 5096 50  0000 L CNN
F 1 "0µ1" H 5465 5005 50  0000 L CNN
F 2 "Capacitor_SMD:C_1206_3216Metric" H 5388 4900 50  0001 C CNN
F 3 "~" H 5350 5050 50  0001 C CNN
	1    5350 5050
	1    0    0    -1  
$EndComp
$Comp
L Device:C C5
U 1 1 5F82EB6A
P 4450 5050
F 0 "C5" H 4565 5096 50  0000 L CNN
F 1 "0µ1" H 4565 5005 50  0000 L CNN
F 2 "Capacitor_SMD:C_1206_3216Metric" H 4488 4900 50  0001 C CNN
F 3 "~" H 4450 5050 50  0001 C CNN
	1    4450 5050
	1    0    0    -1  
$EndComp
Wire Wire Line
	4450 4900 4750 4900
Connection ~ 4750 4900
Wire Wire Line
	4750 4900 4900 4900
Connection ~ 5100 4900
Wire Wire Line
	5100 4900 5350 4900
$Comp
L power:GND #PWR0121
U 1 1 5F8326FD
P 4900 5200
F 0 "#PWR0121" H 4900 4950 50  0001 C CNN
F 1 "GND" H 4905 5027 50  0000 C CNN
F 2 "" H 4900 5200 50  0001 C CNN
F 3 "" H 4900 5200 50  0001 C CNN
	1    4900 5200
	1    0    0    -1  
$EndComp
Wire Wire Line
	4450 5200 4750 5200
Connection ~ 4750 5200
Connection ~ 5100 5200
Wire Wire Line
	5100 5200 5350 5200
Text Notes 9600 4450 0    79   ~ 16
µ-USB-Schnittstelle-mit-Wandler
NoConn ~ 13350 4700
$Comp
L Connector:Conn_01x02_Male J2
U 1 1 5F8577AA
P 2950 5500
F 0 "J2" H 2922 5382 50  0000 R CNN
F 1 "Prog" H 2922 5473 50  0000 R CNN
F 2 "Connector_PinHeader_2.00mm:PinHeader_1x02_P2.00mm_Vertical" H 2950 5500 50  0001 C CNN
F 3 "~" H 2950 5500 50  0001 C CNN
	1    2950 5500
	0    -1   -1   0   
$EndComp
$Comp
L Connector:Conn_01x06_Female GNSS
U 1 1 5F88BF0E
P 14400 4850
F 0 "GNSS" H 14200 4450 50  0000 L CNN
F 1 "GNNS-Modul" H 14300 5200 50  0000 L CNN
F 2 "Connector_PinHeader_2.00mm:PinHeader_1x06_P2.00mm_Vertical" H 14400 4850 50  0001 C CNN
F 3 "~" H 14400 4850 50  0001 C CNN
	1    14400 4850
	-1   0    0    1   
$EndComp
NoConn ~ 14600 4550
Text Notes 14350 4550 2    50   ~ 0
PPS 3.3V TTL?
Text Notes 14350 4650 2    50   ~ 0
RS232 RXD
Text Notes 14350 4750 2    50   ~ 0
RS232 TXD
Text Notes 14350 4850 2    50   ~ 0
shield --> GND
Text Notes 14350 4950 2    50   ~ 0
GND
Text Notes 14350 5050 2    50   ~ 0
VCC
Wire Wire Line
	14600 4850 14700 4850
Wire Wire Line
	14700 4850 14700 4900
Wire Wire Line
	14700 4950 14600 4950
$Comp
L power:VCC #PWR0127
U 1 1 5F8D848C
P 14600 5050
F 0 "#PWR0127" H 14600 4900 50  0001 C CNN
F 1 "VCC" H 14617 5223 50  0000 C CNN
F 2 "" H 14600 5050 50  0001 C CNN
F 3 "" H 14600 5050 50  0001 C CNN
	1    14600 5050
	-1   0    0    1   
$EndComp
$Comp
L power:GND #PWR0128
U 1 1 5F8D9100
P 14700 4900
F 0 "#PWR0128" H 14700 4650 50  0001 C CNN
F 1 "GND" H 14705 4727 50  0000 C CNN
F 2 "" H 14700 4900 50  0001 C CNN
F 3 "" H 14700 4900 50  0001 C CNN
	1    14700 4900
	0    -1   -1   0   
$EndComp
Connection ~ 14700 4900
Wire Wire Line
	14700 4900 14700 4950
Text Notes 15500 4450 2    79   ~ 16
GNSS-Modul
Wire Wire Line
	4750 5200 4900 5200
Wire Wire Line
	1650 5950 1700 5950
Wire Wire Line
	1700 6250 1650 6250
$Comp
L power:VCC #PWR0129
U 1 1 5FB74F61
P 4900 4900
F 0 "#PWR0129" H 4900 4750 50  0001 C CNN
F 1 "VCC" H 4917 5073 50  0000 C CNN
F 2 "" H 4900 4900 50  0001 C CNN
F 3 "" H 4900 4900 50  0001 C CNN
	1    4900 4900
	1    0    0    -1  
$EndComp
Connection ~ 4900 4900
Wire Wire Line
	4900 4900 5100 4900
Wire Wire Line
	13350 4600 13450 4600
$Comp
L 0_Micro_USB:10118192-0002LF J1
U 1 1 5F8FEEE1
P 13350 5000
F 0 "J1" H 13592 4313 60  0000 C CNN
F 1 "Micro-USB-Buchse" H 13592 4419 60  0000 C CNN
F 2 "0_Micro-USB:10118192-0002LF" H 13750 4740 60  0001 C CNN
F 3 "" H 13350 5000 60  0000 C CNN
	1    13350 5000
	-1   0    0    1   
$EndComp
$Comp
L 0_SST26VF064B-104I/SM:SST26VF064B-104I_SM Flash
U 1 1 5F954BFB
P 10550 7150
F 0 "Flash" H 11750 7537 60  0000 C CNN
F 1 "SST26VF064B-104I_SM" H 11750 7431 60  0000 C CNN
F 2 "0_SST26VF064B-104I/SM:SST26VF064B-104I&slash_SM" H 11750 7390 60  0001 C CNN
F 3 "" H 10550 7150 60  0000 C CNN
	1    10550 7150
	1    0    0    -1  
$EndComp
$Comp
L 0_ATMEGA328PB-AU:ATMEGA328PB-AUR µC
U 1 1 5F956584
P 2800 5750
F 0 "µC" H 5600 6137 60  0000 C CNN
F 1 "ATMEGA328PB-AUR TQFP" H 5600 6031 60  0000 C CNN
F 2 "0_ATMEGA328PB-AU:ATMEGA328PB-AUR" H 5600 5990 60  0001 C CNN
F 3 "" H 2800 5750 60  0000 C CNN
	1    2800 5750
	1    0    0    -1  
$EndComp
Text GLabel 13350 5000 2    47   Input ~ 0
Vin
Text GLabel 13400 4800 2    47   Input ~ 0
D+
Text GLabel 13400 4900 2    47   Input ~ 0
D-
Connection ~ 4900 5200
Wire Wire Line
	4900 5200 5100 5200
$Comp
L power:VCC #PWR012
U 1 1 5FA8D450
P 2700 6050
F 0 "#PWR012" H 2700 5900 50  0001 C CNN
F 1 "VCC" H 2717 6223 50  0000 C CNN
F 2 "" H 2700 6050 50  0001 C CNN
F 3 "" H 2700 6050 50  0001 C CNN
	1    2700 6050
	0    -1   -1   0   
$EndComp
$Comp
L power:VCC #PWR014
U 1 1 5FA8E45D
P 2700 6250
F 0 "#PWR014" H 2700 6100 50  0001 C CNN
F 1 "VCC" H 2717 6423 50  0000 C CNN
F 2 "" H 2700 6250 50  0001 C CNN
F 3 "" H 2700 6250 50  0001 C CNN
	1    2700 6250
	0    -1   -1   0   
$EndComp
$Comp
L power:GND #PWR013
U 1 1 5FA8E819
P 2700 6150
F 0 "#PWR013" H 2700 5900 50  0001 C CNN
F 1 "GND" H 2705 5977 50  0000 C CNN
F 2 "" H 2700 6150 50  0001 C CNN
F 3 "" H 2700 6150 50  0001 C CNN
	1    2700 6150
	0    1    1    0   
$EndComp
$Comp
L power:GND #PWR011
U 1 1 5FA8F191
P 2700 5950
F 0 "#PWR011" H 2700 5700 50  0001 C CNN
F 1 "GND" H 2705 5777 50  0000 C CNN
F 2 "" H 2700 5950 50  0001 C CNN
F 3 "" H 2700 5950 50  0001 C CNN
	1    2700 5950
	0    1    1    0   
$EndComp
Wire Wire Line
	2800 6250 2700 6250
Wire Wire Line
	2800 6150 2700 6150
Wire Wire Line
	2800 6050 2700 6050
Wire Wire Line
	2800 5950 2700 5950
Wire Wire Line
	9050 7300 9050 7350
$Comp
L power:VCC #PWR023
U 1 1 5FB0511C
P 8450 7150
F 0 "#PWR023" H 8450 7000 50  0001 C CNN
F 1 "VCC" H 8467 7323 50  0000 C CNN
F 2 "" H 8450 7150 50  0001 C CNN
F 3 "" H 8450 7150 50  0001 C CNN
	1    8450 7150
	0    1    1    0   
$EndComp
$Comp
L power:GND #PWR022
U 1 1 5FB06D81
P 8450 6850
F 0 "#PWR022" H 8450 6600 50  0001 C CNN
F 1 "GND" H 8455 6677 50  0000 C CNN
F 2 "" H 8450 6850 50  0001 C CNN
F 3 "" H 8450 6850 50  0001 C CNN
	1    8450 6850
	0    -1   -1   0   
$EndComp
Wire Wire Line
	8450 6850 8400 6850
Wire Wire Line
	8400 7150 8450 7150
$Comp
L Connector:AVR-ISP-6 ISP
U 1 1 5FB1459D
P 1950 5100
F 0 "ISP" H 1671 5196 50  0000 R CNN
F 1 "AVR-ISP-6" H 1671 5105 50  0000 R CNN
F 2 "Connector_IDC:IDC-Header_2x03_P2.54mm_Vertical" V 1700 5150 50  0001 C CNN
F 3 " ~" H 675 4550 50  0001 C CNN
	1    1950 5100
	1    0    0    -1  
$EndComp
Text GLabel 8400 6050 2    47   Input ~ 0
Reset
Text GLabel 1400 5150 2    47   Input ~ 0
Reset
Text GLabel 3050 5300 2    47   Input ~ 0
Reset
Wire Wire Line
	2350 5200 2950 5200
Wire Wire Line
	2950 5200 2950 5300
$Comp
L power:VCC #PWR016
U 1 1 5FB3263B
P 1850 4550
F 0 "#PWR016" H 1850 4400 50  0001 C CNN
F 1 "VCC" H 1867 4723 50  0000 C CNN
F 2 "" H 1850 4550 50  0001 C CNN
F 3 "" H 1850 4550 50  0001 C CNN
	1    1850 4550
	1    0    0    -1  
$EndComp
$Comp
L power:GND #PWR017
U 1 1 5FB32CB9
P 1850 5550
F 0 "#PWR017" H 1850 5300 50  0001 C CNN
F 1 "GND" H 1855 5377 50  0000 C CNN
F 2 "" H 1850 5550 50  0001 C CNN
F 3 "" H 1850 5550 50  0001 C CNN
	1    1850 5550
	1    0    0    -1  
$EndComp
Wire Wire Line
	1850 5550 1850 5500
Wire Wire Line
	1850 4600 1850 4550
Text GLabel 2350 4900 2    47   Input ~ 0
ISP-MISO
Text GLabel 2350 5000 2    47   Input ~ 0
ISP-MOSI
Text GLabel 2350 5100 2    47   Input ~ 0
ISP-SCK
Text GLabel 2850 5200 1    47   Input ~ 0
Prog-SS
Text GLabel 2800 7050 0    47   Input ~ 0
Prog-SS
Text GLabel 12950 7150 2    47   Input ~ 0
VCC-3v3
$Comp
L power:GND #PWR015
U 1 1 5FBD166E
P 10500 7450
F 0 "#PWR015" H 10500 7200 50  0001 C CNN
F 1 "GND" H 10505 7277 50  0000 C CNN
F 2 "" H 10500 7450 50  0001 C CNN
F 3 "" H 10500 7450 50  0001 C CNN
	1    10500 7450
	0    1    1    0   
$EndComp
Wire Wire Line
	10550 7450 10500 7450
Text GLabel 10550 7250 0    47   Input ~ 0
SO_Flash_IN
Text GLabel 12950 7350 2    47   Input ~ 0
SCK-Flash-OUT
Text GLabel 12950 7450 2    47   Input ~ 0
SI-Flash-OUT
Text GLabel 12950 7250 2    47   Input ~ 0
HOLD-Flash-OUT
Text GLabel 10550 7150 0    47   Input ~ 0
CE-Flash-OUT
Text GLabel 10550 7350 0    47   Input ~ 0
WP-Flash-OUT
Text Notes 10300 6850 0    47   ~ 9
Flash
Text GLabel 14600 4650 2    47   Input ~ 0
GNSS-RX-TX
Text GLabel 14600 4750 2    47   Input ~ 0
GNSS-TX-RX
Wire Notes Line
	13700 4250 13700 5300
Text GLabel 12100 3450 0    47   Input ~ 0
SI-Flash-OUT
Text GLabel 13700 3450 2    47   Input ~ 0
SI-Flash-IN
Text GLabel 9300 2400 0    47   Input ~ 0
WP-Flash-OUT
Text GLabel 10900 2400 2    47   Input ~ 0
WP-Flash-IN
Text GLabel 9450 1300 0    47   Input ~ 0
CE-Flash-OUT
Text GLabel 11050 1300 2    47   Input ~ 0
CE-Flash-IN
$Comp
L power:GND #PWR018
U 1 1 5FBF3C9E
P 9450 1500
F 0 "#PWR018" H 9450 1250 50  0001 C CNN
F 1 "GND" H 9455 1327 50  0000 C CNN
F 2 "" H 9450 1500 50  0001 C CNN
F 3 "" H 9450 1500 50  0001 C CNN
	1    9450 1500
	0    1    1    0   
$EndComp
Text GLabel 12100 2400 0    47   Input ~ 0
SCK-Flash-OUT
Text GLabel 13700 2400 2    47   Input ~ 0
SCK-Flash-IN
Text GLabel 12350 1250 0    47   Input ~ 0
HOLD-Flash-OUT
Text GLabel 13950 1250 2    47   Input ~ 0
HOLD-Flash-IN
Text Notes 9200 750  0    47   ~ 9
Pegelwandler 3V3 - 5V
Text GLabel 9250 3500 0    47   Input ~ 0
SO_Flash_IN
Wire Notes Line
	7650 4150 7650 550 
Wire Notes Line
	700  550  700  4150
Wire Wire Line
	2900 2800 3200 2800
Connection ~ 3150 2350
Wire Wire Line
	3200 3000 3200 3500
Connection ~ 2950 2700
Wire Wire Line
	2950 2900 2950 2700
Wire Wire Line
	3200 2900 2950 2900
Wire Wire Line
	2950 2350 3150 2350
Wire Wire Line
	2950 2700 2950 2350
Wire Wire Line
	3200 2700 2950 2700
Text GLabel 900  1100 0    47   Input ~ 0
Vin
Connection ~ 1750 1100
$Comp
L 0_LT1302CN85#PBF:LT1302CN8-5-PBF U4
U 1 1 5F9525CC
P 3200 2700
F 0 "U4" H 4200 3087 60  0000 C CNN
F 1 "LT1302CN8-5-PBF" H 4200 2981 60  0000 C CNN
F 2 "0_LT1302CN85#PBF:LT1302CN8-5-PBF" H 4200 2940 60  0001 C CNN
F 3 "" H 3200 2700 60  0000 C CNN
	1    3200 2700
	1    0    0    -1  
$EndComp
Wire Wire Line
	5250 2900 5400 2900
Connection ~ 5250 2900
Wire Wire Line
	6650 3500 6650 3550
Connection ~ 6650 3500
Wire Wire Line
	6650 3400 6650 3500
$Comp
L power:GND #PWR0108
U 1 1 5F7DDFCA
P 3150 2350
F 0 "#PWR0108" H 3150 2100 50  0001 C CNN
F 1 "GND" H 3155 2177 50  0000 C CNN
F 2 "" H 3150 2350 50  0001 C CNN
F 3 "" H 3150 2350 50  0001 C CNN
	1    3150 2350
	1    0    0    -1  
$EndComp
$Comp
L power:GND #PWR0107
U 1 1 5F7DBC90
P 2600 3100
F 0 "#PWR0107" H 2600 2850 50  0001 C CNN
F 1 "GND" H 2605 2927 50  0000 C CNN
F 2 "" H 2600 3100 50  0001 C CNN
F 3 "" H 2600 3100 50  0001 C CNN
	1    2600 3100
	1    0    0    -1  
$EndComp
$Comp
L Device:C C9
U 1 1 5F7DB4CE
P 2600 2950
F 0 "C9" H 2715 2996 50  0000 L CNN
F 1 "10n" H 2715 2905 50  0000 L CNN
F 2 "Capacitor_SMD:C_1206_3216Metric" H 2638 2800 50  0001 C CNN
F 3 "~" H 2600 2950 50  0001 C CNN
	1    2600 2950
	1    0    0    -1  
$EndComp
$Comp
L Device:R R8
U 1 1 5F7C5C0D
P 2750 2800
F 0 "R8" V 2543 2800 50  0000 C CNN
F 1 "20k" V 2634 2800 50  0000 C CNN
F 2 "Resistor_SMD:R_1206_3216Metric" V 2680 2800 50  0001 C CNN
F 3 "~" H 2750 2800 50  0001 C CNN
	1    2750 2800
	0    1    1    0   
$EndComp
Wire Wire Line
	3000 2250 4950 2250
Wire Wire Line
	4800 1000 4850 1000
$Comp
L 0_MCP73833:MCP73833T-FCI_MF U3
U 1 1 5F8FD25E
P 2900 1000
F 0 "U3" H 3850 1387 60  0000 C CNN
F 1 "MCP73833T-FCI_MF" H 3850 1281 60  0000 C CNN
F 2 "0_MCP73833:MCP73833T-FCI&slash_MF" H 3850 1240 60  0001 C CNN
F 3 "" H 2900 1000 60  0000 C CNN
	1    2900 1000
	1    0    0    -1  
$EndComp
$Comp
L Connector_Generic:Conn_01x02 Zellen
U 1 1 5F7B6466
P 5750 1100
F 0 "Zellen" H 5830 1092 50  0000 L CNN
F 1 "Akku" H 5830 1001 50  0000 L CNN
F 2 "Connector_PinHeader_2.00mm:PinHeader_1x02_P2.00mm_Vertical" H 5750 1100 50  0001 C CNN
F 3 "~" H 5750 1100 50  0001 C CNN
	1    5750 1100
	1    0    0    -1  
$EndComp
$Comp
L Device:C C10
U 1 1 5F7C653F
P 5050 1250
F 0 "C10" H 5165 1296 50  0000 L CNN
F 1 "1µF" H 5165 1205 50  0000 L CNN
F 2 "Capacitor_SMD:C_1206_3216Metric" H 5088 1100 50  0001 C CNN
F 3 "~" H 5050 1250 50  0001 C CNN
	1    5050 1250
	1    0    0    -1  
$EndComp
$Comp
L Device:CP C11
U 1 1 5F7C6E7E
P 5350 1250
F 0 "C11" H 5468 1296 50  0000 L CNN
F 1 "100µF" H 5468 1205 50  0000 L CNN
F 2 "Capacitor_THT:CP_Radial_D4.0mm_P1.50mm" H 5388 1100 50  0001 C CNN
F 3 "~" H 5350 1250 50  0001 C CNN
	1    5350 1250
	1    0    0    -1  
$EndComp
$Comp
L Device:R R10
U 1 1 5F7CECD2
P 4800 1650
F 0 "R10" H 4870 1696 50  0000 L CNN
F 1 "1kR" H 4870 1605 50  0000 L CNN
F 2 "Resistor_SMD:R_1206_3216Metric" V 4730 1650 50  0001 C CNN
F 3 "~" H 4800 1650 50  0001 C CNN
	1    4800 1650
	1    0    0    -1  
$EndComp
$Comp
L power:GND #PWR0104
U 1 1 5F7CF51E
P 4800 1800
F 0 "#PWR0104" H 4800 1550 50  0001 C CNN
F 1 "GND" H 4805 1627 50  0000 C CNN
F 2 "" H 4800 1800 50  0001 C CNN
F 3 "" H 4800 1800 50  0001 C CNN
	1    4800 1800
	1    0    0    -1  
$EndComp
Wire Wire Line
	4800 1200 4900 1200
Wire Wire Line
	4900 1200 4900 1100
Wire Wire Line
	4900 1100 4800 1100
$Comp
L power:GND #PWR0105
U 1 1 5F7D17CD
P 5550 1200
F 0 "#PWR0105" H 5550 950 50  0001 C CNN
F 1 "GND" H 5555 1027 50  0000 C CNN
F 2 "" H 5550 1200 50  0001 C CNN
F 3 "" H 5550 1200 50  0001 C CNN
	1    5550 1200
	1    0    0    -1  
$EndComp
Connection ~ 4900 1100
Connection ~ 5050 1100
Wire Wire Line
	5050 1100 4900 1100
$Comp
L power:GND #PWR0106
U 1 1 5F7D25B1
P 5050 1400
F 0 "#PWR0106" H 5050 1150 50  0001 C CNN
F 1 "GND" H 5055 1227 50  0000 C CNN
F 2 "" H 5050 1400 50  0001 C CNN
F 3 "" H 5050 1400 50  0001 C CNN
	1    5050 1400
	1    0    0    -1  
$EndComp
Wire Wire Line
	4800 1400 4950 1400
Wire Wire Line
	4950 1400 4950 2250
NoConn ~ 4800 1300
$Comp
L power:GND #PWR0111
U 1 1 5F7EB670
P 5350 1400
F 0 "#PWR0111" H 5350 1150 50  0001 C CNN
F 1 "GND" H 5355 1227 50  0000 C CNN
F 2 "" H 5350 1400 50  0001 C CNN
F 3 "" H 5350 1400 50  0001 C CNN
	1    5350 1400
	1    0    0    -1  
$EndComp
Connection ~ 5350 1100
Wire Wire Line
	6650 3900 6650 3850
Wire Wire Line
	6900 3400 6900 3450
Wire Wire Line
	7200 3400 7200 3450
Wire Wire Line
	7400 3100 7350 3100
Connection ~ 1550 1100
Wire Wire Line
	1550 1100 1400 1100
$Comp
L Device:Thermistor_PTC Fuse
U 1 1 5F845E48
P 1250 1100
F 0 "Fuse" V 960 1100 50  0000 C CNN
F 1 "4R7 PTC" V 1051 1100 50  0000 C CNN
F 2 "Resistor_SMD:R_1206_3216Metric" H 1300 900 50  0001 L CNN
F 3 "~" H 1250 1100 50  0001 C CNN
	1    1250 1100
	0    1    1    0   
$EndComp
Text Notes 1600 800  0    79   ~ 16
Power-Managment
$Comp
L power:GND #PWR0113
U 1 1 5F7ED703
P 7200 3450
F 0 "#PWR0113" H 7200 3200 50  0001 C CNN
F 1 "GND" H 7205 3277 50  0000 C CNN
F 2 "" H 7200 3450 50  0001 C CNN
F 3 "" H 7200 3450 50  0001 C CNN
	1    7200 3450
	1    0    0    -1  
$EndComp
Wire Wire Line
	6900 3100 7200 3100
Connection ~ 6900 3100
$Comp
L power:GND #PWR0112
U 1 1 5F7EC405
P 6900 3450
F 0 "#PWR0112" H 6900 3200 50  0001 C CNN
F 1 "GND" H 6905 3277 50  0000 C CNN
F 2 "" H 6900 3450 50  0001 C CNN
F 3 "" H 6900 3450 50  0001 C CNN
	1    6900 3450
	1    0    0    -1  
$EndComp
$Comp
L Device:C C12
U 1 1 5F7EBA04
P 6900 3250
F 0 "C12" H 7015 3296 50  0000 L CNN
F 1 "1µF" H 7015 3205 50  0000 L CNN
F 2 "Capacitor_SMD:C_1206_3216Metric" H 6938 3100 50  0001 C CNN
F 3 "~" H 6900 3250 50  0001 C CNN
	1    6900 3250
	1    0    0    -1  
$EndComp
$Comp
L Device:CP C13
U 1 1 5F7EACA9
P 7200 3250
F 0 "C13" H 7318 3296 50  0000 L CNN
F 1 "100µF" H 7318 3205 50  0000 L CNN
F 2 "Capacitor_THT:CP_Radial_D4.0mm_P1.50mm" H 7238 3100 50  0001 C CNN
F 3 "~" H 7200 3250 50  0001 C CNN
	1    7200 3250
	1    0    0    -1  
$EndComp
$Comp
L power:VCC #PWR0110
U 1 1 5F7E875C
P 7400 3100
F 0 "#PWR0110" H 7400 2950 50  0001 C CNN
F 1 "VCC" H 7417 3273 50  0000 C CNN
F 2 "" H 7400 3100 50  0001 C CNN
F 3 "" H 7400 3100 50  0001 C CNN
	1    7400 3100
	1    0    0    -1  
$EndComp
$Comp
L power:GND #PWR0109
U 1 1 5F7E4981
P 6650 3900
F 0 "#PWR0109" H 6650 3650 50  0001 C CNN
F 1 "GND" H 6655 3727 50  0000 C CNN
F 2 "" H 6650 3900 50  0001 C CNN
F 3 "" H 6650 3900 50  0001 C CNN
	1    6650 3900
	1    0    0    -1  
$EndComp
$Comp
L Device:R R12
U 1 1 5F7E457B
P 6650 3700
F 0 "R12" H 6580 3654 50  0000 R CNN
F 1 "1k8" H 6580 3745 50  0000 R CNN
F 2 "Resistor_SMD:R_1206_3216Metric" V 6580 3700 50  0001 C CNN
F 3 "~" H 6650 3700 50  0001 C CNN
	1    6650 3700
	-1   0    0    1   
$EndComp
$Comp
L Device:R R11
U 1 1 5F7E36E5
P 6650 3250
F 0 "R11" H 6580 3204 50  0000 R CNN
F 1 "5k6" H 6580 3295 50  0000 R CNN
F 2 "Resistor_SMD:R_1206_3216Metric" V 6580 3250 50  0001 C CNN
F 3 "~" H 6650 3250 50  0001 C CNN
	1    6650 3250
	-1   0    0    1   
$EndComp
Wire Wire Line
	5400 3100 5400 2900
Wire Wire Line
	5200 2900 5250 2900
Wire Wire Line
	5200 2700 5200 2350
NoConn ~ 5200 3000
Wire Wire Line
	2200 1200 2450 1200
Wire Wire Line
	2200 1550 2200 1200
Wire Wire Line
	1900 1550 2200 1550
Wire Wire Line
	1900 1450 1900 1550
Wire Wire Line
	2900 1200 2750 1200
Wire Wire Line
	2750 1300 2900 1300
Wire Wire Line
	2350 1300 2450 1300
Wire Wire Line
	2350 1650 2350 1300
Wire Wire Line
	1750 1650 2350 1650
Wire Wire Line
	1750 1450 1750 1650
Wire Wire Line
	1550 2250 1550 1450
Wire Wire Line
	2700 2250 1550 2250
$Comp
L Device:R R7
U 1 1 5F7D56BB
P 2600 1300
F 0 "R7" V 2393 1300 50  0000 C CNN
F 1 "470R" V 2484 1300 50  0000 C CNN
F 2 "Resistor_SMD:R_1206_3216Metric" V 2530 1300 50  0001 C CNN
F 3 "~" H 2600 1300 50  0001 C CNN
	1    2600 1300
	0    1    1    0   
$EndComp
$Comp
L Device:R R6
U 1 1 5F7D4F43
P 2600 1200
F 0 "R6" V 2393 1200 50  0000 C CNN
F 1 "470R" V 2484 1200 50  0000 C CNN
F 2 "Resistor_SMD:R_1206_3216Metric" V 2530 1200 50  0001 C CNN
F 3 "~" H 2600 1200 50  0001 C CNN
	1    2600 1200
	0    1    1    0   
$EndComp
Wire Wire Line
	1900 1100 2750 1100
Connection ~ 1900 1100
Wire Wire Line
	1900 1150 1900 1100
Wire Wire Line
	1750 1100 1900 1100
Wire Wire Line
	1750 1150 1750 1100
Wire Wire Line
	1550 1100 1750 1100
Wire Wire Line
	1550 1150 1550 1100
$Comp
L Device:R R9
U 1 1 5F7D2F34
P 2850 2250
F 0 "R9" V 2643 2250 50  0000 C CNN
F 1 "470R" V 2734 2250 50  0000 C CNN
F 2 "Resistor_SMD:R_1206_3216Metric" V 2780 2250 50  0001 C CNN
F 3 "~" H 2850 2250 50  0001 C CNN
	1    2850 2250
	0    1    1    0   
$EndComp
$Comp
L power:GND #PWR0103
U 1 1 5F7CE63F
P 4850 1000
F 0 "#PWR0103" H 4850 750 50  0001 C CNN
F 1 "GND" H 4855 827 50  0000 C CNN
F 2 "" H 4850 1000 50  0001 C CNN
F 3 "" H 4850 1000 50  0001 C CNN
	1    4850 1000
	0    -1   -1   0   
$EndComp
$Comp
L power:GND #PWR0102
U 1 1 5F7CD88E
P 2900 1400
F 0 "#PWR0102" H 2900 1150 50  0001 C CNN
F 1 "GND" H 2905 1227 50  0000 C CNN
F 2 "" H 2900 1400 50  0001 C CNN
F 3 "" H 2900 1400 50  0001 C CNN
	1    2900 1400
	1    0    0    -1  
$EndComp
Wire Wire Line
	2750 1100 2900 1100
Connection ~ 2750 1100
Wire Wire Line
	2750 1000 2750 1100
Wire Wire Line
	2900 1000 2750 1000
$Comp
L Device:LED stat1
U 1 1 5F7BFACC
P 1900 1300
F 0 "stat1" V 1900 1250 50  0000 R CNN
F 1 "LED" V 1850 1200 50  0000 R CNN
F 2 "LED_THT:LED_D5.0mm_IRGrey" H 1900 1300 50  0001 C CNN
F 3 "~" H 1900 1300 50  0001 C CNN
	1    1900 1300
	0    -1   -1   0   
$EndComp
$Comp
L Device:LED stat2
U 1 1 5F7BF8D9
P 1750 1300
F 0 "stat2" V 1850 1400 50  0000 R CNN
F 1 "LED" V 1850 1300 50  0000 R CNN
F 2 "LED_THT:LED_D5.0mm_IRGrey" H 1750 1300 50  0001 C CNN
F 3 "~" H 1750 1300 50  0001 C CNN
	1    1750 1300
	0    -1   -1   0   
$EndComp
$Comp
L Device:LED PG
U 1 1 5F7BE395
P 1550 1300
F 0 "PG" V 1550 1450 50  0000 R CNN
F 1 "LED" V 1450 1500 50  0000 R CNN
F 2 "LED_THT:LED_D5.0mm_IRGrey" H 1550 1300 50  0001 C CNN
F 3 "~" H 1550 1300 50  0001 C CNN
	1    1550 1300
	0    -1   -1   0   
$EndComp
$Comp
L power:VCC #PWR06
U 1 1 5FD5B8C2
P 11850 5750
F 0 "#PWR06" H 11850 5600 50  0001 C CNN
F 1 "VCC" H 11867 5923 50  0000 C CNN
F 2 "" H 11850 5750 50  0001 C CNN
F 3 "" H 11850 5750 50  0001 C CNN
	1    11850 5750
	0    1    1    0   
$EndComp
$Comp
L power:GND #PWR05
U 1 1 5FD5D0EE
P 11850 5650
F 0 "#PWR05" H 11850 5400 50  0001 C CNN
F 1 "GND" H 11855 5477 50  0000 C CNN
F 2 "" H 11850 5650 50  0001 C CNN
F 3 "" H 11850 5650 50  0001 C CNN
	1    11850 5650
	0    -1   -1   0   
$EndComp
$Comp
L power:GND #PWR03
U 1 1 5FD5E778
P 9950 5550
F 0 "#PWR03" H 9950 5300 50  0001 C CNN
F 1 "GND" H 9955 5377 50  0000 C CNN
F 2 "" H 9950 5550 50  0001 C CNN
F 3 "" H 9950 5550 50  0001 C CNN
	1    9950 5550
	0    1    1    0   
$EndComp
$Comp
L power:GND #PWR04
U 1 1 5FD6055E
P 11850 5250
F 0 "#PWR04" H 11850 5000 50  0001 C CNN
F 1 "GND" H 12100 5200 50  0000 C CNN
F 2 "" H 11850 5250 50  0001 C CNN
F 3 "" H 11850 5250 50  0001 C CNN
	1    11850 5250
	0    -1   -1   0   
$EndComp
$Comp
L power:GND #PWR07
U 1 1 5FD60C22
P 11850 5950
F 0 "#PWR07" H 11850 5700 50  0001 C CNN
F 1 "GND" H 11855 5777 50  0000 C CNN
F 2 "" H 11850 5950 50  0001 C CNN
F 3 "" H 11850 5950 50  0001 C CNN
	1    11850 5950
	0    -1   -1   0   
$EndComp
Text GLabel 11800 6150 2    47   Input ~ 0
D-
Text GLabel 11800 6250 2    47   Input ~ 0
D+
$Comp
L Device:C C14
U 1 1 5FD62A20
P 12500 6050
F 0 "C14" H 12615 6096 50  0000 L CNN
F 1 "100nF" H 12615 6005 50  0000 L CNN
F 2 "Capacitor_SMD:C_1206_3216Metric" H 12538 5900 50  0001 C CNN
F 3 "~" H 12500 6050 50  0001 C CNN
	1    12500 6050
	0    -1   -1   0   
$EndComp
$Comp
L power:GND #PWR08
U 1 1 5FD65893
P 12700 6050
F 0 "#PWR08" H 12700 5800 50  0001 C CNN
F 1 "GND" H 12705 5877 50  0000 C CNN
F 2 "" H 12700 6050 50  0001 C CNN
F 3 "" H 12700 6050 50  0001 C CNN
	1    12700 6050
	0    -1   -1   0   
$EndComp
Wire Wire Line
	9950 5550 10000 5550
Wire Wire Line
	11800 5650 11850 5650
Wire Wire Line
	11800 5250 11850 5250
Wire Wire Line
	11800 5750 11850 5750
Wire Wire Line
	11800 5950 11850 5950
Wire Wire Line
	12650 6050 12700 6050
$Comp
L 0_74406043100:74406043100 L1
U 1 1 5FD98E1F
P 5400 3100
F 0 "L1" H 5800 3325 50  0000 C CNN
F 1 "74406043100" H 5800 3234 50  0000 C CNN
F 2 "0_74406043100:INDPM4848X280N" H 6050 3150 50  0001 L CNN
F 3 "https://katalog.we-online.de/pbs/datasheet/74406043100.pdf" H 6050 3050 50  0001 L CNN
F 4 "Fixed Inductors WE-LQFS 4828 10uH 1.77A 86mOhms" H 6050 2950 50  0001 L CNN "Description"
F 5 "2.8" H 6050 2850 50  0001 L CNN "Height"
F 6 "Wurth Elektronik" H 6050 2750 50  0001 L CNN "Manufacturer_Name"
F 7 "74406043100" H 6050 2650 50  0001 L CNN "Manufacturer_Part_Number"
F 8 "" H 6050 2550 50  0001 L CNN "Arrow Part Number"
F 9 "" H 6050 2450 50  0001 L CNN "Arrow Price/Stock"
F 10 "710-74406043100" H 6050 2350 50  0001 L CNN "Mouser Part Number"
F 11 "https://www.mouser.co.uk/ProductDetail/Wurth-Elektronik/74406043100?qs=h3%2Fj8evtlm3skzJES1%252BLdA%3D%3D" H 6050 2250 50  0001 L CNN "Mouser Price/Stock"
	1    5400 3100
	1    0    0    -1  
$EndComp
Wire Wire Line
	6200 3100 6250 3100
Wire Wire Line
	6200 2800 6200 3100
Connection ~ 6200 3100
$Comp
L Device:R R1
U 1 1 5F827560
P 800 4900
F 0 "R1" H 730 4854 50  0000 R CNN
F 1 "10k" H 730 4945 50  0000 R CNN
F 2 "Resistor_SMD:R_1206_3216Metric" V 730 4900 50  0001 C CNN
F 3 "~" H 800 4900 50  0001 C CNN
	1    800  4900
	-1   0    0    1   
$EndComp
NoConn ~ 10000 6250
NoConn ~ 10000 6150
NoConn ~ 10000 6050
NoConn ~ 10000 5950
NoConn ~ 10000 5850
NoConn ~ 10000 5750
NoConn ~ 10000 5450
$Comp
L Device:CP C16
U 1 1 5FE1B903
P 13350 6300
F 0 "C16" H 13450 6400 50  0000 L CNN
F 1 "4.7µF" H 13350 6200 50  0000 L CNN
F 2 "Capacitor_THT:CP_Radial_D4.0mm_P1.50mm" H 13388 6150 50  0001 C CNN
F 3 "~" H 13350 6300 50  0001 C CNN
	1    13350 6300
	1    0    0    -1  
$EndComp
$Comp
L Device:C C15
U 1 1 5FE1B915
P 13050 6300
F 0 "C15" H 13100 6400 50  0000 L CNN
F 1 "100nF" H 13100 6200 50  0000 L CNN
F 2 "Capacitor_SMD:C_1206_3216Metric" H 13088 6150 50  0001 C CNN
F 3 "~" H 13050 6300 50  0001 C CNN
	1    13050 6300
	1    0    0    -1  
$EndComp
Wire Wire Line
	13050 6150 13200 6150
$Comp
L power:GND #PWR010
U 1 1 5FE1B920
P 13200 6450
F 0 "#PWR010" H 13200 6200 50  0001 C CNN
F 1 "GND" H 13050 6400 50  0000 C CNN
F 2 "" H 13200 6450 50  0001 C CNN
F 3 "" H 13200 6450 50  0001 C CNN
	1    13200 6450
	1    0    0    -1  
$EndComp
Wire Wire Line
	13050 6450 13200 6450
$Comp
L power:VCC #PWR09
U 1 1 5FE1B92B
P 13200 6150
F 0 "#PWR09" H 13200 6000 50  0001 C CNN
F 1 "VCC" H 13217 6323 50  0000 C CNN
F 2 "" H 13200 6150 50  0001 C CNN
F 3 "" H 13200 6150 50  0001 C CNN
	1    13200 6150
	1    0    0    -1  
$EndComp
Connection ~ 13200 6450
Wire Wire Line
	13200 6450 13350 6450
Connection ~ 13200 6150
Wire Wire Line
	13200 6150 13350 6150
Text GLabel 12300 6050 1    47   Input ~ 0
VCC-3v3
$Comp
L power:VCC #PWR02
U 1 1 5FE4808D
P 9900 5250
F 0 "#PWR02" H 9900 5100 50  0001 C CNN
F 1 "VCC" H 9917 5423 50  0000 C CNN
F 2 "" H 9900 5250 50  0001 C CNN
F 3 "" H 9900 5250 50  0001 C CNN
	1    9900 5250
	0    -1   -1   0   
$EndComp
Wire Wire Line
	9900 5250 10000 5250
NoConn ~ 11800 4950
NoConn ~ 11800 5050
Text GLabel 10000 4950 0    47   Input ~ 0
TXD-USB-W
Text GLabel 10000 5350 0    47   Input ~ 0
RXD-USB-W
Wire Notes Line
	9400 4250 13600 4250
Wire Notes Line
	13600 4250 13600 6550
Wire Notes Line
	13600 6550 9400 6550
Wire Notes Line
	9400 6550 9400 4250
$Comp
L 0_MBR0520-TP:MBR0520-TP CR1
U 1 1 5FEC766A
P 6250 3100
F 0 "CR1" H 6450 3363 60  0000 C CNN
F 1 "MBR0520-TP" H 6450 3257 60  0000 C CNN
F 2 "0_MBR0520-TP:MBR0520-TP" H 6450 2740 60  0001 C CNN
F 3 "" H 6250 3100 60  0000 C CNN
	1    6250 3100
	1    0    0    -1  
$EndComp
Connection ~ 6650 3100
Wire Wire Line
	3200 3500 6300 3500
Text GLabel 2500 7450 0    47   Input ~ 0
TXD-USB-W
Text GLabel 2500 7250 0    47   Input ~ 0
RXD-USB-W
Text GLabel 2500 7350 0    47   Input ~ 0
ISP-MISO
Text GLabel 2500 7150 0    47   Input ~ 0
ISP-MOSI
Text GLabel 8400 7250 2    47   Input ~ 0
ISP-SCK
Text GLabel 8400 6650 2    47   Input ~ 0
SO_Flash_OUT
Text GLabel 8400 6750 2    47   Input ~ 0
SI-Flash-IN
Text GLabel 8400 6550 2    47   Input ~ 0
SCK-Flash-IN
Text GLabel 8400 7050 2    47   Input ~ 0
CE-Flash-IN
Wire Wire Line
	9050 7000 9050 6950
Wire Wire Line
	8400 6950 9050 6950
Text GLabel 8400 6450 2    47   Input ~ 0
HOLD-Flash-IN
Text GLabel 8400 6350 2    47   Input ~ 0
WP-Flash-IN
$Comp
L power:PWR_FLAG #FLG0102
U 1 1 5FF8319A
P 5500 1100
F 0 "#FLG0102" H 5500 1175 50  0001 C CNN
F 1 "PWR_FLAG" H 5500 1273 50  0000 C CNN
F 2 "" H 5500 1100 50  0001 C CNN
F 3 "~" H 5500 1100 50  0001 C CNN
	1    5500 1100
	1    0    0    -1  
$EndComp
Wire Wire Line
	3150 2350 4950 2350
Wire Wire Line
	5200 2800 5950 2800
$Comp
L power:PWR_FLAG #FLG0103
U 1 1 5FF85C5E
P 4950 2350
F 0 "#FLG0103" H 4950 2425 50  0001 C CNN
F 1 "PWR_FLAG" H 4950 2523 50  0000 C CNN
F 2 "" H 4950 2350 50  0001 C CNN
F 3 "~" H 4950 2350 50  0001 C CNN
	1    4950 2350
	-1   0    0    1   
$EndComp
Connection ~ 4950 2350
Wire Wire Line
	4950 2350 5200 2350
$Comp
L power:PWR_FLAG #FLG0104
U 1 1 5FF86EC8
P 7350 3100
F 0 "#FLG0104" H 7350 3175 50  0001 C CNN
F 1 "PWR_FLAG" H 7350 3273 50  0000 C CNN
F 2 "" H 7350 3100 50  0001 C CNN
F 3 "~" H 7350 3100 50  0001 C CNN
	1    7350 3100
	-1   0    0    1   
$EndComp
Connection ~ 7350 3100
Wire Wire Line
	6650 3100 6900 3100
NoConn ~ 10000 5050
NoConn ~ 10000 5150
Text GLabel 8400 5850 2    47   Input ~ 0
GNSS-RX-TX
Text GLabel 8400 5950 2    47   Input ~ 0
GNSS-TX-RX
Wire Wire Line
	2500 7350 2500 7450
Wire Wire Line
	2500 7250 2500 7150
Wire Wire Line
	2500 7150 2800 7150
Wire Wire Line
	2500 7350 2800 7350
Wire Wire Line
	2800 7350 2800 7250
Text Notes 12400 5650 0    39   ~ 0
3V3 SpgVersorg Flash
$Comp
L Connector:Conn_01x06_Male LCD
U 1 1 60026B0A
P 750 6100
F 0 "LCD" H 858 6481 50  0000 C CNN
F 1 "LCD" H 858 6390 50  0000 C CNN
F 2 "Connector_PinHeader_2.54mm:PinHeader_1x06_P2.54mm_Vertical" H 750 6100 50  0001 C CNN
F 3 "~" H 750 6100 50  0001 C CNN
	1    750  6100
	1    0    0    -1  
$EndComp
Wire Wire Line
	2800 5750 1050 5750
Wire Wire Line
	1050 5750 1050 5900
Wire Wire Line
	1050 5900 950  5900
Wire Wire Line
	950  6000 1300 6000
Wire Wire Line
	1300 6000 1300 5850
Wire Wire Line
	1300 5850 2800 5850
Wire Wire Line
	2800 6850 1050 6850
Wire Wire Line
	1050 6850 1050 6400
Wire Wire Line
	1050 6400 950  6400
Wire Wire Line
	950  6300 1150 6300
Wire Wire Line
	1150 6300 1150 6750
Wire Wire Line
	1150 6750 2800 6750
Wire Wire Line
	2800 6650 1250 6650
Wire Wire Line
	1250 6650 1250 6200
Wire Wire Line
	1250 6200 950  6200
Wire Wire Line
	950  6100 1350 6100
Wire Wire Line
	1350 6100 1350 6550
Wire Wire Line
	1350 6550 2800 6550
Wire Wire Line
	2800 6450 2000 6450
Wire Wire Line
	2000 6450 2000 6250
Connection ~ 2000 6250
Wire Wire Line
	2350 5950 2350 6350
Wire Wire Line
	2350 6350 2800 6350
Wire Wire Line
	2000 5950 2350 5950
Wire Wire Line
	13400 4800 13350 4800
Wire Wire Line
	13350 4900 13400 4900
$Comp
L Connector:Conn_01x02_Male VCC+GND
U 1 1 5F9A580B
P 3750 5050
F 0 "VCC+GND" H 3722 4932 50  0000 R CNN
F 1 "VCC & GND" H 3722 5023 50  0000 R CNN
F 2 "Connector_PinHeader_2.00mm:PinHeader_1x02_P2.00mm_Vertical" H 3750 5050 50  0001 C CNN
F 3 "~" H 3750 5050 50  0001 C CNN
	1    3750 5050
	1    0    0    -1  
$EndComp
$Comp
L power:VCC #PWR020
U 1 1 5F9A69DB
P 3950 5050
F 0 "#PWR020" H 3950 4900 50  0001 C CNN
F 1 "VCC" H 3967 5223 50  0000 C CNN
F 2 "" H 3950 5050 50  0001 C CNN
F 3 "" H 3950 5050 50  0001 C CNN
	1    3950 5050
	1    0    0    -1  
$EndComp
$Comp
L power:GND #PWR021
U 1 1 5F9A755A
P 3950 5150
F 0 "#PWR021" H 3950 4900 50  0001 C CNN
F 1 "GND" H 3955 4977 50  0000 C CNN
F 2 "" H 3950 5150 50  0001 C CNN
F 3 "" H 3950 5150 50  0001 C CNN
	1    3950 5150
	1    0    0    -1  
$EndComp
Wire Notes Line
	9900 7800 9900 6700
Wire Notes Line
	13700 6700 13700 7800
$Comp
L power:GND #PWR027
U 1 1 5F9A85DB
P 11850 5150
F 0 "#PWR027" H 11850 4900 50  0001 C CNN
F 1 "GND" H 12000 5100 50  0000 C CNN
F 2 "" H 11850 5150 50  0001 C CNN
F 3 "" H 11850 5150 50  0001 C CNN
	1    11850 5150
	0    -1   -1   0   
$EndComp
Wire Wire Line
	11800 5150 11850 5150
Text GLabel 13500 5200 0    47   Input ~ 0
Vin
$Comp
L Device:C C17
U 1 1 5F9E022C
P 12850 6300
F 0 "C17" H 12650 6400 50  0000 L CNN
F 1 "100nF" H 12600 6200 50  0000 L CNN
F 2 "Capacitor_SMD:C_1206_3216Metric" H 12888 6150 50  0001 C CNN
F 3 "~" H 12850 6300 50  0001 C CNN
	1    12850 6300
	1    0    0    -1  
$EndComp
Wire Wire Line
	12850 6150 13050 6150
Connection ~ 13050 6150
Wire Wire Line
	12850 6450 13050 6450
Connection ~ 13050 6450
$Comp
L Device:R R16
U 1 1 5F9F4EA8
P 13500 5750
F 0 "R16" V 13500 5800 50  0000 R CNN
F 1 "10k" V 13550 5700 50  0000 R CNN
F 2 "Resistor_SMD:R_1206_3216Metric" V 13430 5750 50  0001 C CNN
F 3 "~" H 13500 5750 50  0001 C CNN
	1    13500 5750
	1    0    0    -1  
$EndComp
$Comp
L power:GND #PWR030
U 1 1 5F9F5AB8
P 13500 5900
F 0 "#PWR030" H 13500 5650 50  0001 C CNN
F 1 "GND" H 13505 5727 50  0000 C CNN
F 2 "" H 13500 5900 50  0001 C CNN
F 3 "" H 13500 5900 50  0001 C CNN
	1    13500 5900
	1    0    0    -1  
$EndComp
$Comp
L Device:R R15
U 1 1 5F9FFEFE
P 13500 5350
F 0 "R15" V 13500 5400 50  0000 R CNN
F 1 "4k7" V 13550 5300 50  0000 R CNN
F 2 "Resistor_SMD:R_1206_3216Metric" V 13430 5350 50  0001 C CNN
F 3 "~" H 13500 5350 50  0001 C CNN
	1    13500 5350
	1    0    0    -1  
$EndComp
Wire Wire Line
	13500 5550 13500 5500
Wire Wire Line
	13500 5550 13500 5600
Connection ~ 13500 5550
$Comp
L Device:LED D1
U 1 1 5FA215A5
P 12000 4750
F 0 "D1" V 12039 4633 50  0000 R CNN
F 1 "LED" V 11948 4633 50  0000 R CNN
F 2 "LED_THT:LED_D5.0mm_IRGrey" H 12000 4750 50  0001 C CNN
F 3 "~" H 12000 4750 50  0001 C CNN
	1    12000 4750
	0    -1   -1   0   
$EndComp
Wire Wire Line
	11800 5850 12200 5850
Wire Wire Line
	12200 5850 12200 5550
Wire Wire Line
	12200 5550 13500 5550
Wire Wire Line
	11800 5550 12150 5550
$Comp
L Device:LED D2
U 1 1 5FA60020
P 12150 4750
F 0 "D2" V 12189 4633 50  0000 R CNN
F 1 "LED" V 12098 4633 50  0000 R CNN
F 2 "LED_THT:LED_D5.0mm_IRGrey" H 12150 4750 50  0001 C CNN
F 3 "~" H 12150 4750 50  0001 C CNN
	1    12150 4750
	0    -1   -1   0   
$EndComp
$Comp
L Device:R R3
U 1 1 5FA6115C
P 12000 5150
F 0 "R3" V 12000 5200 50  0000 R CNN
F 1 "470" V 12050 5000 50  0000 R CNN
F 2 "Resistor_SMD:R_1206_3216Metric" V 11930 5150 50  0001 C CNN
F 3 "~" H 12000 5150 50  0001 C CNN
	1    12000 5150
	1    0    0    -1  
$EndComp
$Comp
L Device:R R5
U 1 1 5FA61A61
P 12150 5150
F 0 "R5" V 12150 5200 50  0000 R CNN
F 1 "470" V 12200 5000 50  0000 R CNN
F 2 "Resistor_SMD:R_1206_3216Metric" V 12080 5150 50  0001 C CNN
F 3 "~" H 12150 5150 50  0001 C CNN
	1    12150 5150
	1    0    0    -1  
$EndComp
Wire Wire Line
	11800 5450 12000 5450
Wire Wire Line
	12000 5450 12000 5300
Wire Wire Line
	12150 5300 12150 5550
Wire Wire Line
	12000 5000 12000 4900
Wire Wire Line
	12150 4900 12150 5000
$Comp
L power:VCC #PWR028
U 1 1 5FA8F755
P 12000 4600
F 0 "#PWR028" H 12000 4450 50  0001 C CNN
F 1 "VCC" H 12017 4773 50  0000 C CNN
F 2 "" H 12000 4600 50  0001 C CNN
F 3 "" H 12000 4600 50  0001 C CNN
	1    12000 4600
	1    0    0    -1  
$EndComp
$Comp
L power:VCC #PWR029
U 1 1 5FA90258
P 12150 4600
F 0 "#PWR029" H 12150 4450 50  0001 C CNN
F 1 "VCC" H 12167 4773 50  0000 C CNN
F 2 "" H 12150 4600 50  0001 C CNN
F 3 "" H 12150 4600 50  0001 C CNN
	1    12150 4600
	1    0    0    -1  
$EndComp
Wire Wire Line
	11800 6050 12350 6050
$Comp
L 0_SN74LVC1T45DBVR:SN74LVC1T45DBVR U6
U 1 1 5FAF71C7
P 10250 1300
F 0 "U6" H 10250 1886 60  0000 C CNN
F 1 "SN74LVC1T45DBVR" H 10250 1780 60  0000 C CNN
F 2 "0_SN74LVC1T45DBVR:SN74LVC1T45DBVR" H 10250 1240 60  0001 C CNN
F 3 "" H 10250 1300 60  0000 C CNN
	1    10250 1300
	1    0    0    -1  
$EndComp
$Comp
L power:VCC #PWR033
U 1 1 5FB729F4
P 9450 1100
F 0 "#PWR033" H 9450 950 50  0001 C CNN
F 1 "VCC" H 9467 1273 50  0000 C CNN
F 2 "" H 9450 1100 50  0001 C CNN
F 3 "" H 9450 1100 50  0001 C CNN
	1    9450 1100
	1    0    0    -1  
$EndComp
Text GLabel 11050 1100 2    47   Input ~ 0
VCC-3v3
$Comp
L power:GND #PWR036
U 1 1 5FB87976
P 11050 1500
F 0 "#PWR036" H 11050 1250 50  0001 C CNN
F 1 "GND" H 11055 1327 50  0000 C CNN
F 2 "" H 11050 1500 50  0001 C CNN
F 3 "" H 11050 1500 50  0001 C CNN
	1    11050 1500
	1    0    0    -1  
$EndComp
$Comp
L 0_SN74LVC1T45DBVR:SN74LVC1T45DBVR U2
U 1 1 5FBDE387
P 10100 2400
F 0 "U2" H 10100 2986 60  0000 C CNN
F 1 "SN74LVC1T45DBVR" H 10100 2880 60  0000 C CNN
F 2 "0_SN74LVC1T45DBVR:SN74LVC1T45DBVR" H 10100 2340 60  0001 C CNN
F 3 "" H 10100 2400 60  0000 C CNN
	1    10100 2400
	1    0    0    -1  
$EndComp
$Comp
L power:VCC #PWR032
U 1 1 5FBDE38D
P 9300 2200
F 0 "#PWR032" H 9300 2050 50  0001 C CNN
F 1 "VCC" H 9317 2373 50  0000 C CNN
F 2 "" H 9300 2200 50  0001 C CNN
F 3 "" H 9300 2200 50  0001 C CNN
	1    9300 2200
	1    0    0    -1  
$EndComp
Text GLabel 10900 2200 2    47   Input ~ 0
VCC-3v3
$Comp
L power:GND #PWR035
U 1 1 5FBDE3A1
P 10900 2600
F 0 "#PWR035" H 10900 2350 50  0001 C CNN
F 1 "GND" H 10905 2427 50  0000 C CNN
F 2 "" H 10900 2600 50  0001 C CNN
F 3 "" H 10900 2600 50  0001 C CNN
	1    10900 2600
	1    0    0    -1  
$EndComp
$Comp
L power:GND #PWR041
U 1 1 5FC051E9
P 12350 1450
F 0 "#PWR041" H 12350 1200 50  0001 C CNN
F 1 "GND" H 12355 1277 50  0000 C CNN
F 2 "" H 12350 1450 50  0001 C CNN
F 3 "" H 12350 1450 50  0001 C CNN
	1    12350 1450
	0    1    1    0   
$EndComp
$Comp
L 0_SN74LVC1T45DBVR:SN74LVC1T45DBVR U11
U 1 1 5FC051EF
P 13150 1250
F 0 "U11" H 13150 1836 60  0000 C CNN
F 1 "SN74LVC1T45DBVR" H 13150 1730 60  0000 C CNN
F 2 "0_SN74LVC1T45DBVR:SN74LVC1T45DBVR" H 13150 1190 60  0001 C CNN
F 3 "" H 13150 1250 60  0000 C CNN
	1    13150 1250
	1    0    0    -1  
$EndComp
$Comp
L power:VCC #PWR045
U 1 1 5FC051F5
P 12350 1050
F 0 "#PWR045" H 12350 900 50  0001 C CNN
F 1 "VCC" H 12367 1223 50  0000 C CNN
F 2 "" H 12350 1050 50  0001 C CNN
F 3 "" H 12350 1050 50  0001 C CNN
	1    12350 1050
	1    0    0    -1  
$EndComp
Text GLabel 13950 1050 2    47   Input ~ 0
VCC-3v3
$Comp
L power:GND #PWR048
U 1 1 5FC05209
P 13950 1450
F 0 "#PWR048" H 13950 1200 50  0001 C CNN
F 1 "GND" H 13955 1277 50  0000 C CNN
F 2 "" H 13950 1450 50  0001 C CNN
F 3 "" H 13950 1450 50  0001 C CNN
	1    13950 1450
	1    0    0    -1  
$EndComp
$Comp
L power:GND #PWR037
U 1 1 5FC118FF
P 12100 2600
F 0 "#PWR037" H 12100 2350 50  0001 C CNN
F 1 "GND" H 12105 2427 50  0000 C CNN
F 2 "" H 12100 2600 50  0001 C CNN
F 3 "" H 12100 2600 50  0001 C CNN
	1    12100 2600
	0    1    1    0   
$EndComp
$Comp
L 0_SN74LVC1T45DBVR:SN74LVC1T45DBVR U9
U 1 1 5FC11905
P 12900 2400
F 0 "U9" H 12900 2986 60  0000 C CNN
F 1 "SN74LVC1T45DBVR" H 12900 2880 60  0000 C CNN
F 2 "0_SN74LVC1T45DBVR:SN74LVC1T45DBVR" H 12900 2340 60  0001 C CNN
F 3 "" H 12900 2400 60  0000 C CNN
	1    12900 2400
	1    0    0    -1  
$EndComp
$Comp
L power:VCC #PWR042
U 1 1 5FC1190B
P 12100 2200
F 0 "#PWR042" H 12100 2050 50  0001 C CNN
F 1 "VCC" H 12117 2373 50  0000 C CNN
F 2 "" H 12100 2200 50  0001 C CNN
F 3 "" H 12100 2200 50  0001 C CNN
	1    12100 2200
	1    0    0    -1  
$EndComp
Text GLabel 13700 2200 2    47   Input ~ 0
VCC-3v3
$Comp
L power:GND #PWR046
U 1 1 5FC1191F
P 13700 2600
F 0 "#PWR046" H 13700 2350 50  0001 C CNN
F 1 "GND" H 13705 2427 50  0000 C CNN
F 2 "" H 13700 2600 50  0001 C CNN
F 3 "" H 13700 2600 50  0001 C CNN
	1    13700 2600
	1    0    0    -1  
$EndComp
Wire Notes Line
	600  7600 9350 7600
Wire Notes Line
	9350 7600 9350 4250
Wire Notes Line
	9350 4250 600  4250
Wire Notes Line
	600  4250 600  7600
$Comp
L power:GND #PWR038
U 1 1 5FD47F19
P 12100 3650
F 0 "#PWR038" H 12100 3400 50  0001 C CNN
F 1 "GND" H 12105 3477 50  0000 C CNN
F 2 "" H 12100 3650 50  0001 C CNN
F 3 "" H 12100 3650 50  0001 C CNN
	1    12100 3650
	0    1    1    0   
$EndComp
$Comp
L 0_SN74LVC1T45DBVR:SN74LVC1T45DBVR SI-W
U 1 1 5FD47F1F
P 12900 3450
F 0 "SI-W" H 12900 4036 60  0000 C CNN
F 1 "SN74LVC1T45DBVR" H 12900 3930 60  0000 C CNN
F 2 "0_SN74LVC1T45DBVR:SN74LVC1T45DBVR" H 12900 3390 60  0001 C CNN
F 3 "" H 12900 3450 60  0000 C CNN
	1    12900 3450
	1    0    0    -1  
$EndComp
$Comp
L power:VCC #PWR043
U 1 1 5FD47F25
P 12100 3250
F 0 "#PWR043" H 12100 3100 50  0001 C CNN
F 1 "VCC" H 12117 3423 50  0000 C CNN
F 2 "" H 12100 3250 50  0001 C CNN
F 3 "" H 12100 3250 50  0001 C CNN
	1    12100 3250
	1    0    0    -1  
$EndComp
Text GLabel 13700 3250 2    47   Input ~ 0
VCC-3v3
$Comp
L power:GND #PWR047
U 1 1 5FD47F39
P 13700 3650
F 0 "#PWR047" H 13700 3400 50  0001 C CNN
F 1 "GND" H 13705 3477 50  0000 C CNN
F 2 "" H 13700 3650 50  0001 C CNN
F 3 "" H 13700 3650 50  0001 C CNN
	1    13700 3650
	1    0    0    -1  
$EndComp
$Comp
L 0_SN74LVC1T45DBVR:SN74LVC1T45DBVR U1
U 1 1 5FD670CF
P 10050 3500
F 0 "U1" H 10050 4086 60  0000 C CNN
F 1 "SN74LVC1T45DBVR" H 10050 3980 60  0000 C CNN
F 2 "0_SN74LVC1T45DBVR:SN74LVC1T45DBVR" H 10050 3440 60  0001 C CNN
F 3 "" H 10050 3500 60  0000 C CNN
	1    10050 3500
	1    0    0    -1  
$EndComp
$Comp
L power:VCC #PWR026
U 1 1 5FD670D5
P 9250 3300
F 0 "#PWR026" H 9250 3150 50  0001 C CNN
F 1 "VCC" H 9267 3473 50  0000 C CNN
F 2 "" H 9250 3300 50  0001 C CNN
F 3 "" H 9250 3300 50  0001 C CNN
	1    9250 3300
	1    0    0    -1  
$EndComp
Text GLabel 10850 3300 2    47   Input ~ 0
VCC-3v3
$Comp
L power:VCC #PWR024
U 1 1 5FD670E2
P 9250 3700
F 0 "#PWR024" H 9250 3550 50  0001 C CNN
F 1 "VCC" H 9267 3873 50  0000 C CNN
F 2 "" H 9250 3700 50  0001 C CNN
F 3 "" H 9250 3700 50  0001 C CNN
	1    9250 3700
	0    -1   -1   0   
$EndComp
$Comp
L power:GND #PWR034
U 1 1 5FD670E9
P 10850 3700
F 0 "#PWR034" H 10850 3450 50  0001 C CNN
F 1 "GND" H 10855 3527 50  0000 C CNN
F 2 "" H 10850 3700 50  0001 C CNN
F 3 "" H 10850 3700 50  0001 C CNN
	1    10850 3700
	1    0    0    -1  
$EndComp
Wire Notes Line
	8650 650  14600 650 
Wire Notes Line
	14600 650  14600 4100
Wire Notes Line
	14600 4100 8650 4100
Wire Notes Line
	8650 4100 8650 650 
$Comp
L Device:C C19
U 1 1 5FA9F5F6
P 6550 2500
F 0 "C19" H 6665 2546 50  0000 L CNN
F 1 "?" H 6665 2455 50  0000 L CNN
F 2 "Capacitor_SMD:C_1206_3216Metric" H 6588 2350 50  0001 C CNN
F 3 "~" H 6550 2500 50  0001 C CNN
	1    6550 2500
	0    1    1    0   
$EndComp
$Comp
L Device:R R13
U 1 1 5FAA065E
P 6150 2500
F 0 "R13" H 6080 2454 50  0000 R CNN
F 1 "?" H 6080 2545 50  0000 R CNN
F 2 "Resistor_SMD:R_1206_3216Metric" V 6080 2500 50  0001 C CNN
F 3 "~" H 6150 2500 50  0001 C CNN
	1    6150 2500
	0    -1   -1   0   
$EndComp
$Comp
L power:GND #PWR050
U 1 1 5FAA0C2C
P 6800 2500
F 0 "#PWR050" H 6800 2250 50  0001 C CNN
F 1 "GND" H 6805 2327 50  0000 C CNN
F 2 "" H 6800 2500 50  0001 C CNN
F 3 "" H 6800 2500 50  0001 C CNN
	1    6800 2500
	1    0    0    -1  
$EndComp
Wire Wire Line
	5950 2800 5950 2500
Wire Wire Line
	5950 2500 6000 2500
Connection ~ 5950 2800
Wire Wire Line
	5950 2800 6200 2800
Wire Wire Line
	6300 2500 6400 2500
Wire Wire Line
	6700 2500 6800 2500
$Comp
L Device:CP C18
U 1 1 5FAC2089
P 5250 3200
F 0 "C18" H 5368 3246 50  0000 L CNN
F 1 "100µF" H 5368 3155 50  0000 L CNN
F 2 "Capacitor_THT:CP_Radial_D4.0mm_P1.50mm" H 5288 3050 50  0001 C CNN
F 3 "~" H 5250 3200 50  0001 C CNN
	1    5250 3200
	1    0    0    -1  
$EndComp
$Comp
L power:GND #PWR049
U 1 1 5FAC42D5
P 5250 3350
F 0 "#PWR049" H 5250 3100 50  0001 C CNN
F 1 "GND" H 5255 3177 50  0000 C CNN
F 2 "" H 5250 3350 50  0001 C CNN
F 3 "" H 5250 3350 50  0001 C CNN
	1    5250 3350
	1    0    0    -1  
$EndComp
Wire Wire Line
	5250 3050 5250 2900
Wire Wire Line
	5050 1100 5250 1100
Wire Wire Line
	5250 2900 5250 2150
Connection ~ 5250 1100
Wire Wire Line
	5250 1100 5350 1100
$Comp
L Device:LED D6
U 1 1 5FAEFA55
P 8650 5750
F 0 "D6" V 8689 5633 50  0000 R CNN
F 1 "LED" V 8598 5633 50  0000 R CNN
F 2 "LED_THT:LED_D5.0mm_IRGrey" H 8650 5750 50  0001 C CNN
F 3 "~" H 8650 5750 50  0001 C CNN
	1    8650 5750
	-1   0    0    1   
$EndComp
$Comp
L Device:R R14
U 1 1 5FAEFF49
P 9000 5750
F 0 "R14" V 8793 5750 50  0000 C CNN
F 1 "470R" V 8884 5750 50  0000 C CNN
F 2 "Resistor_SMD:R_1206_3216Metric" V 8930 5750 50  0001 C CNN
F 3 "~" H 9000 5750 50  0001 C CNN
	1    9000 5750
	0    1    1    0   
$EndComp
$Comp
L Connector:Conn_01x02_Male J28
U 1 1 5FAF1F89
P 9150 6250
F 0 "J28" V 9450 6300 50  0000 R CNN
F 1 "FreiePins" V 9100 6550 50  0000 R CNN
F 2 "Connector_PinHeader_2.00mm:PinHeader_1x02_P2.00mm_Vertical" H 9150 6250 50  0001 C CNN
F 3 "~" H 9150 6250 50  0001 C CNN
	1    9150 6250
	-1   0    0    1   
$EndComp
$Comp
L power:GND #PWR051
U 1 1 5FAF2C92
P 9200 5750
F 0 "#PWR051" H 9200 5500 50  0001 C CNN
F 1 "GND" H 9205 5577 50  0000 C CNN
F 2 "" H 9200 5750 50  0001 C CNN
F 3 "" H 9200 5750 50  0001 C CNN
	1    9200 5750
	1    0    0    -1  
$EndComp
Wire Wire Line
	8400 5750 8500 5750
Wire Wire Line
	8800 5750 8850 5750
Wire Wire Line
	9150 5750 9200 5750
Wire Wire Line
	8400 6150 8950 6150
Wire Wire Line
	8400 6250 8950 6250
$Comp
L Device:C C20
U 1 1 5FB9FF37
P 6300 3650
F 0 "C20" H 6415 3696 50  0000 L CNN
F 1 "200pF" H 6415 3605 50  0000 L CNN
F 2 "Capacitor_SMD:C_1206_3216Metric" H 6338 3500 50  0001 C CNN
F 3 "~" H 6300 3650 50  0001 C CNN
	1    6300 3650
	1    0    0    -1  
$EndComp
Connection ~ 6300 3500
Wire Wire Line
	6300 3500 6650 3500
$Comp
L power:GND #PWR052
U 1 1 5FBA07A8
P 6300 3900
F 0 "#PWR052" H 6300 3650 50  0001 C CNN
F 1 "GND" H 6305 3727 50  0000 C CNN
F 2 "" H 6300 3900 50  0001 C CNN
F 3 "" H 6300 3900 50  0001 C CNN
	1    6300 3900
	1    0    0    -1  
$EndComp
Wire Wire Line
	6300 3800 6300 3900
Text Notes 2250 4800 0    47   ~ 0
Mosi Miso Tauschen
$Comp
L Switch:SW_SPST Ein/Aus
U 1 1 5FD2CA0D
P 5250 1950
F 0 "Ein/Aus" V 5204 2048 50  0000 L CNN
F 1 "SW_SPST" V 5295 2048 50  0000 L CNN
F 2 "" H 5250 1950 50  0001 C CNN
F 3 "~" H 5250 1950 50  0001 C CNN
	1    5250 1950
	0    1    1    0   
$EndComp
Wire Wire Line
	5250 1750 5250 1100
Text GLabel 10850 3500 2    47   Input ~ 0
SO_Flash_OUT
$Comp
L 0_FT232RL:FT232RLREEL USB-W
U 1 1 5F958B1B
P 10000 4950
F 0 "USB-W" H 10900 5337 60  0000 C CNN
F 1 "FT232RLREEL" H 10900 5231 60  0000 C CNN
F 2 "0_FT232RL:FT232RLREEL" H 10900 5190 60  0001 C CNN
F 3 "" H 10000 4950 60  0000 C CNN
	1    10000 4950
	1    0    0    -1  
$EndComp
$Comp
L Switch:SW_Push Start
U 1 1 5FD610B3
P 1650 7100
F 0 "Start" V 1696 7052 50  0000 R CNN
F 1 "SW_Push" V 1605 7052 50  0000 R CNN
F 2 "Button_Switch_SMD:SW_Push_1P1T_NO_CK_KSC7xxJ" H 1650 7300 50  0001 C CNN
F 3 "~" H 1650 7300 50  0001 C CNN
	1    1650 7100
	-1   0    0    1   
$EndComp
$Comp
L power:GND #PWR?
U 1 1 5FD61CAE
P 1150 7100
F 0 "#PWR?" H 1150 6850 50  0001 C CNN
F 1 "GND" H 1155 6927 50  0000 C CNN
F 2 "" H 1150 7100 50  0001 C CNN
F 3 "" H 1150 7100 50  0001 C CNN
	1    1150 7100
	0    1    1    0   
$EndComp
$Comp
L Device:R R?
U 1 1 5FD626DB
P 1300 7100
F 0 "R?" H 1230 7054 50  0000 R CNN
F 1 "3k3" H 1230 7145 50  0000 R CNN
F 2 "Resistor_SMD:R_1206_3216Metric" V 1230 7100 50  0001 C CNN
F 3 "~" H 1300 7100 50  0001 C CNN
	1    1300 7100
	0    -1   -1   0   
$EndComp
Wire Wire Line
	1850 7100 1850 6950
Wire Wire Line
	1850 6950 2800 6950
$Comp
L power:GND #PWR019
U 1 1 5FBDE381
P 9300 2600
F 0 "#PWR019" H 9300 2350 50  0001 C CNN
F 1 "GND" H 9305 2427 50  0000 C CNN
F 2 "" H 9300 2600 50  0001 C CNN
F 3 "" H 9300 2600 50  0001 C CNN
	1    9300 2600
	0    1    1    0   
$EndComp
Wire Wire Line
	5350 1100 5500 1100
Wire Wire Line
	7200 3100 7350 3100
Connection ~ 7200 3100
$Comp
L Device:C C?
U 1 1 5FD8AE20
P 950 1250
F 0 "C?" H 1065 1296 50  0000 L CNN
F 1 "1µF" H 1065 1205 50  0000 L CNN
F 2 "Capacitor_SMD:C_1206_3216Metric" H 988 1100 50  0001 C CNN
F 3 "~" H 950 1250 50  0001 C CNN
	1    950  1250
	1    0    0    -1  
$EndComp
Connection ~ 950  1100
Wire Wire Line
	950  1100 900  1100
$Comp
L power:GND #PWR?
U 1 1 5FD8B5D2
P 950 1400
F 0 "#PWR?" H 950 1150 50  0001 C CNN
F 1 "GND" H 955 1227 50  0000 C CNN
F 2 "" H 950 1400 50  0001 C CNN
F 3 "" H 950 1400 50  0001 C CNN
	1    950  1400
	1    0    0    -1  
$EndComp
Connection ~ 5500 1100
Wire Wire Line
	5500 1100 5550 1100
Wire Wire Line
	950  1100 1100 1100
Wire Notes Line
	13700 4250 15500 4250
Wire Notes Line
	15500 4250 15500 5300
Wire Notes Line
	15500 5300 13700 5300
Wire Notes Line
	700  550  7650 550 
Wire Notes Line
	7650 4150 700  4150
Wire Notes Line
	9900 6700 13700 6700
Wire Notes Line
	13700 7800 9900 7800
$EndSCHEMATC
