M48
; DRILL file {KiCad (5.1.4)-1} date 09.11.2020 15:22:28
; FORMAT={-:-/ absolute / metric / decimal}
; #@! TF.CreationDate,2020-11-09T15:22:28+01:00
; #@! TF.GenerationSoftware,Kicad,Pcbnew,(5.1.4)-1
FMAT,2
METRIC
T1C0.400
T2C0.600
T3C0.800
T4C0.813
T5C0.900
T6C1.000
T7C1.016
%
G90
G05
T1
X53.424Y-102.044
X56.845Y-111.76
X59.334Y-145.186
X61.539Y-149.535
X62.174Y-118.369
X63.0Y-130.0
X63.348Y-118.618
X65.0Y-137.0
X66.446Y-100.0
X67.521Y-122.326
X68.143Y-115.709
X68.682Y-125.12
X68.682Y-150.419
X69.748Y-119.532
X70.968Y-148.59
X73.0Y-101.0
X73.101Y-145.694
X74.061Y-118.82
X75.387Y-122.784
X75.763Y-129.171
X75.763Y-131.203
X77.013Y-124.155
X78.659Y-103.06
X78.829Y-145.38
X80.0Y-101.0
X80.0Y-132.0
X80.264Y-128.27
X80.772Y-127.254
X81.28Y-141.415
X81.605Y-129.349
X82.393Y-138.671
X82.398Y-135.89
X82.868Y-130.289
X83.668Y-128.168
X83.751Y-132.029
X84.531Y-127.305
X84.581Y-130.289
X84.806Y-137.553
X85.09Y-108.407
X85.141Y-113.03
X85.7Y-123.342
X85.949Y-115.709
X86.0Y-99.0
X87.579Y-118.11
X88.443Y-119.482
X89.027Y-128.829
X89.936Y-95.668
X90.018Y-124.562
X90.043Y-134.874
X90.063Y-100.037
X90.78Y-137.82
X92.481Y-127.991
X92.756Y-97.535
X92.781Y-95.63
X92.781Y-98.818
X93.091Y-114.96
X94.437Y-119.101
X94.564Y-127.203
X95.656Y-130.683
X95.766Y-100.113
X95.834Y-128.245
X95.855Y-95.592
X96.063Y-124.714
X96.215Y-108.712
X96.622Y-134.01
X96.635Y-111.899
X97.0Y-100.0
X97.13Y-107.086
X97.282Y-104.953
X97.358Y-130.658
X100.127Y-113.487
X101.448Y-108.864
X102.794Y-105.207
X102.794Y-109.677
X102.921Y-130.073
X103.251Y-121.793
X103.607Y-117.134
X104.038Y-114.325
X105.994Y-108.56
X108.407Y-105.562
X111.354Y-114.452
T2
X110.998Y-96.036
X110.998Y-97.536
X87.061Y-142.924
X88.561Y-142.924
X109.239Y-127.71
X110.739Y-127.71
X75.641Y-106.782
X75.641Y-108.282
X93.365Y-105.46
X93.365Y-106.96
T3
X54.559Y-146.71
X56.559Y-146.71
X78.01Y-122.301
X80.01Y-122.301
X85.039Y-119.056
X85.039Y-121.056
X99.162Y-126.187
X101.162Y-126.187
X96.164Y-145.034
X58.547Y-104.807
X58.547Y-106.807
X56.591Y-141.154
X56.591Y-143.154
X99.111Y-122.784
X101.111Y-122.784
X99.068Y-101.415
X99.068Y-103.415
X93.066Y-121.463
X93.066Y-123.463
X101.378Y-98.298
X103.378Y-98.298
X96.063Y-139.732
X96.063Y-141.732
X98.958Y-115.824
X100.958Y-115.824
X54.591Y-150.368
X56.591Y-150.368
X103.467Y-101.47
X103.467Y-103.47
X59.0Y-111.0
X59.0Y-113.0
X59.0Y-115.0
X59.0Y-117.0
X59.0Y-119.0
X59.0Y-121.0
X72.263Y-125.857
X74.263Y-125.857
X89.865Y-147.86
X89.865Y-149.86
X63.343Y-103.288
X63.343Y-105.288
X55.329Y-103.651
X55.329Y-105.651
X114.016Y-122.973
X116.016Y-122.973
X99.009Y-110.217
X99.009Y-112.217
T4
X111.171Y-104.838
X111.171Y-112.458
X113.711Y-104.838
X113.711Y-112.458
X116.251Y-104.838
X116.251Y-112.458
X118.791Y-104.838
X118.791Y-112.458
T5
X53.696Y-124.511
X53.696Y-127.051
X53.746Y-134.01
X53.746Y-136.55
X76.817Y-97.205
X76.817Y-99.745
X83.663Y-97.205
X83.663Y-99.745
X69.959Y-97.218
X69.959Y-99.758
X53.645Y-117.704
X53.645Y-120.244
T6
X59.0Y-125.0
X59.0Y-127.54
X59.0Y-130.08
X59.0Y-132.62
X59.0Y-135.16
X59.0Y-137.7
T7
X63.92Y-146.0
X63.92Y-148.54
X66.46Y-146.0
X66.46Y-148.54
X69.0Y-146.0
X69.0Y-148.54
T0
M30
