(export (version D)
  (design
    (source C:\Users\morit\Documents\Diplomarbeit\diplomarbeit\Hardware\Geo-Logger-v3\Geo-Logger-v1.sch)
    (date "14.11.2020 17:21:07")
    (tool "Eeschema (5.1.4)-1")
    (sheet (number 1) (name /) (tstamps /)
      (title_block
        (title Geo-Logger)
        (company "Moritz Schwärzler")
        (rev v5)
        (date 2020-11-09)
        (source Geo-Logger-v1.sch)
        (comment (number 1) (value "Prototyp 1"))
        (comment (number 2) (value ""))
        (comment (number 3) (value ""))
        (comment (number 4) (value "")))))
  (components
    (comp (ref SW1)
      (value SW_Push)
      (footprint Button_Switch_SMD:SW_Push_1P1T_NO_CK_KSC7xxJ)
      (datasheet ~)
      (libsource (lib Switch) (part SW_Push) (description "Push button switch, generic, two pins"))
      (sheetpath (names /) (tstamps /))
      (tstamp 5F815D83))
    (comp (ref C4)
      (value 0µ1)
      (footprint Capacitor_SMD:C_1206_3216Metric)
      (datasheet ~)
      (libsource (lib Device) (part C) (description "Unpolarized capacitor"))
      (sheetpath (names /) (tstamps /))
      (tstamp 5F81D188))
    (comp (ref Y1)
      (value 12MHz)
      (footprint Crystal:Crystal_SMD_HC49-SD)
      (datasheet ~)
      (libsource (lib Device) (part Crystal) (description "Two pin crystal"))
      (sheetpath (names /) (tstamps /))
      (tstamp 5F81EDE1))
    (comp (ref C2)
      (value 27p)
      (footprint Capacitor_SMD:C_1206_3216Metric)
      (datasheet ~)
      (libsource (lib Device) (part C) (description "Unpolarized capacitor"))
      (sheetpath (names /) (tstamps /))
      (tstamp 5F8210EE))
    (comp (ref C3)
      (value 27p)
      (footprint Capacitor_SMD:C_1206_3216Metric)
      (datasheet ~)
      (libsource (lib Device) (part C) (description "Unpolarized capacitor"))
      (sheetpath (names /) (tstamps /))
      (tstamp 5F82180A))
    (comp (ref C1)
      (value 0µ1)
      (footprint Capacitor_SMD:C_1206_3216Metric)
      (datasheet ~)
      (libsource (lib Device) (part C) (description "Unpolarized capacitor"))
      (sheetpath (names /) (tstamps /))
      (tstamp 5F826731))
    (comp (ref C6)
      (value 47µ)
      (footprint Capacitor_THT:CP_Radial_D4.0mm_P1.50mm)
      (datasheet ~)
      (libsource (lib Device) (part CP) (description "Polarized capacitor"))
      (sheetpath (names /) (tstamps /))
      (tstamp 5F82D74A))
    (comp (ref C7)
      (value 1µ)
      (footprint Capacitor_SMD:C_1206_3216Metric)
      (datasheet ~)
      (libsource (lib Device) (part C) (description "Unpolarized capacitor"))
      (sheetpath (names /) (tstamps /))
      (tstamp 5F82E4AF))
    (comp (ref C8)
      (value 0µ1)
      (footprint Capacitor_SMD:C_1206_3216Metric)
      (datasheet ~)
      (libsource (lib Device) (part C) (description "Unpolarized capacitor"))
      (sheetpath (names /) (tstamps /))
      (tstamp 5F82E8E9))
    (comp (ref C5)
      (value 0µ1)
      (footprint Capacitor_SMD:C_1206_3216Metric)
      (datasheet ~)
      (libsource (lib Device) (part C) (description "Unpolarized capacitor"))
      (sheetpath (names /) (tstamps /))
      (tstamp 5F82EB6A))
    (comp (ref J2)
      (value Prog)
      (footprint Connector_PinHeader_2.00mm:PinHeader_1x02_P2.00mm_Vertical)
      (datasheet ~)
      (libsource (lib Connector) (part Conn_01x02_Male) (description "Generic connector, single row, 01x02, script generated (kicad-library-utils/schlib/autogen/connector/)"))
      (sheetpath (names /) (tstamps /))
      (tstamp 5F8577AA))
    (comp (ref J6)
      (value GNNS-Modul)
      (footprint Connector_PinHeader_2.00mm:PinHeader_1x06_P2.00mm_Vertical)
      (datasheet ~)
      (libsource (lib Connector) (part Conn_01x06_Female) (description "Generic connector, single row, 01x06, script generated (kicad-library-utils/schlib/autogen/connector/)"))
      (sheetpath (names /) (tstamps /))
      (tstamp 5F88BF0E))
    (comp (ref J4)
      (value RX-->TX)
      (footprint Connector_PinHeader_2.00mm:PinHeader_1x02_P2.00mm_Vertical)
      (datasheet ~)
      (libsource (lib Connector) (part Conn_01x02_Male) (description "Generic connector, single row, 01x02, script generated (kicad-library-utils/schlib/autogen/connector/)"))
      (sheetpath (names /) (tstamps /))
      (tstamp 5F8D9E66))
    (comp (ref J3)
      (value "TX--> RX")
      (footprint Connector_PinHeader_2.00mm:PinHeader_1x02_P2.00mm_Vertical)
      (datasheet ~)
      (libsource (lib Connector) (part Conn_01x02_Male) (description "Generic connector, single row, 01x02, script generated (kicad-library-utils/schlib/autogen/connector/)"))
      (sheetpath (names /) (tstamps /))
      (tstamp 5F8DC6C9))
    (comp (ref J1)
      (value Micro-USB-Buchse)
      (footprint 0_Micro-USB:10118192-0002LF)
      (libsource (lib 0_Micro_USB) (part 10118192-0002LF) (description ""))
      (sheetpath (names /) (tstamps /))
      (tstamp 5F8FEEE1))
    (comp (ref U5)
      (value SST26VF064B-104I_SM)
      (footprint 0_SST26VF064B-104I/SM:SST26VF064B-104I&slash_SM)
      (libsource (lib 0_SST26VF064B-104I/SM) (part SST26VF064B-104I_SM) (description ""))
      (sheetpath (names /) (tstamps /))
      (tstamp 5F954BFB))
    (comp (ref U7)
      (value "ATMEGA328PB-AUR TQFP")
      (footprint 0_ATMEGA328PB-AU:ATMEGA328PB-AUR)
      (libsource (lib 0_ATMEGA328PB-AU) (part ATMEGA328PB-AUR) (description ""))
      (sheetpath (names /) (tstamps /))
      (tstamp 5F956584))
    (comp (ref J10)
      (value AVR-ISP-6)
      (footprint Connector_IDC:IDC-Header_2x03_P2.54mm_Vertical)
      (datasheet " ~")
      (libsource (lib Connector) (part AVR-ISP-6) (description "Atmel 6-pin ISP connector"))
      (sheetpath (names /) (tstamps /))
      (tstamp 5FB1459D))
    (comp (ref J5)
      (value Vin)
      (footprint Connector_PinHeader_2.00mm:PinHeader_1x02_P2.00mm_Vertical)
      (datasheet ~)
      (libsource (lib Connector) (part Conn_01x02_Male) (description "Generic connector, single row, 01x02, script generated (kicad-library-utils/schlib/autogen/connector/)"))
      (sheetpath (names /) (tstamps /))
      (tstamp 5F99CB13))
    (comp (ref U4)
      (value LT1302CN8-5-PBF)
      (footprint 0_LT1302CN85#PBF:LT1302CN8-5-PBF)
      (libsource (lib 0_LT1302CN85#PBF) (part LT1302CN8-5-PBF) (description ""))
      (sheetpath (names /) (tstamps /))
      (tstamp 5F9525CC))
    (comp (ref C9)
      (value 10n)
      (footprint Capacitor_SMD:C_1206_3216Metric)
      (datasheet ~)
      (libsource (lib Device) (part C) (description "Unpolarized capacitor"))
      (sheetpath (names /) (tstamps /))
      (tstamp 5F7DB4CE))
    (comp (ref R8)
      (value 20k)
      (footprint Resistor_SMD:R_1206_3216Metric)
      (datasheet ~)
      (libsource (lib Device) (part R) (description Resistor))
      (sheetpath (names /) (tstamps /))
      (tstamp 5F7C5C0D))
    (comp (ref U3)
      (value MCP73833T-FCI_MF)
      (footprint 0_MCP73833:MCP73833T-FCI&slash_MF)
      (libsource (lib 0_MCP73833) (part MCP73833T-FCI_MF) (description ""))
      (sheetpath (names /) (tstamps /))
      (tstamp 5F8FD25E))
    (comp (ref LiIon-Zellen1)
      (value "Akku V+ V-")
      (footprint Connector_PinHeader_2.00mm:PinHeader_1x02_P2.00mm_Vertical)
      (datasheet ~)
      (libsource (lib Connector_Generic) (part Conn_01x02) (description "Generic connector, single row, 01x02, script generated (kicad-library-utils/schlib/autogen/connector/)"))
      (sheetpath (names /) (tstamps /))
      (tstamp 5F7B6466))
    (comp (ref C10)
      (value 1µF)
      (footprint Capacitor_SMD:C_1206_3216Metric)
      (datasheet ~)
      (libsource (lib Device) (part C) (description "Unpolarized capacitor"))
      (sheetpath (names /) (tstamps /))
      (tstamp 5F7C653F))
    (comp (ref C11)
      (value 100µF)
      (footprint Capacitor_THT:CP_Radial_D4.0mm_P1.50mm)
      (datasheet ~)
      (libsource (lib Device) (part CP) (description "Polarized capacitor"))
      (sheetpath (names /) (tstamps /))
      (tstamp 5F7C6E7E))
    (comp (ref R10)
      (value 1kR)
      (footprint Resistor_SMD:R_1206_3216Metric)
      (datasheet ~)
      (libsource (lib Device) (part R) (description Resistor))
      (sheetpath (names /) (tstamps /))
      (tstamp 5F7CECD2))
    (comp (ref J7)
      (value Akku-Zellen)
      (footprint Connector_PinHeader_2.00mm:PinHeader_1x02_P2.00mm_Vertical)
      (datasheet ~)
      (libsource (lib Connector) (part Conn_01x02_Male) (description "Generic connector, single row, 01x02, script generated (kicad-library-utils/schlib/autogen/connector/)"))
      (sheetpath (names /) (tstamps /))
      (tstamp 5F86F637))
    (comp (ref VCC1)
      (value VCC)
      (footprint Connector_PinHeader_2.00mm:PinHeader_1x02_P2.00mm_Vertical)
      (datasheet ~)
      (libsource (lib Connector) (part Conn_01x02_Male) (description "Generic connector, single row, 01x02, script generated (kicad-library-utils/schlib/autogen/connector/)"))
      (sheetpath (names /) (tstamps /))
      (tstamp 5F85DB79))
    (comp (ref TH1)
      (value "4R7 PTC")
      (footprint Resistor_SMD:R_1206_3216Metric)
      (datasheet ~)
      (libsource (lib Device) (part Thermistor_PTC) (description "Temperature dependent resistor, positive temperature coefficient"))
      (sheetpath (names /) (tstamps /))
      (tstamp 5F845E48))
    (comp (ref C12)
      (value 1µF)
      (footprint Capacitor_SMD:C_1206_3216Metric)
      (datasheet ~)
      (libsource (lib Device) (part C) (description "Unpolarized capacitor"))
      (sheetpath (names /) (tstamps /))
      (tstamp 5F7EBA04))
    (comp (ref C13)
      (value 100µF)
      (footprint Capacitor_THT:CP_Radial_D4.0mm_P1.50mm)
      (datasheet ~)
      (libsource (lib Device) (part CP) (description "Polarized capacitor"))
      (sheetpath (names /) (tstamps /))
      (tstamp 5F7EACA9))
    (comp (ref R12)
      (value 1k8)
      (footprint Resistor_SMD:R_1206_3216Metric)
      (datasheet ~)
      (libsource (lib Device) (part R) (description Resistor))
      (sheetpath (names /) (tstamps /))
      (tstamp 5F7E457B))
    (comp (ref R11)
      (value 5k6)
      (footprint Resistor_SMD:R_1206_3216Metric)
      (datasheet ~)
      (libsource (lib Device) (part R) (description Resistor))
      (sheetpath (names /) (tstamps /))
      (tstamp 5F7E36E5))
    (comp (ref R7)
      (value 470R)
      (footprint Resistor_SMD:R_1206_3216Metric)
      (datasheet ~)
      (libsource (lib Device) (part R) (description Resistor))
      (sheetpath (names /) (tstamps /))
      (tstamp 5F7D56BB))
    (comp (ref R6)
      (value 470R)
      (footprint Resistor_SMD:R_1206_3216Metric)
      (datasheet ~)
      (libsource (lib Device) (part R) (description Resistor))
      (sheetpath (names /) (tstamps /))
      (tstamp 5F7D4F43))
    (comp (ref R9)
      (value 470R)
      (footprint Resistor_SMD:R_1206_3216Metric)
      (datasheet ~)
      (libsource (lib Device) (part R) (description Resistor))
      (sheetpath (names /) (tstamps /))
      (tstamp 5F7D2F34))
    (comp (ref D5)
      (value LED)
      (footprint LED_THT:LED_D5.0mm_IRGrey)
      (datasheet ~)
      (libsource (lib Device) (part LED) (description "Light emitting diode"))
      (sheetpath (names /) (tstamps /))
      (tstamp 5F7BFACC))
    (comp (ref D4)
      (value LED)
      (footprint LED_THT:LED_D5.0mm_IRGrey)
      (datasheet ~)
      (libsource (lib Device) (part LED) (description "Light emitting diode"))
      (sheetpath (names /) (tstamps /))
      (tstamp 5F7BF8D9))
    (comp (ref D3)
      (value LED)
      (footprint LED_THT:LED_D5.0mm_IRGrey)
      (datasheet ~)
      (libsource (lib Device) (part LED) (description "Light emitting diode"))
      (sheetpath (names /) (tstamps /))
      (tstamp 5F7BE395))
    (comp (ref C14)
      (value 100nF)
      (footprint Capacitor_SMD:C_1206_3216Metric)
      (datasheet ~)
      (libsource (lib Device) (part C) (description "Unpolarized capacitor"))
      (sheetpath (names /) (tstamps /))
      (tstamp 5FD62A20))
    (comp (ref L1)
      (value 74406043100)
      (footprint 0_74406043100:INDPM4848X280N)
      (datasheet https://katalog.we-online.de/pbs/datasheet/74406043100.pdf)
      (fields
        (field (name Description) "Fixed Inductors WE-LQFS 4828 10uH 1.77A 86mOhms")
        (field (name Height) 2.8)
        (field (name Manufacturer_Name) "Wurth Elektronik")
        (field (name Manufacturer_Part_Number) 74406043100)
        (field (name "Mouser Part Number") 710-74406043100)
        (field (name "Mouser Price/Stock") https://www.mouser.co.uk/ProductDetail/Wurth-Elektronik/74406043100?qs=h3%2Fj8evtlm3skzJES1%252BLdA%3D%3D))
      (libsource (lib 0_74406043100) (part 74406043100) (description "Fixed Inductors WE-LQFS 4828 10uH 1.77A 86mOhms"))
      (sheetpath (names /) (tstamps /))
      (tstamp 5FD98E1F))
    (comp (ref R1)
      (value 10k)
      (footprint Resistor_SMD:R_1206_3216Metric)
      (datasheet ~)
      (libsource (lib Device) (part R) (description Resistor))
      (sheetpath (names /) (tstamps /))
      (tstamp 5F827560))
    (comp (ref C16)
      (value 4.7µF)
      (footprint Capacitor_THT:CP_Radial_D4.0mm_P1.50mm)
      (datasheet ~)
      (libsource (lib Device) (part CP) (description "Polarized capacitor"))
      (sheetpath (names /) (tstamps /))
      (tstamp 5FE1B903))
    (comp (ref C15)
      (value 100nF)
      (footprint Capacitor_SMD:C_1206_3216Metric)
      (datasheet ~)
      (libsource (lib Device) (part C) (description "Unpolarized capacitor"))
      (sheetpath (names /) (tstamps /))
      (tstamp 5FE1B915))
    (comp (ref CR1)
      (value MBR0520-TP)
      (footprint 0_MBR0520-TP:MBR0520-TP)
      (libsource (lib 0_MBR0520-TP) (part MBR0520-TP) (description ""))
      (sheetpath (names /) (tstamps /))
      (tstamp 5FEC766A))
    (comp (ref U8)
      (value FT232RLREEL)
      (footprint 0_FT232RL:FT232RLREEL)
      (libsource (lib 0_FT232RL) (part FT232RLREEL) (description ""))
      (sheetpath (names /) (tstamps /))
      (tstamp 5F958B1B))
    (comp (ref J9)
      (value WP-Flash-OUT)
      (footprint Connector_PinHeader_2.00mm:PinHeader_1x02_P2.00mm_Vertical)
      (datasheet ~)
      (libsource (lib Connector) (part Conn_01x02_Male) (description "Generic connector, single row, 01x02, script generated (kicad-library-utils/schlib/autogen/connector/)"))
      (sheetpath (names /) (tstamps /))
      (tstamp 5FF0D653))
    (comp (ref J8)
      (value D+)
      (footprint Connector_PinHeader_2.00mm:PinHeader_1x02_P2.00mm_Vertical)
      (datasheet ~)
      (libsource (lib Connector) (part Conn_01x02_Male) (description "Generic connector, single row, 01x02, script generated (kicad-library-utils/schlib/autogen/connector/)"))
      (sheetpath (names /) (tstamps /))
      (tstamp 5FF16A7B))
    (comp (ref J12)
      (value LCD)
      (footprint Connector_PinHeader_2.54mm:PinHeader_1x06_P2.54mm_Vertical)
      (datasheet ~)
      (libsource (lib Connector) (part Conn_01x06_Male) (description "Generic connector, single row, 01x06, script generated (kicad-library-utils/schlib/autogen/connector/)"))
      (sheetpath (names /) (tstamps /))
      (tstamp 60026B0A))
    (comp (ref J13)
      (value TX-USB-D+)
      (footprint Connector_PinHeader_2.00mm:PinHeader_1x02_P2.00mm_Vertical)
      (datasheet ~)
      (libsource (lib Connector) (part Conn_01x02_Male) (description "Generic connector, single row, 01x02, script generated (kicad-library-utils/schlib/autogen/connector/)"))
      (sheetpath (names /) (tstamps /))
      (tstamp 5F9A4354))
    (comp (ref J18)
      (value "VCC & GND")
      (footprint Connector_PinHeader_2.00mm:PinHeader_1x02_P2.00mm_Vertical)
      (datasheet ~)
      (libsource (lib Connector) (part Conn_01x02_Male) (description "Generic connector, single row, 01x02, script generated (kicad-library-utils/schlib/autogen/connector/)"))
      (sheetpath (names /) (tstamps /))
      (tstamp 5F9A580B))
    (comp (ref J11)
      (value TX-USB-D-)
      (footprint Connector_PinHeader_2.00mm:PinHeader_1x02_P2.00mm_Vertical)
      (datasheet ~)
      (libsource (lib Connector) (part Conn_01x02_Male) (description "Generic connector, single row, 01x02, script generated (kicad-library-utils/schlib/autogen/connector/)"))
      (sheetpath (names /) (tstamps /))
      (tstamp 5F9A878C))
    (comp (ref J14)
      (value CE-Flash-OUT)
      (footprint Connector_PinHeader_2.00mm:PinHeader_1x02_P2.00mm_Vertical)
      (datasheet ~)
      (libsource (lib Connector) (part Conn_01x02_Male) (description "Generic connector, single row, 01x02, script generated (kicad-library-utils/schlib/autogen/connector/)"))
      (sheetpath (names /) (tstamps /))
      (tstamp 5F9D154D))
    (comp (ref J16)
      (value HOLD-Flash-OUT)
      (footprint Connector_PinHeader_2.00mm:PinHeader_1x02_P2.00mm_Vertical)
      (datasheet ~)
      (libsource (lib Connector) (part Conn_01x02_Male) (description "Generic connector, single row, 01x02, script generated (kicad-library-utils/schlib/autogen/connector/)"))
      (sheetpath (names /) (tstamps /))
      (tstamp 5F9E4A29))
    (comp (ref J15)
      (value SI-Flash-OUT)
      (footprint Connector_PinHeader_2.00mm:PinHeader_1x02_P2.00mm_Vertical)
      (datasheet ~)
      (libsource (lib Connector) (part Conn_01x02_Male) (description "Generic connector, single row, 01x02, script generated (kicad-library-utils/schlib/autogen/connector/)"))
      (sheetpath (names /) (tstamps /))
      (tstamp 5F9E7154))
    (comp (ref J17)
      (value SCK-Flash-OUT)
      (footprint Connector_PinHeader_2.00mm:PinHeader_1x02_P2.00mm_Vertical)
      (datasheet ~)
      (libsource (lib Connector) (part Conn_01x02_Male) (description "Generic connector, single row, 01x02, script generated (kicad-library-utils/schlib/autogen/connector/)"))
      (sheetpath (names /) (tstamps /))
      (tstamp 5F9E7CAA))
    (comp (ref J19)
      (value D-)
      (footprint Connector_PinHeader_2.00mm:PinHeader_1x02_P2.00mm_Vertical)
      (datasheet ~)
      (libsource (lib Connector) (part Conn_01x02_Male) (description "Generic connector, single row, 01x02, script generated (kicad-library-utils/schlib/autogen/connector/)"))
      (sheetpath (names /) (tstamps /))
      (tstamp 5FA1CE2C))
    (comp (ref R4)
      (value ?)
      (footprint Resistor_SMD:R_1206_3216Metric)
      (datasheet ~)
      (libsource (lib Device) (part R) (description Resistor))
      (sheetpath (names /) (tstamps /))
      (tstamp 5F9B317F))
    (comp (ref R2)
      (value ?)
      (footprint Resistor_SMD:R_1206_3216Metric)
      (datasheet ~)
      (libsource (lib Device) (part R) (description Resistor))
      (sheetpath (names /) (tstamps /))
      (tstamp 5F9B37B5))
    (comp (ref C17)
      (value 100nF)
      (footprint Capacitor_SMD:C_1206_3216Metric)
      (datasheet ~)
      (libsource (lib Device) (part C) (description "Unpolarized capacitor"))
      (sheetpath (names /) (tstamps /))
      (tstamp 5F9E022C))
    (comp (ref R16)
      (value 10k)
      (footprint Resistor_SMD:R_1206_3216Metric)
      (datasheet ~)
      (libsource (lib Device) (part R) (description Resistor))
      (sheetpath (names /) (tstamps /))
      (tstamp 5F9F4EA8))
    (comp (ref R15)
      (value 4k7)
      (footprint Resistor_SMD:R_1206_3216Metric)
      (datasheet ~)
      (libsource (lib Device) (part R) (description Resistor))
      (sheetpath (names /) (tstamps /))
      (tstamp 5F9FFEFE))
    (comp (ref D1)
      (value LED)
      (footprint LED_THT:LED_D5.0mm_IRGrey)
      (datasheet ~)
      (libsource (lib Device) (part LED) (description "Light emitting diode"))
      (sheetpath (names /) (tstamps /))
      (tstamp 5FA215A5))
    (comp (ref D2)
      (value LED)
      (footprint LED_THT:LED_D5.0mm_IRGrey)
      (datasheet ~)
      (libsource (lib Device) (part LED) (description "Light emitting diode"))
      (sheetpath (names /) (tstamps /))
      (tstamp 5FA60020))
    (comp (ref R3)
      (value ?)
      (footprint Resistor_SMD:R_1206_3216Metric)
      (datasheet ~)
      (libsource (lib Device) (part R) (description Resistor))
      (sheetpath (names /) (tstamps /))
      (tstamp 5FA6115C))
    (comp (ref R5)
      (value ?)
      (footprint Resistor_SMD:R_1206_3216Metric)
      (datasheet ~)
      (libsource (lib Device) (part R) (description Resistor))
      (sheetpath (names /) (tstamps /))
      (tstamp 5FA61A61))
    (comp (ref U6)
      (value SN74LVC1T45DBVR)
      (footprint 0_SN74LVC1T45DBVR:SN74LVC1T45DBVR)
      (libsource (lib 0_SN74LVC1T45DBVR) (part SN74LVC1T45DBVR) (description ""))
      (sheetpath (names /) (tstamps /))
      (tstamp 5FAF71C7))
    (comp (ref J22)
      (value Conn_01x03_Male)
      (footprint Jumper:SolderJumper-3_P1.3mm_Open_RoundedPad1.0x1.5mm)
      (datasheet ~)
      (libsource (lib Connector) (part Conn_01x03_Male) (description "Generic connector, single row, 01x03, script generated (kicad-library-utils/schlib/autogen/connector/)"))
      (sheetpath (names /) (tstamps /))
      (tstamp 5FB82BE4))
    (comp (ref U2)
      (value SN74LVC1T45DBVR)
      (footprint 0_SN74LVC1T45DBVR:SN74LVC1T45DBVR)
      (libsource (lib 0_SN74LVC1T45DBVR) (part SN74LVC1T45DBVR) (description ""))
      (sheetpath (names /) (tstamps /))
      (tstamp 5FBDE387))
    (comp (ref J21)
      (value Conn_01x03_Male)
      (footprint Jumper:SolderJumper-3_P1.3mm_Open_RoundedPad1.0x1.5mm)
      (datasheet ~)
      (libsource (lib Connector) (part Conn_01x03_Male) (description "Generic connector, single row, 01x03, script generated (kicad-library-utils/schlib/autogen/connector/)"))
      (sheetpath (names /) (tstamps /))
      (tstamp 5FBDE394))
    (comp (ref U11)
      (value SN74LVC1T45DBVR)
      (footprint 0_SN74LVC1T45DBVR:SN74LVC1T45DBVR)
      (libsource (lib 0_SN74LVC1T45DBVR) (part SN74LVC1T45DBVR) (description ""))
      (sheetpath (names /) (tstamps /))
      (tstamp 5FC051EF))
    (comp (ref J26)
      (value Conn_01x03_Male)
      (footprint Jumper:SolderJumper-3_P1.3mm_Open_RoundedPad1.0x1.5mm)
      (datasheet ~)
      (libsource (lib Connector) (part Conn_01x03_Male) (description "Generic connector, single row, 01x03, script generated (kicad-library-utils/schlib/autogen/connector/)"))
      (sheetpath (names /) (tstamps /))
      (tstamp 5FC051FC))
    (comp (ref U9)
      (value SN74LVC1T45DBVR)
      (footprint 0_SN74LVC1T45DBVR:SN74LVC1T45DBVR)
      (libsource (lib 0_SN74LVC1T45DBVR) (part SN74LVC1T45DBVR) (description ""))
      (sheetpath (names /) (tstamps /))
      (tstamp 5FC11905))
    (comp (ref J24)
      (value Conn_01x03_Male)
      (footprint Jumper:SolderJumper-3_P1.3mm_Open_RoundedPad1.0x1.5mm)
      (datasheet ~)
      (libsource (lib Connector) (part Conn_01x03_Male) (description "Generic connector, single row, 01x03, script generated (kicad-library-utils/schlib/autogen/connector/)"))
      (sheetpath (names /) (tstamps /))
      (tstamp 5FC11912))
    (comp (ref J23)
      (value SO-Flash-IN)
      (footprint Connector_PinHeader_2.00mm:PinHeader_1x02_P2.00mm_Vertical)
      (datasheet ~)
      (libsource (lib Connector) (part Conn_01x02_Male) (description "Generic connector, single row, 01x02, script generated (kicad-library-utils/schlib/autogen/connector/)"))
      (sheetpath (names /) (tstamps /))
      (tstamp 5FD37F54))
    (comp (ref U10)
      (value SN74LVC1T45DBVR)
      (footprint 0_SN74LVC1T45DBVR:SN74LVC1T45DBVR)
      (libsource (lib 0_SN74LVC1T45DBVR) (part SN74LVC1T45DBVR) (description ""))
      (sheetpath (names /) (tstamps /))
      (tstamp 5FD47F1F))
    (comp (ref J25)
      (value Conn_01x03_Male)
      (footprint Jumper:SolderJumper-3_P1.3mm_Open_RoundedPad1.0x1.5mm)
      (datasheet ~)
      (libsource (lib Connector) (part Conn_01x03_Male) (description "Generic connector, single row, 01x03, script generated (kicad-library-utils/schlib/autogen/connector/)"))
      (sheetpath (names /) (tstamps /))
      (tstamp 5FD47F2C))
    (comp (ref U1)
      (value SN74LVC1T45DBVR)
      (footprint 0_SN74LVC1T45DBVR:SN74LVC1T45DBVR)
      (libsource (lib 0_SN74LVC1T45DBVR) (part SN74LVC1T45DBVR) (description ""))
      (sheetpath (names /) (tstamps /))
      (tstamp 5FD670CF))
    (comp (ref J20)
      (value Conn_01x03_Male)
      (footprint Jumper:SolderJumper-3_P1.3mm_Open_RoundedPad1.0x1.5mm)
      (datasheet ~)
      (libsource (lib Connector) (part Conn_01x03_Male) (description "Generic connector, single row, 01x03, script generated (kicad-library-utils/schlib/autogen/connector/)"))
      (sheetpath (names /) (tstamps /))
      (tstamp 5FD670DC))
    (comp (ref C19)
      (value ?)
      (footprint Capacitor_SMD:C_1206_3216Metric)
      (datasheet ~)
      (libsource (lib Device) (part C) (description "Unpolarized capacitor"))
      (sheetpath (names /) (tstamps /))
      (tstamp 5FA9F5F6))
    (comp (ref R13)
      (value ?)
      (footprint Resistor_SMD:R_1206_3216Metric)
      (datasheet ~)
      (libsource (lib Device) (part R) (description Resistor))
      (sheetpath (names /) (tstamps /))
      (tstamp 5FAA065E))
    (comp (ref C18)
      (value 100µF)
      (footprint Capacitor_THT:CP_Radial_D4.0mm_P1.50mm)
      (datasheet ~)
      (libsource (lib Device) (part CP) (description "Polarized capacitor"))
      (sheetpath (names /) (tstamps /))
      (tstamp 5FAC2089))
    (comp (ref Jmp1)
      (value "Zellen, Stepup")
      (footprint Connector_PinHeader_2.00mm:PinHeader_1x02_P2.00mm_Vertical)
      (datasheet ~)
      (libsource (lib Connector) (part Conn_01x02_Male) (description "Generic connector, single row, 01x02, script generated (kicad-library-utils/schlib/autogen/connector/)"))
      (sheetpath (names /) (tstamps /))
      (tstamp 5FACF64B))
    (comp (ref D6)
      (value LED)
      (footprint LED_THT:LED_D5.0mm_IRGrey)
      (datasheet ~)
      (libsource (lib Device) (part LED) (description "Light emitting diode"))
      (sheetpath (names /) (tstamps /))
      (tstamp 5FAEFA55))
    (comp (ref R14)
      (value 470R)
      (footprint Resistor_SMD:R_1206_3216Metric)
      (datasheet ~)
      (libsource (lib Device) (part R) (description Resistor))
      (sheetpath (names /) (tstamps /))
      (tstamp 5FAEFF49))
    (comp (ref J28)
      (value FreiePins)
      (footprint Connector_PinHeader_2.00mm:PinHeader_1x02_P2.00mm_Vertical)
      (datasheet ~)
      (libsource (lib Connector) (part Conn_01x02_Male) (description "Generic connector, single row, 01x02, script generated (kicad-library-utils/schlib/autogen/connector/)"))
      (sheetpath (names /) (tstamps /))
      (tstamp 5FAF1F89))
    (comp (ref J27)
      (value FreierPin)
      (footprint Connector_PinHeader_2.00mm:PinHeader_1x01_P2.00mm_Vertical)
      (datasheet ~)
      (libsource (lib Connector) (part Conn_01x01_Male) (description "Generic connector, single row, 01x01, script generated (kicad-library-utils/schlib/autogen/connector/)"))
      (sheetpath (names /) (tstamps /))
      (tstamp 5FB2D986))
    (comp (ref C20)
      (value 200pF)
      (footprint Capacitor_SMD:C_1206_3216Metric)
      (datasheet ~)
      (libsource (lib Device) (part C) (description "Unpolarized capacitor"))
      (sheetpath (names /) (tstamps /))
      (tstamp 5FB9FF37)))
  (libparts
    (libpart (lib 0_74406043100) (part 74406043100)
      (description "Fixed Inductors WE-LQFS 4828 10uH 1.77A 86mOhms")
      (docs https://katalog.we-online.de/pbs/datasheet/74406043100.pdf)
      (fields
        (field (name Reference) L)
        (field (name Value) 74406043100)
        (field (name Footprint) INDPM4848X280N)
        (field (name Datasheet) https://katalog.we-online.de/pbs/datasheet/74406043100.pdf)
        (field (name Description) "Fixed Inductors WE-LQFS 4828 10uH 1.77A 86mOhms")
        (field (name Height) 2.8)
        (field (name Manufacturer_Name) "Wurth Elektronik")
        (field (name Manufacturer_Part_Number) 74406043100)
        (field (name "Mouser Part Number") 710-74406043100)
        (field (name "Mouser Price/Stock") https://www.mouser.co.uk/ProductDetail/Wurth-Elektronik/74406043100?qs=h3%2Fj8evtlm3skzJES1%252BLdA%3D%3D))
      (pins
        (pin (num 1) (name ~) (type passive))
        (pin (num 2) (name ~) (type passive))))
    (libpart (lib 0_ATMEGA328PB-AU) (part ATMEGA328PB-AUR)
      (footprints
        (fp 32A_MCH)
        (fp 32A_MCH-M)
        (fp 32A_MCH-L))
      (fields
        (field (name Reference) U)
        (field (name Value) ATMEGA328PB-AUR)
        (field (name Footprint) 32A_MCH))
      (pins
        (pin (num 1) (name PCINT19/OC2B/INT1PD3) (type BiDi))
        (pin (num 2) (name PCINT20/XCK/T0PD4) (type BiDi))
        (pin (num 3) (name GND) (type power_in))
        (pin (num 4) (name VCC) (type power_in))
        (pin (num 5) (name GND) (type power_in))
        (pin (num 6) (name VCC) (type power_in))
        (pin (num 7) (name PCINT6/XTAL1/TOSC1PB6) (type BiDi))
        (pin (num 8) (name PCINT7/XTAL2/TOSC2PB7) (type BiDi))
        (pin (num 9) (name PCINT21/OC0B/T1PD5) (type BiDi))
        (pin (num 10) (name PCINT22/OC0A/AIN0PD6) (type BiDi))
        (pin (num 11) (name PCINT23/AIN1PD7) (type BiDi))
        (pin (num 12) (name PCINT0/CLKO/ICP1PB0) (type BiDi))
        (pin (num 13) (name PCINT1/OC1APB1) (type BiDi))
        (pin (num 14) (name PCINT2/SS/OC1BPB2) (type BiDi))
        (pin (num 15) (name PCINT3/OC2A/MOSIPB3) (type BiDi))
        (pin (num 16) (name PCINT4/MISOPB4) (type BiDi))
        (pin (num 17) (name PB5SCK/PCINT5) (type BiDi))
        (pin (num 18) (name AVCC) (type power_in))
        (pin (num 19) (name ADC6) (type input))
        (pin (num 20) (name AREF) (type unspc))
        (pin (num 21) (name GND) (type power_in))
        (pin (num 22) (name ADC7) (type input))
        (pin (num 23) (name PC0ADC0/PCINT8) (type BiDi))
        (pin (num 24) (name PC1ADC1/PCINT9) (type BiDi))
        (pin (num 25) (name PC2ADC2/PCINT10) (type BiDi))
        (pin (num 26) (name PC3ADC3/PCINT11) (type BiDi))
        (pin (num 27) (name PC4ADC4/SDA/PCINT12) (type BiDi))
        (pin (num 28) (name PC5ADC5/SCL/PCINT13) (type BiDi))
        (pin (num 29) (name PC6RESET/PCINT14) (type BiDi))
        (pin (num 30) (name PD0RXD/PCINT16) (type BiDi))
        (pin (num 31) (name PD1TXD/PCINT17) (type BiDi))
        (pin (num 32) (name PD2INT0/PCINT18) (type BiDi))))
    (libpart (lib 0_FT232RL) (part FT232RLREEL)
      (footprints
        (fp SSOP-28_FTD)
        (fp SSOP-28_FTD-M)
        (fp SSOP-28_FTD-L))
      (fields
        (field (name Reference) U)
        (field (name Value) FT232RLREEL)
        (field (name Footprint) SSOP-28_FTD))
      (pins
        (pin (num 1) (name TXD) (type output))
        (pin (num 2) (name DTR#) (type output))
        (pin (num 3) (name RTS#) (type output))
        (pin (num 4) (name VCCIO) (type power_in))
        (pin (num 5) (name RXD) (type input))
        (pin (num 6) (name RI#) (type input))
        (pin (num 7) (name GND) (type power_in))
        (pin (num 8) (name NC) (type NotConnected))
        (pin (num 9) (name DSR#) (type input))
        (pin (num 10) (name DCD#) (type input))
        (pin (num 11) (name CTS#) (type input))
        (pin (num 12) (name CBUS4) (type BiDi))
        (pin (num 13) (name CBUS2) (type BiDi))
        (pin (num 14) (name CBUS3) (type BiDi))
        (pin (num 15) (name USBDP) (type BiDi))
        (pin (num 16) (name USBDM) (type BiDi))
        (pin (num 17) (name 3V3OUT) (type output))
        (pin (num 18) (name GND) (type power_in))
        (pin (num 19) (name RESET#) (type input))
        (pin (num 20) (name VCC) (type power_in))
        (pin (num 21) (name GND) (type power_in))
        (pin (num 22) (name CBUS1) (type BiDi))
        (pin (num 23) (name CBUS0) (type BiDi))
        (pin (num 24) (name NC) (type NotConnected))
        (pin (num 25) (name AGND) (type power_in))
        (pin (num 26) (name TEST) (type input))
        (pin (num 27) (name OSCI) (type input))
        (pin (num 28) (name OSCO) (type output))))
    (libpart (lib 0_LT1302CN85#PBF) (part LT1302CN8-5-PBF)
      (footprints
        (fp PDIP-8_N_LIT))
      (fields
        (field (name Reference) U)
        (field (name Value) LT1302CN8-5-PBF)
        (field (name Footprint) PDIP-8_N_LIT))
      (pins
        (pin (num 1) (name GND) (type power_in))
        (pin (num 2) (name VC) (type unspc))
        (pin (num 3) (name SHDN) (type unspc))
        (pin (num 4) (name FBSENSE) (type unspc))
        (pin (num 5) (name IT) (type unspc))
        (pin (num 6) (name VIN) (type input))
        (pin (num 7) (name SW) (type unspc))
        (pin (num 8) (name PGND) (type power_in))))
    (libpart (lib 0_MBR0520-TP) (part MBR0520-TP)
      (footprints
        (fp DIODE_SOD123_2P7X1P6_MCC)
        (fp DIODE_SOD123_2P7X1P6_MCC-M)
        (fp DIODE_SOD123_2P7X1P6_MCC-L))
      (fields
        (field (name Reference) CR)
        (field (name Value) MBR0520-TP)
        (field (name Footprint) DIODE_SOD123_2P7X1P6_MCC))
      (pins
        (pin (num 1) (name 1) (type unspc))
        (pin (num 2) (name 2) (type unspc))))
    (libpart (lib 0_MCP73833) (part MCP73833T-FCI_MF)
      (footprints
        (fp DFN10_3x3MC_MCH)
        (fp DFN10_3x3MC_MCH-M)
        (fp DFN10_3x3MC_MCH-L))
      (fields
        (field (name Reference) U)
        (field (name Value) MCP73833T-FCI_MF)
        (field (name Footprint) DFN10_3x3MC_MCH))
      (pins
        (pin (num 1) (name VDD) (type unspc))
        (pin (num 2) (name VDD) (type unspc))
        (pin (num 3) (name STAT1) (type unspc))
        (pin (num 4) (name STAT2) (type unspc))
        (pin (num 5) (name VSS) (type unspc))
        (pin (num 6) (name PROG) (type unspc))
        (pin (num 7) (name *PG) (type unspc))
        (pin (num 8) (name THERM) (type unspc))
        (pin (num 9) (name VBAT) (type unspc))
        (pin (num 10) (name VBAT) (type unspc))
        (pin (num 11) (name EP) (type unspc))))
    (libpart (lib 0_Micro_USB) (part 10118192-0002LF)
      (footprints
        (fp CONN_10118192-0002LF_AMP))
      (fields
        (field (name Reference) J)
        (field (name Value) 10118192-0002LF)
        (field (name Footprint) CONN_10118192-0002LF_AMP))
      (pins
        (pin (num 1) (name 1) (type unspc))
        (pin (num 2) (name 2) (type unspc))
        (pin (num 3) (name 3) (type unspc))
        (pin (num 4) (name 4) (type unspc))
        (pin (num 5) (name 5) (type unspc))))
    (libpart (lib 0_SN74LVC1T45DBVR) (part SN74LVC1T45DBVR)
      (footprints
        (fp DBV0006A_N)
        (fp DBV0006A_M)
        (fp DBV0006A_L))
      (fields
        (field (name Reference) U)
        (field (name Value) SN74LVC1T45DBVR)
        (field (name Footprint) DBV0006A_N))
      (pins
        (pin (num 1) (name VCCA) (type power_in))
        (pin (num 2) (name GND) (type power_in))
        (pin (num 3) (name A) (type BiDi))
        (pin (num 4) (name B) (type BiDi))
        (pin (num 5) (name DIR) (type input))
        (pin (num 6) (name VCCB) (type power_in))))
    (libpart (lib 0_SST26VF064B-104I/SM) (part SST26VF064B-104I_SM)
      (footprints
        (fp SOIJ8_SM_MCH)
        (fp SOIJ8_SM_MCH-M)
        (fp SOIJ8_SM_MCH-L))
      (fields
        (field (name Reference) U)
        (field (name Value) SST26VF064B-104I_SM)
        (field (name Footprint) SOIJ8_SM_MCH))
      (pins
        (pin (num 1) (name CE#) (type input))
        (pin (num 2) (name SO/SIO1) (type BiDi))
        (pin (num 3) (name WP#/SIO2) (type BiDi))
        (pin (num 4) (name VSS) (type power_in))
        (pin (num 5) (name SI/SIO0) (type BiDi))
        (pin (num 6) (name SCK) (type unspc))
        (pin (num 7) (name HOLD/SIO3) (type BiDi))
        (pin (num 8) (name VDD) (type power_in))))
    (libpart (lib Connector) (part AVR-ISP-6)
      (description "Atmel 6-pin ISP connector")
      (docs " ~")
      (footprints
        (fp IDC?Header*2x03*)
        (fp Pin?Header*2x03*))
      (fields
        (field (name Reference) J)
        (field (name Value) AVR-ISP-6))
      (pins
        (pin (num 1) (name MISO) (type passive))
        (pin (num 2) (name VCC) (type power_in))
        (pin (num 3) (name SCK) (type passive))
        (pin (num 4) (name MOSI) (type passive))
        (pin (num 5) (name ~RST) (type passive))
        (pin (num 6) (name GND) (type power_in))))
    (libpart (lib Connector) (part Conn_01x01_Male)
      (description "Generic connector, single row, 01x01, script generated (kicad-library-utils/schlib/autogen/connector/)")
      (docs ~)
      (footprints
        (fp Connector*:*))
      (fields
        (field (name Reference) J)
        (field (name Value) Conn_01x01_Male))
      (pins
        (pin (num 1) (name Pin_1) (type passive))))
    (libpart (lib Connector) (part Conn_01x02_Male)
      (description "Generic connector, single row, 01x02, script generated (kicad-library-utils/schlib/autogen/connector/)")
      (docs ~)
      (footprints
        (fp Connector*:*_1x??_*))
      (fields
        (field (name Reference) J)
        (field (name Value) Conn_01x02_Male))
      (pins
        (pin (num 1) (name Pin_1) (type passive))
        (pin (num 2) (name Pin_2) (type passive))))
    (libpart (lib Connector) (part Conn_01x03_Male)
      (description "Generic connector, single row, 01x03, script generated (kicad-library-utils/schlib/autogen/connector/)")
      (docs ~)
      (footprints
        (fp Connector*:*_1x??_*))
      (fields
        (field (name Reference) J)
        (field (name Value) Conn_01x03_Male))
      (pins
        (pin (num 1) (name Pin_1) (type passive))
        (pin (num 2) (name Pin_2) (type passive))
        (pin (num 3) (name Pin_3) (type passive))))
    (libpart (lib Connector) (part Conn_01x06_Female)
      (description "Generic connector, single row, 01x06, script generated (kicad-library-utils/schlib/autogen/connector/)")
      (docs ~)
      (footprints
        (fp Connector*:*_1x??_*))
      (fields
        (field (name Reference) J)
        (field (name Value) Conn_01x06_Female))
      (pins
        (pin (num 1) (name Pin_1) (type passive))
        (pin (num 2) (name Pin_2) (type passive))
        (pin (num 3) (name Pin_3) (type passive))
        (pin (num 4) (name Pin_4) (type passive))
        (pin (num 5) (name Pin_5) (type passive))
        (pin (num 6) (name Pin_6) (type passive))))
    (libpart (lib Connector) (part Conn_01x06_Male)
      (description "Generic connector, single row, 01x06, script generated (kicad-library-utils/schlib/autogen/connector/)")
      (docs ~)
      (footprints
        (fp Connector*:*_1x??_*))
      (fields
        (field (name Reference) J)
        (field (name Value) Conn_01x06_Male))
      (pins
        (pin (num 1) (name Pin_1) (type passive))
        (pin (num 2) (name Pin_2) (type passive))
        (pin (num 3) (name Pin_3) (type passive))
        (pin (num 4) (name Pin_4) (type passive))
        (pin (num 5) (name Pin_5) (type passive))
        (pin (num 6) (name Pin_6) (type passive))))
    (libpart (lib Connector_Generic) (part Conn_01x02)
      (description "Generic connector, single row, 01x02, script generated (kicad-library-utils/schlib/autogen/connector/)")
      (docs ~)
      (footprints
        (fp Connector*:*_1x??_*))
      (fields
        (field (name Reference) J)
        (field (name Value) Conn_01x02))
      (pins
        (pin (num 1) (name Pin_1) (type passive))
        (pin (num 2) (name Pin_2) (type passive))))
    (libpart (lib Device) (part C)
      (description "Unpolarized capacitor")
      (docs ~)
      (footprints
        (fp C_*))
      (fields
        (field (name Reference) C)
        (field (name Value) C))
      (pins
        (pin (num 1) (name ~) (type passive))
        (pin (num 2) (name ~) (type passive))))
    (libpart (lib Device) (part CP)
      (description "Polarized capacitor")
      (docs ~)
      (footprints
        (fp CP_*))
      (fields
        (field (name Reference) C)
        (field (name Value) CP))
      (pins
        (pin (num 1) (name ~) (type passive))
        (pin (num 2) (name ~) (type passive))))
    (libpart (lib Device) (part Crystal)
      (description "Two pin crystal")
      (docs ~)
      (footprints
        (fp Crystal*))
      (fields
        (field (name Reference) Y)
        (field (name Value) Crystal))
      (pins
        (pin (num 1) (name 1) (type passive))
        (pin (num 2) (name 2) (type passive))))
    (libpart (lib Device) (part LED)
      (description "Light emitting diode")
      (docs ~)
      (footprints
        (fp LED*)
        (fp LED_SMD:*)
        (fp LED_THT:*))
      (fields
        (field (name Reference) D)
        (field (name Value) LED))
      (pins
        (pin (num 1) (name K) (type passive))
        (pin (num 2) (name A) (type passive))))
    (libpart (lib Device) (part R)
      (description Resistor)
      (docs ~)
      (footprints
        (fp R_*))
      (fields
        (field (name Reference) R)
        (field (name Value) R))
      (pins
        (pin (num 1) (name ~) (type passive))
        (pin (num 2) (name ~) (type passive))))
    (libpart (lib Device) (part Thermistor_PTC)
      (description "Temperature dependent resistor, positive temperature coefficient")
      (docs ~)
      (footprints
        (fp *PTC*)
        (fp *Thermistor*)
        (fp PIN?ARRAY*)
        (fp bornier*)
        (fp *Terminal?Block*))
      (fields
        (field (name Reference) TH)
        (field (name Value) Thermistor_PTC))
      (pins
        (pin (num 1) (name ~) (type passive))
        (pin (num 2) (name ~) (type passive))))
    (libpart (lib Switch) (part SW_Push)
      (description "Push button switch, generic, two pins")
      (docs ~)
      (fields
        (field (name Reference) SW)
        (field (name Value) SW_Push))
      (pins
        (pin (num 1) (name 1) (type passive))
        (pin (num 2) (name 2) (type passive)))))
  (libraries
    (library (logical 0_74406043100)
      (uri "C:/Program Files/KiCad/share/kicad/lib_Geo_Logger/SamacSys_Parts.lib"))
    (library (logical 0_ATMEGA328PB-AU)
      (uri "C:/Program Files/KiCad/share/kicad/lib_Geo_Logger/ul_ATMEGA328PBAUR/KiCAD/2020-10-20_15-15-39/2020-10-20_15-15-39.lib"))
    (library (logical 0_FT232RL)
      (uri "C:/Program Files/KiCad/share/kicad/lib_Geo_Logger/ul_FT232RLREEL/KiCAD/2020-10-20_14-50-53/2020-10-20_14-50-53.lib"))
    (library (logical 0_LT1302CN85#PBF)
      (uri "C:/Program Files/KiCad/share/kicad/lib_Geo_Logger/ul_LT1302CN85PBF/KiCAD/2020-10-20_14-54-21/2020-10-20_14-54-21.lib"))
    (library (logical 0_MBR0520-TP)
      (uri "C:/Program Files/KiCad/share/kicad/lib_Geo_Logger/ul_MBR0520TP/KiCAD/2020-10-21_11-59-29/2020-10-21_11-59-29.lib"))
    (library (logical 0_MCP73833)
      (uri "C:/Program Files/KiCad/share/kicad/lib_Geo_Logger/ul_MCP73833TFCIMF/KiCAD/2020-10-19_12-20-27/2020-10-19_12-20-27.lib"))
    (library (logical 0_Micro_USB)
      (uri "C:/Program Files/KiCad/share/kicad/lib_Geo_Logger/ul_101181920002LF/KiCAD/2020-10-19_12-19-30/2020-10-19_12-19-30.lib"))
    (library (logical 0_SN74LVC1T45DBVR)
      (uri "C:/Program Files/KiCad/share/kicad/lib_Geo_Logger/ul_SN74LVC1T45DBVR/KiCAD/2020-10-29_08-51-37/2020-10-29_08-51-37.lib"))
    (library (logical 0_SST26VF064B-104I/SM)
      (uri "C:/Program Files/KiCad/share/kicad/lib_Geo_Logger/ul_SST26VF064B104ISM/KiCAD/2020-10-20_14-59-45/2020-10-20_14-59-45.lib"))
    (library (logical Connector)
      (uri "C:\\Program Files\\KiCad\\share\\kicad\\library/Connector.lib"))
    (library (logical Connector_Generic)
      (uri "C:\\Program Files\\KiCad\\share\\kicad\\library/Connector_Generic.lib"))
    (library (logical Device)
      (uri "C:\\Program Files\\KiCad\\share\\kicad\\library/Device.lib"))
    (library (logical Switch)
      (uri "C:\\Program Files\\KiCad\\share\\kicad\\library/Switch.lib")))
  (nets
    (net (code 1) (name "Net-(C2-Pad1)")
      (node (ref U7) (pin 7))
      (node (ref Y1) (pin 1))
      (node (ref C2) (pin 1)))
    (net (code 2) (name "Net-(J12-Pad5)")
      (node (ref U7) (pin 11))
      (node (ref J12) (pin 5)))
    (net (code 3) (name "Net-(J12-Pad4)")
      (node (ref U7) (pin 10))
      (node (ref J12) (pin 4)))
    (net (code 4) (name "Net-(J12-Pad3)")
      (node (ref J12) (pin 3))
      (node (ref U7) (pin 9)))
    (net (code 5) (name "Net-(C3-Pad1)")
      (node (ref U7) (pin 8))
      (node (ref Y1) (pin 2))
      (node (ref C3) (pin 1)))
    (net (code 6) (name D+)
      (node (ref J1) (pin 3))
      (node (ref J8) (pin 2)))
    (net (code 7) (name D-)
      (node (ref J19) (pin 2))
      (node (ref J1) (pin 2)))
    (net (code 8) (name "Net-(J13-Pad1)")
      (node (ref J13) (pin 1))
      (node (ref U8) (pin 1)))
    (net (code 9) (name TXD-USB-W)
      (node (ref J13) (pin 2))
      (node (ref U7) (pin 30)))
    (net (code 10) (name VCC)
      (node (ref R1) (pin 2))
      (node (ref C6) (pin 1))
      (node (ref C7) (pin 1))
      (node (ref C8) (pin 1))
      (node (ref U6) (pin 1))
      (node (ref U8) (pin 4))
      (node (ref J20) (pin 3))
      (node (ref J10) (pin 2))
      (node (ref J26) (pin 3))
      (node (ref VCC1) (pin 1))
      (node (ref U2) (pin 1))
      (node (ref U8) (pin 20))
      (node (ref J22) (pin 3))
      (node (ref C16) (pin 1))
      (node (ref U1) (pin 1))
      (node (ref D2) (pin 2))
      (node (ref C5) (pin 1))
      (node (ref C15) (pin 1))
      (node (ref U11) (pin 1))
      (node (ref U10) (pin 1))
      (node (ref C17) (pin 1))
      (node (ref U7) (pin 18))
      (node (ref J6) (pin 1))
      (node (ref J25) (pin 3))
      (node (ref U7) (pin 4))
      (node (ref U7) (pin 6))
      (node (ref J18) (pin 1))
      (node (ref U9) (pin 1))
      (node (ref J24) (pin 3))
      (node (ref D1) (pin 2))
      (node (ref J21) (pin 3)))
    (net (code 11) (name GND)
      (node (ref J1) (pin 5))
      (node (ref C18) (pin 2))
      (node (ref C19) (pin 1))
      (node (ref C20) (pin 2))
      (node (ref C1) (pin 2))
      (node (ref R14) (pin 1))
      (node (ref J24) (pin 1))
      (node (ref J21) (pin 1))
      (node (ref U11) (pin 2))
      (node (ref J26) (pin 1))
      (node (ref U7) (pin 21))
      (node (ref U5) (pin 4))
      (node (ref U7) (pin 3))
      (node (ref U7) (pin 5))
      (node (ref U2) (pin 2))
      (node (ref C2) (pin 2))
      (node (ref C4) (pin 2))
      (node (ref SW1) (pin 1))
      (node (ref J22) (pin 1))
      (node (ref C3) (pin 2))
      (node (ref C5) (pin 2))
      (node (ref C8) (pin 2))
      (node (ref C7) (pin 2))
      (node (ref C6) (pin 2))
      (node (ref U6) (pin 2))
      (node (ref U9) (pin 2))
      (node (ref J10) (pin 6))
      (node (ref C17) (pin 2))
      (node (ref C9) (pin 2))
      (node (ref U8) (pin 7))
      (node (ref C16) (pin 2))
      (node (ref U4) (pin 8))
      (node (ref U4) (pin 3))
      (node (ref U4) (pin 1))
      (node (ref C15) (pin 2))
      (node (ref C10) (pin 2))
      (node (ref LiIon-Zellen1) (pin 2))
      (node (ref U3) (pin 11))
      (node (ref U3) (pin 5))
      (node (ref R10) (pin 2))
      (node (ref C11) (pin 2))
      (node (ref C12) (pin 2))
      (node (ref U1) (pin 2))
      (node (ref J20) (pin 1))
      (node (ref U10) (pin 2))
      (node (ref R16) (pin 2))
      (node (ref J18) (pin 2))
      (node (ref J6) (pin 3))
      (node (ref J6) (pin 2))
      (node (ref J25) (pin 1))
      (node (ref U8) (pin 18))
      (node (ref U8) (pin 21))
      (node (ref C14) (pin 2))
      (node (ref U8) (pin 25))
      (node (ref U8) (pin 26))
      (node (ref R12) (pin 1))
      (node (ref C13) (pin 2)))
    (net (code 12) (name "Net-(U8-Pad3)")
      (node (ref U8) (pin 3)))
    (net (code 13) (name GNSS-RX-TX)
      (node (ref U7) (pin 15))
      (node (ref J4) (pin 2))
      (node (ref J10) (pin 4)))
    (net (code 14) (name GNSS-TX-RX)
      (node (ref U7) (pin 16))
      (node (ref J3) (pin 1))
      (node (ref J10) (pin 1)))
    (net (code 15) (name "Net-(J12-Pad2)")
      (node (ref J12) (pin 2))
      (node (ref U7) (pin 2)))
    (net (code 16) (name "Net-(J12-Pad1)")
      (node (ref U7) (pin 1))
      (node (ref J12) (pin 1)))
    (net (code 17) (name "Net-(J12-Pad6)")
      (node (ref J12) (pin 6))
      (node (ref U7) (pin 12)))
    (net (code 18) (name "Net-(R2-Pad1)")
      (node (ref U8) (pin 16))
      (node (ref R2) (pin 1)))
    (net (code 19) (name "Net-(J8-Pad1)")
      (node (ref R4) (pin 2))
      (node (ref J8) (pin 1)))
    (net (code 20) (name Vin)
      (node (ref J1) (pin 1))
      (node (ref R15) (pin 1))
      (node (ref J5) (pin 2)))
    (net (code 21) (name "Net-(R15-Pad2)")
      (node (ref U8) (pin 19))
      (node (ref R15) (pin 2))
      (node (ref R16) (pin 1)))
    (net (code 22) (name "Net-(J17-Pad1)")
      (node (ref U5) (pin 6))
      (node (ref J17) (pin 1)))
    (net (code 23) (name "Net-(J11-Pad1)")
      (node (ref J11) (pin 1))
      (node (ref U8) (pin 5)))
    (net (code 24) (name RXD-USB-W)
      (node (ref U7) (pin 31))
      (node (ref J11) (pin 2)))
    (net (code 25) (name CE-Flash-OUT)
      (node (ref U6) (pin 3))
      (node (ref J14) (pin 1)))
    (net (code 26) (name "Net-(J14-Pad2)")
      (node (ref J14) (pin 2))
      (node (ref U5) (pin 1)))
    (net (code 27) (name "Net-(J9-Pad2)")
      (node (ref U5) (pin 3))
      (node (ref J9) (pin 2)))
    (net (code 28) (name HOLD-Flash-OUT)
      (node (ref U11) (pin 3))
      (node (ref J16) (pin 1)))
    (net (code 29) (name "Net-(J16-Pad2)")
      (node (ref U5) (pin 7))
      (node (ref J16) (pin 2)))
    (net (code 30) (name "Net-(J15-Pad1)")
      (node (ref U5) (pin 5))
      (node (ref J15) (pin 1)))
    (net (code 31) (name SI-Flash-OUT)
      (node (ref U10) (pin 3))
      (node (ref J15) (pin 2)))
    (net (code 32) (name "Net-(U8-Pad2)")
      (node (ref U8) (pin 2)))
    (net (code 33) (name SCK-Flash-OUT)
      (node (ref U9) (pin 3))
      (node (ref J17) (pin 2)))
    (net (code 34) (name "Net-(J19-Pad1)")
      (node (ref R2) (pin 2))
      (node (ref J19) (pin 1)))
    (net (code 35) (name "Net-(R4-Pad1)")
      (node (ref R4) (pin 1))
      (node (ref U8) (pin 15)))
    (net (code 36) (name "Net-(U8-Pad28)")
      (node (ref U8) (pin 28)))
    (net (code 37) (name "Net-(U8-Pad27)")
      (node (ref U8) (pin 27)))
    (net (code 38) (name "Net-(U8-Pad6)")
      (node (ref U8) (pin 6)))
    (net (code 39) (name "Net-(U8-Pad8)")
      (node (ref U8) (pin 8)))
    (net (code 40) (name "Net-(U8-Pad9)")
      (node (ref U8) (pin 9)))
    (net (code 41) (name "Net-(U8-Pad10)")
      (node (ref U8) (pin 10)))
    (net (code 42) (name "Net-(U8-Pad11)")
      (node (ref U8) (pin 11)))
    (net (code 43) (name "Net-(U8-Pad14)")
      (node (ref U8) (pin 14)))
    (net (code 44) (name "Net-(U8-Pad13)")
      (node (ref U8) (pin 13)))
    (net (code 45) (name "Net-(U8-Pad12)")
      (node (ref U8) (pin 12)))
    (net (code 46) (name "Net-(C4-Pad1)")
      (node (ref C4) (pin 1))
      (node (ref U7) (pin 20)))
    (net (code 47) (name "Net-(CR1-Pad2)")
      (node (ref R13) (pin 1))
      (node (ref L1) (pin 2))
      (node (ref U4) (pin 7))
      (node (ref CR1) (pin 2)))
    (net (code 48) (name "Net-(U8-Pad24)")
      (node (ref U8) (pin 24)))
    (net (code 49) (name VCC-3v3)
      (node (ref U8) (pin 17))
      (node (ref U9) (pin 6))
      (node (ref U10) (pin 6))
      (node (ref C14) (pin 1))
      (node (ref U1) (pin 6))
      (node (ref U6) (pin 6))
      (node (ref U2) (pin 6))
      (node (ref U11) (pin 6))
      (node (ref U5) (pin 8)))
    (net (code 50) (name "Net-(R3-Pad2)")
      (node (ref R3) (pin 2))
      (node (ref U8) (pin 23)))
    (net (code 51) (name WP-Flash-OUT)
      (node (ref J9) (pin 1))
      (node (ref U2) (pin 3)))
    (net (code 52) (name "Net-(J25-Pad2)")
      (node (ref U10) (pin 5))
      (node (ref J25) (pin 2)))
    (net (code 53) (name "Net-(J20-Pad2)")
      (node (ref J20) (pin 2))
      (node (ref U1) (pin 5)))
    (net (code 54) (name "Net-(J24-Pad2)")
      (node (ref U9) (pin 5))
      (node (ref J24) (pin 2)))
    (net (code 55) (name "Net-(J23-Pad1)")
      (node (ref U5) (pin 2))
      (node (ref J23) (pin 1)))
    (net (code 56) (name SO_Flash_IN)
      (node (ref J23) (pin 2))
      (node (ref U1) (pin 3)))
    (net (code 57) (name "Net-(D6-Pad2)")
      (node (ref D6) (pin 2))
      (node (ref U7) (pin 32)))
    (net (code 58) (name "Net-(D6-Pad1)")
      (node (ref R14) (pin 2))
      (node (ref D6) (pin 1)))
    (net (code 59) (name "Net-(J28-Pad1)")
      (node (ref J28) (pin 1))
      (node (ref U7) (pin 27)))
    (net (code 60) (name "Net-(J28-Pad2)")
      (node (ref J28) (pin 2))
      (node (ref U7) (pin 28)))
    (net (code 61) (name "Net-(J27-Pad1)")
      (node (ref U7) (pin 13))
      (node (ref J27) (pin 1)))
    (net (code 62) (name "Net-(C19-Pad2)")
      (node (ref R13) (pin 2))
      (node (ref C19) (pin 2)))
    (net (code 63) (name "Net-(J22-Pad2)")
      (node (ref J22) (pin 2))
      (node (ref U6) (pin 5)))
    (net (code 64) (name "Net-(D2-Pad1)")
      (node (ref R5) (pin 1))
      (node (ref D2) (pin 1)))
    (net (code 65) (name "Net-(D1-Pad1)")
      (node (ref R3) (pin 1))
      (node (ref D1) (pin 1)))
    (net (code 66) (name "Net-(R5-Pad2)")
      (node (ref U8) (pin 22))
      (node (ref R5) (pin 2)))
    (net (code 67) (name "Net-(J26-Pad2)")
      (node (ref J26) (pin 2))
      (node (ref U11) (pin 5)))
    (net (code 68) (name "Net-(J21-Pad2)")
      (node (ref U2) (pin 5))
      (node (ref J21) (pin 2)))
    (net (code 69) (name SI-Flash-IN)
      (node (ref U7) (pin 22))
      (node (ref U10) (pin 4)))
    (net (code 70) (name SO_Flash_OUT)
      (node (ref U7) (pin 23))
      (node (ref U1) (pin 4)))
    (net (code 71) (name SCK-Flash-IN)
      (node (ref U9) (pin 4))
      (node (ref U7) (pin 24)))
    (net (code 72) (name HOLD-Flash-IN)
      (node (ref U11) (pin 4))
      (node (ref U7) (pin 25)))
    (net (code 73) (name WP-Flash-IN)
      (node (ref U2) (pin 4))
      (node (ref U7) (pin 26)))
    (net (code 74) (name Reset)
      (node (ref U7) (pin 29))
      (node (ref R1) (pin 1))
      (node (ref SW1) (pin 2))
      (node (ref C1) (pin 1))
      (node (ref J2) (pin 2)))
    (net (code 75) (name CE-Flash-IN)
      (node (ref U6) (pin 4))
      (node (ref U7) (pin 19)))
    (net (code 76) (name Prog-SS)
      (node (ref U7) (pin 14))
      (node (ref J2) (pin 1))
      (node (ref J10) (pin 5)))
    (net (code 77) (name ISP-SCK)
      (node (ref U7) (pin 17))
      (node (ref J10) (pin 3)))
    (net (code 78) (name "Net-(J4-Pad1)")
      (node (ref J4) (pin 1))
      (node (ref J6) (pin 4)))
    (net (code 79) (name "Net-(J3-Pad2)")
      (node (ref J3) (pin 2))
      (node (ref J6) (pin 5)))
    (net (code 80) (name "Net-(J1-Pad4)")
      (node (ref J1) (pin 4)))
    (net (code 81) (name "Net-(J6-Pad6)")
      (node (ref J6) (pin 6)))
    (net (code 82) (name "Net-(R7-Pad1)")
      (node (ref U3) (pin 4))
      (node (ref R7) (pin 1)))
    (net (code 83) (name "Net-(C18-Pad1)")
      (node (ref L1) (pin 1))
      (node (ref U4) (pin 6))
      (node (ref Jmp1) (pin 1))
      (node (ref C18) (pin 1)))
    (net (code 84) (name "Net-(U4-Pad5)")
      (node (ref U4) (pin 5)))
    (net (code 85) (name "Net-(D5-Pad1)")
      (node (ref R6) (pin 2))
      (node (ref D5) (pin 1)))
    (net (code 86) (name "Net-(R6-Pad1)")
      (node (ref R6) (pin 1))
      (node (ref U3) (pin 3)))
    (net (code 87) (name "Net-(D4-Pad1)")
      (node (ref R7) (pin 2))
      (node (ref D4) (pin 1)))
    (net (code 88) (name "Net-(D3-Pad1)")
      (node (ref D3) (pin 1))
      (node (ref R9) (pin 2)))
    (net (code 89) (name "Net-(D3-Pad2)")
      (node (ref TH1) (pin 1))
      (node (ref U3) (pin 1))
      (node (ref U3) (pin 2))
      (node (ref D4) (pin 2))
      (node (ref D3) (pin 2))
      (node (ref D5) (pin 2)))
    (net (code 90) (name "Net-(C12-Pad1)")
      (node (ref C12) (pin 1))
      (node (ref R11) (pin 2))
      (node (ref VCC1) (pin 2))
      (node (ref CR1) (pin 1))
      (node (ref C13) (pin 1)))
    (net (code 91) (name "Net-(J5-Pad1)")
      (node (ref TH1) (pin 2))
      (node (ref J5) (pin 1)))
    (net (code 92) (name "Net-(R8-Pad1)")
      (node (ref R8) (pin 1))
      (node (ref U4) (pin 2)))
    (net (code 93) (name "Net-(C20-Pad1)")
      (node (ref R11) (pin 1))
      (node (ref R12) (pin 2))
      (node (ref C20) (pin 1))
      (node (ref U4) (pin 4)))
    (net (code 94) (name "Net-(C9-Pad1)")
      (node (ref C9) (pin 1))
      (node (ref R8) (pin 2)))
    (net (code 95) (name "Net-(R9-Pad1)")
      (node (ref R9) (pin 1))
      (node (ref U3) (pin 7)))
    (net (code 96) (name "Net-(U3-Pad8)")
      (node (ref U3) (pin 8)))
    (net (code 97) (name "Net-(J7-Pad1)")
      (node (ref J7) (pin 1))
      (node (ref LiIon-Zellen1) (pin 1)))
    (net (code 98) (name "Net-(C10-Pad1)")
      (node (ref U3) (pin 9))
      (node (ref U3) (pin 10))
      (node (ref Jmp1) (pin 2))
      (node (ref C10) (pin 1))
      (node (ref C11) (pin 1))
      (node (ref J7) (pin 2)))
    (net (code 99) (name "Net-(R10-Pad1)")
      (node (ref U3) (pin 6))
      (node (ref R10) (pin 1)))))