G04 #@! TF.GenerationSoftware,KiCad,Pcbnew,(5.1.4)-1*
G04 #@! TF.CreationDate,2020-11-14T18:32:11+01:00*
G04 #@! TF.ProjectId,Geo-Logger-v1,47656f2d-4c6f-4676-9765-722d76312e6b,v8*
G04 #@! TF.SameCoordinates,PX2faf080PY91e9840*
G04 #@! TF.FileFunction,Soldermask,Bot*
G04 #@! TF.FilePolarity,Negative*
%FSLAX46Y46*%
G04 Gerber Fmt 4.6, Leading zero omitted, Abs format (unit mm)*
G04 Created by KiCad (PCBNEW (5.1.4)-1) date 2020-11-14 18:32:11*
%MOMM*%
%LPD*%
G04 APERTURE LIST*
%ADD10C,0.100000*%
G04 APERTURE END LIST*
D10*
G36*
X7317200Y1906000D02*
G01*
X5865200Y1906000D01*
X5865200Y3358000D01*
X7317200Y3358000D01*
X7317200Y1906000D01*
X7317200Y1906000D01*
G37*
G36*
X4662413Y3354498D02*
G01*
X4733521Y3347495D01*
X4870372Y3305981D01*
X4870375Y3305980D01*
X4996494Y3238568D01*
X5107043Y3147843D01*
X5197768Y3037294D01*
X5265180Y2911175D01*
X5265181Y2911172D01*
X5306695Y2774321D01*
X5320712Y2632000D01*
X5306695Y2489679D01*
X5265181Y2352828D01*
X5265180Y2352825D01*
X5197768Y2226706D01*
X5107043Y2116157D01*
X4996494Y2025432D01*
X4870375Y1958020D01*
X4870372Y1958019D01*
X4733521Y1916505D01*
X4662413Y1909502D01*
X4626860Y1906000D01*
X4555540Y1906000D01*
X4519987Y1909502D01*
X4448879Y1916505D01*
X4312028Y1958019D01*
X4312025Y1958020D01*
X4185906Y2025432D01*
X4075357Y2116157D01*
X3984632Y2226706D01*
X3917220Y2352825D01*
X3917219Y2352828D01*
X3875705Y2489679D01*
X3861688Y2632000D01*
X3875705Y2774321D01*
X3917219Y2911172D01*
X3917220Y2911175D01*
X3984632Y3037294D01*
X4075357Y3147843D01*
X4185906Y3238568D01*
X4312025Y3305980D01*
X4312028Y3305981D01*
X4448879Y3347495D01*
X4519987Y3354498D01*
X4555540Y3358000D01*
X4626860Y3358000D01*
X4662413Y3354498D01*
X4662413Y3354498D01*
G37*
G36*
X39936413Y3862498D02*
G01*
X40007521Y3855495D01*
X40144372Y3813981D01*
X40144375Y3813980D01*
X40270494Y3746568D01*
X40381043Y3655843D01*
X40471768Y3545294D01*
X40539180Y3419175D01*
X40539181Y3419172D01*
X40580695Y3282321D01*
X40594712Y3140000D01*
X40580695Y2997679D01*
X40554454Y2911175D01*
X40539180Y2860825D01*
X40471768Y2734706D01*
X40381043Y2624157D01*
X40270494Y2533432D01*
X40144375Y2466020D01*
X40144372Y2466019D01*
X40007521Y2424505D01*
X39936413Y2417502D01*
X39900860Y2414000D01*
X39829540Y2414000D01*
X39793987Y2417502D01*
X39722879Y2424505D01*
X39586028Y2466019D01*
X39586025Y2466020D01*
X39459906Y2533432D01*
X39349357Y2624157D01*
X39258632Y2734706D01*
X39191220Y2860825D01*
X39175946Y2911175D01*
X39149705Y2997679D01*
X39135688Y3140000D01*
X39149705Y3282321D01*
X39191219Y3419172D01*
X39191220Y3419175D01*
X39258632Y3545294D01*
X39349357Y3655843D01*
X39459906Y3746568D01*
X39586025Y3813980D01*
X39586028Y3813981D01*
X39722879Y3855495D01*
X39793987Y3862498D01*
X39829540Y3866000D01*
X39900860Y3866000D01*
X39936413Y3862498D01*
X39936413Y3862498D01*
G37*
G36*
X19179294Y5361367D02*
G01*
X19351695Y5309069D01*
X19510583Y5224142D01*
X19649849Y5109849D01*
X19764142Y4970583D01*
X19849069Y4811695D01*
X19901367Y4639294D01*
X19919025Y4460000D01*
X19901367Y4280706D01*
X19849069Y4108305D01*
X19764142Y3949417D01*
X19649849Y3810151D01*
X19510583Y3695858D01*
X19351695Y3610931D01*
X19179294Y3558633D01*
X19044931Y3545400D01*
X18955069Y3545400D01*
X18820706Y3558633D01*
X18648305Y3610931D01*
X18489417Y3695858D01*
X18350151Y3810151D01*
X18235858Y3949417D01*
X18150931Y4108305D01*
X18098633Y4280706D01*
X18080975Y4460000D01*
X18098633Y4639294D01*
X18150931Y4811695D01*
X18235858Y4970583D01*
X18350151Y5109849D01*
X18489417Y5224142D01*
X18648305Y5309069D01*
X18820706Y5361367D01*
X18955069Y5374600D01*
X19044931Y5374600D01*
X19179294Y5361367D01*
X19179294Y5361367D01*
G37*
G36*
X14099294Y5361367D02*
G01*
X14271695Y5309069D01*
X14430583Y5224142D01*
X14569849Y5109849D01*
X14684142Y4970583D01*
X14769069Y4811695D01*
X14821367Y4639294D01*
X14839025Y4460000D01*
X14821367Y4280706D01*
X14769069Y4108305D01*
X14684142Y3949417D01*
X14569849Y3810151D01*
X14430583Y3695858D01*
X14271695Y3610931D01*
X14099294Y3558633D01*
X13964931Y3545400D01*
X13875069Y3545400D01*
X13740706Y3558633D01*
X13568305Y3610931D01*
X13409417Y3695858D01*
X13270151Y3810151D01*
X13155858Y3949417D01*
X13070931Y4108305D01*
X13018633Y4280706D01*
X13000975Y4460000D01*
X13018633Y4639294D01*
X13070931Y4811695D01*
X13155858Y4970583D01*
X13270151Y5109849D01*
X13409417Y5224142D01*
X13568305Y5309069D01*
X13740706Y5361367D01*
X13875069Y5374600D01*
X13964931Y5374600D01*
X14099294Y5361367D01*
X14099294Y5361367D01*
G37*
G36*
X16639294Y5361367D02*
G01*
X16811695Y5309069D01*
X16970583Y5224142D01*
X17109849Y5109849D01*
X17224142Y4970583D01*
X17309069Y4811695D01*
X17361367Y4639294D01*
X17379025Y4460000D01*
X17361367Y4280706D01*
X17309069Y4108305D01*
X17224142Y3949417D01*
X17109849Y3810151D01*
X16970583Y3695858D01*
X16811695Y3610931D01*
X16639294Y3558633D01*
X16504931Y3545400D01*
X16415069Y3545400D01*
X16280706Y3558633D01*
X16108305Y3610931D01*
X15949417Y3695858D01*
X15810151Y3810151D01*
X15695858Y3949417D01*
X15610931Y4108305D01*
X15558633Y4280706D01*
X15540975Y4460000D01*
X15558633Y4639294D01*
X15610931Y4811695D01*
X15695858Y4970583D01*
X15810151Y5109849D01*
X15949417Y5224142D01*
X16108305Y5309069D01*
X16280706Y5361367D01*
X16415069Y5374600D01*
X16504931Y5374600D01*
X16639294Y5361367D01*
X16639294Y5361367D01*
G37*
G36*
X40591200Y4414000D02*
G01*
X39139200Y4414000D01*
X39139200Y5866000D01*
X40591200Y5866000D01*
X40591200Y4414000D01*
X40591200Y4414000D01*
G37*
G36*
X6630413Y7012098D02*
G01*
X6701521Y7005095D01*
X6838372Y6963581D01*
X6838375Y6963580D01*
X6964494Y6896168D01*
X7075043Y6805443D01*
X7165768Y6694894D01*
X7233180Y6568775D01*
X7233181Y6568772D01*
X7274695Y6431921D01*
X7288712Y6289600D01*
X7274695Y6147279D01*
X7259938Y6098634D01*
X7233180Y6010425D01*
X7165768Y5884306D01*
X7075043Y5773757D01*
X6964494Y5683032D01*
X6838375Y5615620D01*
X6838372Y5615619D01*
X6701521Y5574105D01*
X6630413Y5567102D01*
X6594860Y5563600D01*
X6523540Y5563600D01*
X6487987Y5567102D01*
X6416879Y5574105D01*
X6280028Y5615619D01*
X6280025Y5615620D01*
X6153906Y5683032D01*
X6043357Y5773757D01*
X5952632Y5884306D01*
X5885220Y6010425D01*
X5858462Y6098634D01*
X5843705Y6147279D01*
X5829688Y6289600D01*
X5843705Y6431921D01*
X5885219Y6568772D01*
X5885220Y6568775D01*
X5952632Y6694894D01*
X6043357Y6805443D01*
X6153906Y6896168D01*
X6280025Y6963580D01*
X6280028Y6963581D01*
X6416879Y7005095D01*
X6487987Y7012098D01*
X6523540Y7015600D01*
X6594860Y7015600D01*
X6630413Y7012098D01*
X6630413Y7012098D01*
G37*
G36*
X5285200Y5563600D02*
G01*
X3833200Y5563600D01*
X3833200Y7015600D01*
X5285200Y7015600D01*
X5285200Y5563600D01*
X5285200Y5563600D01*
G37*
G36*
X19914600Y6085400D02*
G01*
X18085400Y6085400D01*
X18085400Y7914600D01*
X19914600Y7914600D01*
X19914600Y6085400D01*
X19914600Y6085400D01*
G37*
G36*
X16639294Y7901367D02*
G01*
X16811695Y7849069D01*
X16970583Y7764142D01*
X17109849Y7649849D01*
X17224142Y7510583D01*
X17309069Y7351695D01*
X17361367Y7179294D01*
X17379025Y7000000D01*
X17361367Y6820706D01*
X17309069Y6648305D01*
X17224142Y6489417D01*
X17109849Y6350151D01*
X16970583Y6235858D01*
X16811695Y6150931D01*
X16639294Y6098633D01*
X16504931Y6085400D01*
X16415069Y6085400D01*
X16280706Y6098633D01*
X16108305Y6150931D01*
X15949417Y6235858D01*
X15810151Y6350151D01*
X15695858Y6489417D01*
X15610931Y6648305D01*
X15558633Y6820706D01*
X15540975Y7000000D01*
X15558633Y7179294D01*
X15610931Y7351695D01*
X15695858Y7510583D01*
X15810151Y7649849D01*
X15949417Y7764142D01*
X16108305Y7849069D01*
X16280706Y7901367D01*
X16415069Y7914600D01*
X16504931Y7914600D01*
X16639294Y7901367D01*
X16639294Y7901367D01*
G37*
G36*
X14099294Y7901367D02*
G01*
X14271695Y7849069D01*
X14430583Y7764142D01*
X14569849Y7649849D01*
X14684142Y7510583D01*
X14769069Y7351695D01*
X14821367Y7179294D01*
X14839025Y7000000D01*
X14821367Y6820706D01*
X14769069Y6648305D01*
X14684142Y6489417D01*
X14569849Y6350151D01*
X14430583Y6235858D01*
X14271695Y6150931D01*
X14099294Y6098633D01*
X13964931Y6085400D01*
X13875069Y6085400D01*
X13740706Y6098633D01*
X13568305Y6150931D01*
X13409417Y6235858D01*
X13270151Y6350151D01*
X13155858Y6489417D01*
X13070931Y6648305D01*
X13018633Y6820706D01*
X13000975Y7000000D01*
X13018633Y7179294D01*
X13070931Y7351695D01*
X13155858Y7510583D01*
X13270151Y7649849D01*
X13409417Y7764142D01*
X13568305Y7849069D01*
X13740706Y7901367D01*
X13875069Y7914600D01*
X13964931Y7914600D01*
X14099294Y7901367D01*
X14099294Y7901367D01*
G37*
G36*
X46890400Y7240000D02*
G01*
X45438400Y7240000D01*
X45438400Y8692000D01*
X46890400Y8692000D01*
X46890400Y7240000D01*
X46890400Y7240000D01*
G37*
G36*
X7317200Y9119600D02*
G01*
X5865200Y9119600D01*
X5865200Y10571600D01*
X7317200Y10571600D01*
X7317200Y9119600D01*
X7317200Y9119600D01*
G37*
G36*
X37250890Y10702183D02*
G01*
X37349269Y10661433D01*
X37369364Y10653109D01*
X37457797Y10594020D01*
X37475988Y10581865D01*
X37566665Y10491188D01*
X37637910Y10384562D01*
X37669517Y10308256D01*
X37681068Y10286645D01*
X37696613Y10267703D01*
X37715555Y10252158D01*
X37737166Y10240607D01*
X37760615Y10233494D01*
X37785001Y10231092D01*
X37809387Y10233494D01*
X37832836Y10240607D01*
X37854447Y10252158D01*
X37873389Y10267703D01*
X37888934Y10286645D01*
X37900485Y10308256D01*
X37907598Y10331705D01*
X37910000Y10356091D01*
X37910000Y10727200D01*
X39212000Y10727200D01*
X39212000Y9425200D01*
X37910000Y9425200D01*
X37910000Y9796309D01*
X37907598Y9820695D01*
X37900485Y9844144D01*
X37888934Y9865755D01*
X37873389Y9884697D01*
X37854447Y9900242D01*
X37832836Y9911793D01*
X37809387Y9918906D01*
X37785001Y9921308D01*
X37760615Y9918906D01*
X37737166Y9911793D01*
X37715555Y9900242D01*
X37696613Y9884697D01*
X37681068Y9865755D01*
X37669517Y9844145D01*
X37637909Y9767836D01*
X37566665Y9661212D01*
X37475988Y9570535D01*
X37369364Y9499291D01*
X37369363Y9499290D01*
X37369362Y9499290D01*
X37250890Y9450217D01*
X37125119Y9425200D01*
X36996881Y9425200D01*
X36871110Y9450217D01*
X36752638Y9499290D01*
X36752637Y9499290D01*
X36752636Y9499291D01*
X36646012Y9570535D01*
X36555335Y9661212D01*
X36484091Y9767836D01*
X36435017Y9886310D01*
X36410000Y10012082D01*
X36410000Y10140318D01*
X36435017Y10266090D01*
X36484091Y10384564D01*
X36555335Y10491188D01*
X36646012Y10581865D01*
X36752636Y10653109D01*
X36772732Y10661433D01*
X36871110Y10702183D01*
X36996881Y10727200D01*
X37125119Y10727200D01*
X37250890Y10702183D01*
X37250890Y10702183D01*
G37*
G36*
X46134013Y11990498D02*
G01*
X46205121Y11983495D01*
X46341972Y11941981D01*
X46341975Y11941980D01*
X46468094Y11874568D01*
X46578643Y11783843D01*
X46669368Y11673294D01*
X46736780Y11547175D01*
X46736781Y11547172D01*
X46778295Y11410321D01*
X46792312Y11268000D01*
X46778295Y11125679D01*
X46736781Y10988828D01*
X46736780Y10988825D01*
X46669368Y10862706D01*
X46578643Y10752157D01*
X46468094Y10661432D01*
X46341975Y10594020D01*
X46341972Y10594019D01*
X46205121Y10552505D01*
X46134013Y10545502D01*
X46098460Y10542000D01*
X46027140Y10542000D01*
X45991587Y10545502D01*
X45920479Y10552505D01*
X45783628Y10594019D01*
X45783625Y10594020D01*
X45657506Y10661432D01*
X45546957Y10752157D01*
X45456232Y10862706D01*
X45388820Y10988825D01*
X45388819Y10988828D01*
X45347305Y11125679D01*
X45333288Y11268000D01*
X45347305Y11410321D01*
X45388819Y11547172D01*
X45388820Y11547175D01*
X45456232Y11673294D01*
X45546957Y11783843D01*
X45657506Y11874568D01*
X45783625Y11941980D01*
X45783628Y11941981D01*
X45920479Y11983495D01*
X45991587Y11990498D01*
X46027140Y11994000D01*
X46098460Y11994000D01*
X46134013Y11990498D01*
X46134013Y11990498D01*
G37*
G36*
X6662413Y12568098D02*
G01*
X6733521Y12561095D01*
X6870372Y12519581D01*
X6870375Y12519580D01*
X6996494Y12452168D01*
X7107043Y12361443D01*
X7197768Y12250894D01*
X7265180Y12124775D01*
X7265181Y12124772D01*
X7306695Y11987921D01*
X7320712Y11845600D01*
X7306695Y11703279D01*
X7297599Y11673295D01*
X7265180Y11566425D01*
X7197768Y11440306D01*
X7107043Y11329757D01*
X6996494Y11239032D01*
X6870375Y11171620D01*
X6870372Y11171619D01*
X6733521Y11130105D01*
X6662413Y11123102D01*
X6626860Y11119600D01*
X6555540Y11119600D01*
X6519987Y11123102D01*
X6448879Y11130105D01*
X6312028Y11171619D01*
X6312025Y11171620D01*
X6185906Y11239032D01*
X6075357Y11329757D01*
X5984632Y11440306D01*
X5917220Y11566425D01*
X5884801Y11673295D01*
X5875705Y11703279D01*
X5861688Y11845600D01*
X5875705Y11987921D01*
X5917219Y12124772D01*
X5917220Y12124775D01*
X5984632Y12250894D01*
X6075357Y12361443D01*
X6185906Y12452168D01*
X6312025Y12519580D01*
X6312028Y12519581D01*
X6448879Y12561095D01*
X6519987Y12568098D01*
X6555540Y12571600D01*
X6626860Y12571600D01*
X6662413Y12568098D01*
X6662413Y12568098D01*
G37*
G36*
X46788800Y12542000D02*
G01*
X45336800Y12542000D01*
X45336800Y13994000D01*
X46788800Y13994000D01*
X46788800Y12542000D01*
X46788800Y12542000D01*
G37*
G36*
X9110443Y16194481D02*
G01*
X9176627Y16187963D01*
X9346466Y16136443D01*
X9502991Y16052778D01*
X9538729Y16023448D01*
X9640186Y15940186D01*
X9723448Y15838729D01*
X9752778Y15802991D01*
X9836443Y15646466D01*
X9887963Y15476627D01*
X9905359Y15300000D01*
X9887963Y15123373D01*
X9836443Y14953534D01*
X9752778Y14797009D01*
X9723448Y14761271D01*
X9640186Y14659814D01*
X9538729Y14576552D01*
X9502991Y14547222D01*
X9346466Y14463557D01*
X9176627Y14412037D01*
X9110442Y14405518D01*
X9044260Y14399000D01*
X8955740Y14399000D01*
X8889558Y14405518D01*
X8823373Y14412037D01*
X8653534Y14463557D01*
X8497009Y14547222D01*
X8461271Y14576552D01*
X8359814Y14659814D01*
X8276552Y14761271D01*
X8247222Y14797009D01*
X8163557Y14953534D01*
X8112037Y15123373D01*
X8094641Y15300000D01*
X8112037Y15476627D01*
X8163557Y15646466D01*
X8247222Y15802991D01*
X8276552Y15838729D01*
X8359814Y15940186D01*
X8461271Y16023448D01*
X8497009Y16052778D01*
X8653534Y16136443D01*
X8823373Y16187963D01*
X8889557Y16194481D01*
X8955740Y16201000D01*
X9044260Y16201000D01*
X9110443Y16194481D01*
X9110443Y16194481D01*
G37*
G36*
X4697400Y15498600D02*
G01*
X2795400Y15498600D01*
X2795400Y17400600D01*
X4697400Y17400600D01*
X4697400Y15498600D01*
X4697400Y15498600D01*
G37*
G36*
X9110442Y18734482D02*
G01*
X9176627Y18727963D01*
X9346466Y18676443D01*
X9502991Y18592778D01*
X9538729Y18563448D01*
X9640186Y18480186D01*
X9719637Y18383373D01*
X9752778Y18342991D01*
X9836443Y18186466D01*
X9887963Y18016627D01*
X9905359Y17840000D01*
X9887963Y17663373D01*
X9836443Y17493534D01*
X9752778Y17337009D01*
X9723448Y17301271D01*
X9640186Y17199814D01*
X9538729Y17116552D01*
X9502991Y17087222D01*
X9346466Y17003557D01*
X9176627Y16952037D01*
X9110442Y16945518D01*
X9044260Y16939000D01*
X8955740Y16939000D01*
X8889558Y16945518D01*
X8823373Y16952037D01*
X8653534Y17003557D01*
X8497009Y17087222D01*
X8461271Y17116552D01*
X8359814Y17199814D01*
X8276552Y17301271D01*
X8247222Y17337009D01*
X8163557Y17493534D01*
X8112037Y17663373D01*
X8094641Y17840000D01*
X8112037Y18016627D01*
X8163557Y18186466D01*
X8247222Y18342991D01*
X8280363Y18383373D01*
X8359814Y18480186D01*
X8461271Y18563448D01*
X8497009Y18592778D01*
X8653534Y18676443D01*
X8823373Y18727963D01*
X8889558Y18734482D01*
X8955740Y18741000D01*
X9044260Y18741000D01*
X9110442Y18734482D01*
X9110442Y18734482D01*
G37*
G36*
X4023795Y19904054D02*
G01*
X4196866Y19832366D01*
X4196867Y19832365D01*
X4352627Y19728290D01*
X4485090Y19595827D01*
X4537481Y19517418D01*
X4589166Y19440066D01*
X4660854Y19266995D01*
X4697400Y19083267D01*
X4697400Y18895933D01*
X4660854Y18712205D01*
X4589166Y18539134D01*
X4589165Y18539133D01*
X4485090Y18383373D01*
X4352627Y18250910D01*
X4274218Y18198519D01*
X4196866Y18146834D01*
X4023795Y18075146D01*
X3840067Y18038600D01*
X3652733Y18038600D01*
X3469005Y18075146D01*
X3295934Y18146834D01*
X3218582Y18198519D01*
X3140173Y18250910D01*
X3007710Y18383373D01*
X2903635Y18539133D01*
X2903634Y18539134D01*
X2831946Y18712205D01*
X2795400Y18895933D01*
X2795400Y19083267D01*
X2831946Y19266995D01*
X2903634Y19440066D01*
X2955319Y19517418D01*
X3007710Y19595827D01*
X3140173Y19728290D01*
X3295933Y19832365D01*
X3295934Y19832366D01*
X3469005Y19904054D01*
X3652733Y19940600D01*
X3840067Y19940600D01*
X4023795Y19904054D01*
X4023795Y19904054D01*
G37*
G36*
X9110442Y21274482D02*
G01*
X9176627Y21267963D01*
X9346466Y21216443D01*
X9502991Y21132778D01*
X9538729Y21103448D01*
X9640186Y21020186D01*
X9723448Y20918729D01*
X9752778Y20882991D01*
X9836443Y20726466D01*
X9887963Y20556627D01*
X9905359Y20380000D01*
X9887963Y20203373D01*
X9836443Y20033534D01*
X9752778Y19877009D01*
X9723448Y19841271D01*
X9640186Y19739814D01*
X9538729Y19656552D01*
X9502991Y19627222D01*
X9346466Y19543557D01*
X9176627Y19492037D01*
X9110442Y19485518D01*
X9044260Y19479000D01*
X8955740Y19479000D01*
X8889558Y19485518D01*
X8823373Y19492037D01*
X8653534Y19543557D01*
X8497009Y19627222D01*
X8461271Y19656552D01*
X8359814Y19739814D01*
X8276552Y19841271D01*
X8247222Y19877009D01*
X8163557Y20033534D01*
X8112037Y20203373D01*
X8094641Y20380000D01*
X8112037Y20556627D01*
X8163557Y20726466D01*
X8247222Y20882991D01*
X8276552Y20918729D01*
X8359814Y21020186D01*
X8461271Y21103448D01*
X8497009Y21132778D01*
X8653534Y21216443D01*
X8823373Y21267963D01*
X8889558Y21274482D01*
X8955740Y21281000D01*
X9044260Y21281000D01*
X9110442Y21274482D01*
X9110442Y21274482D01*
G37*
G36*
X9110443Y23814481D02*
G01*
X9176627Y23807963D01*
X9346466Y23756443D01*
X9502991Y23672778D01*
X9538729Y23643448D01*
X9640186Y23560186D01*
X9723448Y23458729D01*
X9752778Y23422991D01*
X9836443Y23266466D01*
X9887963Y23096627D01*
X9905359Y22920000D01*
X9887963Y22743373D01*
X9836443Y22573534D01*
X9752778Y22417009D01*
X9723448Y22381271D01*
X9640186Y22279814D01*
X9538729Y22196552D01*
X9502991Y22167222D01*
X9346466Y22083557D01*
X9176627Y22032037D01*
X9110443Y22025519D01*
X9044260Y22019000D01*
X8955740Y22019000D01*
X8889557Y22025519D01*
X8823373Y22032037D01*
X8653534Y22083557D01*
X8497009Y22167222D01*
X8461271Y22196552D01*
X8359814Y22279814D01*
X8276552Y22381271D01*
X8247222Y22417009D01*
X8163557Y22573534D01*
X8112037Y22743373D01*
X8094641Y22920000D01*
X8112037Y23096627D01*
X8163557Y23266466D01*
X8247222Y23422991D01*
X8276552Y23458729D01*
X8359814Y23560186D01*
X8461271Y23643448D01*
X8497009Y23672778D01*
X8653534Y23756443D01*
X8823373Y23807963D01*
X8889557Y23814481D01*
X8955740Y23821000D01*
X9044260Y23821000D01*
X9110443Y23814481D01*
X9110443Y23814481D01*
G37*
G36*
X9110443Y26354481D02*
G01*
X9176627Y26347963D01*
X9346466Y26296443D01*
X9502991Y26212778D01*
X9510967Y26206232D01*
X9640186Y26100186D01*
X9723448Y25998729D01*
X9752778Y25962991D01*
X9836443Y25806466D01*
X9887963Y25636627D01*
X9905359Y25460000D01*
X9887963Y25283373D01*
X9836443Y25113534D01*
X9752778Y24957009D01*
X9723448Y24921271D01*
X9640186Y24819814D01*
X9538729Y24736552D01*
X9502991Y24707222D01*
X9346466Y24623557D01*
X9176627Y24572037D01*
X9110442Y24565518D01*
X9044260Y24559000D01*
X8955740Y24559000D01*
X8889558Y24565518D01*
X8823373Y24572037D01*
X8653534Y24623557D01*
X8497009Y24707222D01*
X8461271Y24736552D01*
X8359814Y24819814D01*
X8276552Y24921271D01*
X8247222Y24957009D01*
X8163557Y25113534D01*
X8112037Y25283373D01*
X8094641Y25460000D01*
X8112037Y25636627D01*
X8163557Y25806466D01*
X8247222Y25962991D01*
X8276552Y25998729D01*
X8359814Y26100186D01*
X8489033Y26206232D01*
X8497009Y26212778D01*
X8653534Y26296443D01*
X8823373Y26347963D01*
X8889557Y26354481D01*
X8955740Y26361000D01*
X9044260Y26361000D01*
X9110443Y26354481D01*
X9110443Y26354481D01*
G37*
G36*
X4646600Y24998200D02*
G01*
X2744600Y24998200D01*
X2744600Y26900200D01*
X4646600Y26900200D01*
X4646600Y24998200D01*
X4646600Y24998200D01*
G37*
G36*
X51232813Y27535298D02*
G01*
X51303921Y27528295D01*
X51440772Y27486781D01*
X51440775Y27486780D01*
X51566894Y27419368D01*
X51677443Y27328643D01*
X51768168Y27218094D01*
X51835580Y27091975D01*
X51835581Y27091972D01*
X51877095Y26955121D01*
X51891112Y26812800D01*
X51877095Y26670479D01*
X51835581Y26533628D01*
X51835580Y26533625D01*
X51768168Y26407506D01*
X51677443Y26296957D01*
X51566894Y26206232D01*
X51440775Y26138820D01*
X51440772Y26138819D01*
X51303921Y26097305D01*
X51232813Y26090302D01*
X51197260Y26086800D01*
X51125940Y26086800D01*
X51090387Y26090302D01*
X51019279Y26097305D01*
X50882428Y26138819D01*
X50882425Y26138820D01*
X50756306Y26206232D01*
X50645757Y26296957D01*
X50555032Y26407506D01*
X50487620Y26533625D01*
X50487619Y26533628D01*
X50446105Y26670479D01*
X50432088Y26812800D01*
X50446105Y26955121D01*
X50487619Y27091972D01*
X50487620Y27091975D01*
X50555032Y27218094D01*
X50645757Y27328643D01*
X50756306Y27419368D01*
X50882425Y27486780D01*
X50882428Y27486781D01*
X51019279Y27528295D01*
X51090387Y27535298D01*
X51125940Y27538800D01*
X51197260Y27538800D01*
X51232813Y27535298D01*
X51232813Y27535298D01*
G37*
G36*
X49887600Y26086800D02*
G01*
X48435600Y26086800D01*
X48435600Y27538800D01*
X49887600Y27538800D01*
X49887600Y26086800D01*
X49887600Y26086800D01*
G37*
G36*
X24334213Y27865498D02*
G01*
X24405321Y27858495D01*
X24542172Y27816981D01*
X24542175Y27816980D01*
X24668294Y27749568D01*
X24778843Y27658843D01*
X24869568Y27548294D01*
X24936980Y27422175D01*
X24936981Y27422172D01*
X24978495Y27285321D01*
X24992512Y27143000D01*
X24978495Y27000679D01*
X24936981Y26863828D01*
X24936980Y26863825D01*
X24869568Y26737706D01*
X24778843Y26627157D01*
X24668294Y26536432D01*
X24542175Y26469020D01*
X24542172Y26469019D01*
X24405321Y26427505D01*
X24334213Y26420502D01*
X24298660Y26417000D01*
X24227340Y26417000D01*
X24191787Y26420502D01*
X24120679Y26427505D01*
X23983828Y26469019D01*
X23983825Y26469020D01*
X23857706Y26536432D01*
X23747157Y26627157D01*
X23656432Y26737706D01*
X23589020Y26863825D01*
X23589019Y26863828D01*
X23547505Y27000679D01*
X23533488Y27143000D01*
X23547505Y27285321D01*
X23589019Y27422172D01*
X23589020Y27422175D01*
X23656432Y27548294D01*
X23747157Y27658843D01*
X23857706Y27749568D01*
X23983825Y27816980D01*
X23983828Y27816981D01*
X24120679Y27858495D01*
X24191787Y27865498D01*
X24227340Y27869000D01*
X24298660Y27869000D01*
X24334213Y27865498D01*
X24334213Y27865498D01*
G37*
G36*
X22989000Y26417000D02*
G01*
X21537000Y26417000D01*
X21537000Y27869000D01*
X22989000Y27869000D01*
X22989000Y26417000D01*
X22989000Y26417000D01*
G37*
G36*
X9901000Y27099000D02*
G01*
X8099000Y27099000D01*
X8099000Y28901000D01*
X9901000Y28901000D01*
X9901000Y27099000D01*
X9901000Y27099000D01*
G37*
G36*
X3972995Y29403654D02*
G01*
X4146066Y29331966D01*
X4146067Y29331965D01*
X4301827Y29227890D01*
X4434290Y29095427D01*
X4434291Y29095425D01*
X4538366Y28939666D01*
X4610054Y28766595D01*
X4646600Y28582867D01*
X4646600Y28395533D01*
X4610054Y28211805D01*
X4538366Y28038734D01*
X4538365Y28038733D01*
X4434290Y27882973D01*
X4301827Y27750510D01*
X4223418Y27698119D01*
X4146066Y27646434D01*
X3972995Y27574746D01*
X3789267Y27538200D01*
X3601933Y27538200D01*
X3418205Y27574746D01*
X3245134Y27646434D01*
X3167782Y27698119D01*
X3089373Y27750510D01*
X2956910Y27882973D01*
X2852835Y28038733D01*
X2852834Y28038734D01*
X2781146Y28211805D01*
X2744600Y28395533D01*
X2744600Y28582867D01*
X2781146Y28766595D01*
X2852834Y28939666D01*
X2956909Y29095425D01*
X2956910Y29095427D01*
X3089373Y29227890D01*
X3245133Y29331965D01*
X3245134Y29331966D01*
X3418205Y29403654D01*
X3601933Y29440200D01*
X3789267Y29440200D01*
X3972995Y29403654D01*
X3972995Y29403654D01*
G37*
G36*
X43791600Y28811200D02*
G01*
X42339600Y28811200D01*
X42339600Y30263200D01*
X43791600Y30263200D01*
X43791600Y28811200D01*
X43791600Y28811200D01*
G37*
G36*
X51182013Y30938898D02*
G01*
X51253121Y30931895D01*
X51389972Y30890381D01*
X51389975Y30890380D01*
X51516094Y30822968D01*
X51626643Y30732243D01*
X51717368Y30621694D01*
X51784780Y30495575D01*
X51784781Y30495572D01*
X51826295Y30358721D01*
X51840312Y30216400D01*
X51826295Y30074079D01*
X51784781Y29937228D01*
X51784780Y29937225D01*
X51717368Y29811106D01*
X51626643Y29700557D01*
X51516094Y29609832D01*
X51389975Y29542420D01*
X51389972Y29542419D01*
X51253121Y29500905D01*
X51182013Y29493902D01*
X51146460Y29490400D01*
X51075140Y29490400D01*
X51039587Y29493902D01*
X50968479Y29500905D01*
X50831628Y29542419D01*
X50831625Y29542420D01*
X50705506Y29609832D01*
X50594957Y29700557D01*
X50504232Y29811106D01*
X50436820Y29937225D01*
X50436819Y29937228D01*
X50395305Y30074079D01*
X50381288Y30216400D01*
X50395305Y30358721D01*
X50436819Y30495572D01*
X50436820Y30495575D01*
X50504232Y30621694D01*
X50594957Y30732243D01*
X50705506Y30822968D01*
X50831625Y30890380D01*
X50831628Y30890381D01*
X50968479Y30931895D01*
X51039587Y30938898D01*
X51075140Y30942400D01*
X51146460Y30942400D01*
X51182013Y30938898D01*
X51182013Y30938898D01*
G37*
G36*
X49836800Y29490400D02*
G01*
X48384800Y29490400D01*
X48384800Y30942400D01*
X49836800Y30942400D01*
X49836800Y29490400D01*
X49836800Y29490400D01*
G37*
G36*
X28736000Y29973000D02*
G01*
X27284000Y29973000D01*
X27284000Y31425000D01*
X28736000Y31425000D01*
X28736000Y29973000D01*
X28736000Y29973000D01*
G37*
G36*
X30081213Y31421498D02*
G01*
X30152321Y31414495D01*
X30289172Y31372981D01*
X30289175Y31372980D01*
X30415294Y31305568D01*
X30525843Y31214843D01*
X30616568Y31104294D01*
X30683980Y30978175D01*
X30683981Y30978172D01*
X30725495Y30841321D01*
X30739512Y30699000D01*
X30725495Y30556679D01*
X30706959Y30495575D01*
X30683980Y30419825D01*
X30616568Y30293706D01*
X30525843Y30183157D01*
X30415294Y30092432D01*
X30289175Y30025020D01*
X30289172Y30025019D01*
X30152321Y29983505D01*
X30081213Y29976502D01*
X30045660Y29973000D01*
X29974340Y29973000D01*
X29938787Y29976502D01*
X29867679Y29983505D01*
X29730828Y30025019D01*
X29730825Y30025020D01*
X29604706Y30092432D01*
X29494157Y30183157D01*
X29403432Y30293706D01*
X29336020Y30419825D01*
X29313041Y30495575D01*
X29294505Y30556679D01*
X29280488Y30699000D01*
X29294505Y30841321D01*
X29336019Y30978172D01*
X29336020Y30978175D01*
X29403432Y31104294D01*
X29494157Y31214843D01*
X29604706Y31305568D01*
X29730825Y31372980D01*
X29730828Y31372981D01*
X29867679Y31414495D01*
X29938787Y31421498D01*
X29974340Y31425000D01*
X30045660Y31425000D01*
X30081213Y31421498D01*
X30081213Y31421498D01*
G37*
G36*
X43136813Y32259698D02*
G01*
X43207921Y32252695D01*
X43344772Y32211181D01*
X43344775Y32211180D01*
X43470894Y32143768D01*
X43581443Y32053043D01*
X43672168Y31942494D01*
X43739580Y31816375D01*
X43739581Y31816372D01*
X43781095Y31679521D01*
X43795112Y31537200D01*
X43781095Y31394879D01*
X43754002Y31305568D01*
X43739580Y31258025D01*
X43672168Y31131906D01*
X43581443Y31021357D01*
X43470894Y30930632D01*
X43344775Y30863220D01*
X43344772Y30863219D01*
X43207921Y30821705D01*
X43136813Y30814702D01*
X43101260Y30811200D01*
X43029940Y30811200D01*
X42994387Y30814702D01*
X42923279Y30821705D01*
X42786428Y30863219D01*
X42786425Y30863220D01*
X42660306Y30930632D01*
X42549757Y31021357D01*
X42459032Y31131906D01*
X42391620Y31258025D01*
X42377198Y31305568D01*
X42350105Y31394879D01*
X42336088Y31537200D01*
X42350105Y31679521D01*
X42391619Y31816372D01*
X42391620Y31816375D01*
X42459032Y31942494D01*
X42549757Y32053043D01*
X42660306Y32143768D01*
X42786425Y32211180D01*
X42786428Y32211181D01*
X42923279Y32252695D01*
X42994387Y32259698D01*
X43029940Y32263200D01*
X43101260Y32263200D01*
X43136813Y32259698D01*
X43136813Y32259698D01*
G37*
G36*
X59031600Y31166800D02*
G01*
X57579600Y31166800D01*
X57579600Y32618800D01*
X59031600Y32618800D01*
X59031600Y31166800D01*
X59031600Y31166800D01*
G37*
G36*
X35765200Y31217600D02*
G01*
X34313200Y31217600D01*
X34313200Y32669600D01*
X35765200Y32669600D01*
X35765200Y31217600D01*
X35765200Y31217600D01*
G37*
G36*
X9726000Y31274000D02*
G01*
X8274000Y31274000D01*
X8274000Y32726000D01*
X9726000Y32726000D01*
X9726000Y31274000D01*
X9726000Y31274000D01*
G37*
G36*
X3922195Y33670854D02*
G01*
X4095266Y33599166D01*
X4101942Y33594705D01*
X4251027Y33495090D01*
X4383490Y33362627D01*
X4434535Y33286233D01*
X4487566Y33206866D01*
X4559254Y33033795D01*
X4595800Y32850067D01*
X4595800Y32662733D01*
X4559254Y32479005D01*
X4487566Y32305934D01*
X4487565Y32305933D01*
X4383490Y32150173D01*
X4251027Y32017710D01*
X4172618Y31965319D01*
X4095266Y31913634D01*
X3922195Y31841946D01*
X3738467Y31805400D01*
X3551133Y31805400D01*
X3367405Y31841946D01*
X3194334Y31913634D01*
X3116982Y31965319D01*
X3038573Y32017710D01*
X2906110Y32150173D01*
X2802035Y32305933D01*
X2802034Y32305934D01*
X2730346Y32479005D01*
X2693800Y32662733D01*
X2693800Y32850067D01*
X2730346Y33033795D01*
X2802034Y33206866D01*
X2855065Y33286233D01*
X2906110Y33362627D01*
X3038573Y33495090D01*
X3187658Y33594705D01*
X3194334Y33599166D01*
X3367405Y33670854D01*
X3551133Y33707400D01*
X3738467Y33707400D01*
X3922195Y33670854D01*
X3922195Y33670854D01*
G37*
G36*
X58376813Y34615298D02*
G01*
X58447921Y34608295D01*
X58584772Y34566781D01*
X58584775Y34566780D01*
X58710894Y34499368D01*
X58821443Y34408643D01*
X58912168Y34298094D01*
X58979580Y34171975D01*
X58979581Y34171972D01*
X59021095Y34035121D01*
X59035112Y33892800D01*
X59021095Y33750479D01*
X58996940Y33670853D01*
X58979580Y33613625D01*
X58912168Y33487506D01*
X58821443Y33376957D01*
X58710894Y33286232D01*
X58584775Y33218820D01*
X58584772Y33218819D01*
X58447921Y33177305D01*
X58376813Y33170302D01*
X58341260Y33166800D01*
X58269940Y33166800D01*
X58234387Y33170302D01*
X58163279Y33177305D01*
X58026428Y33218819D01*
X58026425Y33218820D01*
X57900306Y33286232D01*
X57789757Y33376957D01*
X57699032Y33487506D01*
X57631620Y33613625D01*
X57614260Y33670853D01*
X57590105Y33750479D01*
X57576088Y33892800D01*
X57590105Y34035121D01*
X57631619Y34171972D01*
X57631620Y34171975D01*
X57699032Y34298094D01*
X57789757Y34408643D01*
X57900306Y34499368D01*
X58026425Y34566780D01*
X58026428Y34566781D01*
X58163279Y34608295D01*
X58234387Y34615298D01*
X58269940Y34618800D01*
X58341260Y34618800D01*
X58376813Y34615298D01*
X58376813Y34615298D01*
G37*
G36*
X35110413Y34666098D02*
G01*
X35181521Y34659095D01*
X35318372Y34617581D01*
X35318375Y34617580D01*
X35444494Y34550168D01*
X35555043Y34459443D01*
X35645768Y34348894D01*
X35713180Y34222775D01*
X35713181Y34222772D01*
X35754695Y34085921D01*
X35768712Y33943600D01*
X35754695Y33801279D01*
X35715130Y33670854D01*
X35713180Y33664425D01*
X35645768Y33538306D01*
X35555043Y33427757D01*
X35444494Y33337032D01*
X35318375Y33269620D01*
X35318372Y33269619D01*
X35181521Y33228105D01*
X35110413Y33221102D01*
X35074860Y33217600D01*
X35003540Y33217600D01*
X34967987Y33221102D01*
X34896879Y33228105D01*
X34760028Y33269619D01*
X34760025Y33269620D01*
X34633906Y33337032D01*
X34523357Y33427757D01*
X34432632Y33538306D01*
X34365220Y33664425D01*
X34363270Y33670854D01*
X34323705Y33801279D01*
X34309688Y33943600D01*
X34323705Y34085921D01*
X34365219Y34222772D01*
X34365220Y34222775D01*
X34432632Y34348894D01*
X34523357Y34459443D01*
X34633906Y34550168D01*
X34760025Y34617580D01*
X34760028Y34617581D01*
X34896879Y34659095D01*
X34967987Y34666098D01*
X35003540Y34669600D01*
X35074860Y34669600D01*
X35110413Y34666098D01*
X35110413Y34666098D01*
G37*
G36*
X9071213Y34722498D02*
G01*
X9142321Y34715495D01*
X9279172Y34673981D01*
X9279175Y34673980D01*
X9405294Y34606568D01*
X9515843Y34515843D01*
X9606568Y34405294D01*
X9673980Y34279175D01*
X9673981Y34279172D01*
X9715495Y34142321D01*
X9729512Y34000000D01*
X9715495Y33857679D01*
X9673981Y33720828D01*
X9673980Y33720825D01*
X9606568Y33594706D01*
X9515843Y33484157D01*
X9405294Y33393432D01*
X9279175Y33326020D01*
X9279172Y33326019D01*
X9142321Y33284505D01*
X9071213Y33277502D01*
X9035660Y33274000D01*
X8964340Y33274000D01*
X8928787Y33277502D01*
X8857679Y33284505D01*
X8720828Y33326019D01*
X8720825Y33326020D01*
X8594706Y33393432D01*
X8484157Y33484157D01*
X8393432Y33594706D01*
X8326020Y33720825D01*
X8326019Y33720828D01*
X8284505Y33857679D01*
X8270488Y34000000D01*
X8284505Y34142321D01*
X8326019Y34279172D01*
X8326020Y34279175D01*
X8393432Y34405294D01*
X8484157Y34515843D01*
X8594706Y34606568D01*
X8720825Y34673980D01*
X8720828Y34673981D01*
X8857679Y34715495D01*
X8928787Y34722498D01*
X8964340Y34726000D01*
X9035660Y34726000D01*
X9071213Y34722498D01*
X9071213Y34722498D01*
G37*
G36*
X4595800Y34345400D02*
G01*
X2693800Y34345400D01*
X2693800Y36247400D01*
X4595800Y36247400D01*
X4595800Y34345400D01*
X4595800Y34345400D01*
G37*
G36*
X9071213Y36722498D02*
G01*
X9142321Y36715495D01*
X9279172Y36673981D01*
X9279175Y36673980D01*
X9405294Y36606568D01*
X9515843Y36515843D01*
X9606568Y36405294D01*
X9673980Y36279175D01*
X9673981Y36279172D01*
X9715495Y36142321D01*
X9729512Y36000000D01*
X9715495Y35857679D01*
X9673981Y35720828D01*
X9673980Y35720825D01*
X9606568Y35594706D01*
X9515843Y35484157D01*
X9405294Y35393432D01*
X9279175Y35326020D01*
X9279172Y35326019D01*
X9142321Y35284505D01*
X9071213Y35277502D01*
X9035660Y35274000D01*
X8964340Y35274000D01*
X8928787Y35277502D01*
X8857679Y35284505D01*
X8720828Y35326019D01*
X8720825Y35326020D01*
X8594706Y35393432D01*
X8484157Y35484157D01*
X8393432Y35594706D01*
X8326020Y35720825D01*
X8326019Y35720828D01*
X8284505Y35857679D01*
X8270488Y36000000D01*
X8284505Y36142321D01*
X8326019Y36279172D01*
X8326020Y36279175D01*
X8393432Y36405294D01*
X8484157Y36515843D01*
X8594706Y36606568D01*
X8720825Y36673980D01*
X8720828Y36673981D01*
X8857679Y36715495D01*
X8928787Y36722498D01*
X8964340Y36726000D01*
X9035660Y36726000D01*
X9071213Y36722498D01*
X9071213Y36722498D01*
G37*
G36*
X68855142Y37602158D02*
G01*
X69003101Y37540871D01*
X69136255Y37451901D01*
X69249501Y37338655D01*
X69338471Y37205501D01*
X69399758Y37057542D01*
X69431000Y36900475D01*
X69431000Y36740325D01*
X69399758Y36583258D01*
X69338471Y36435299D01*
X69249501Y36302145D01*
X69136255Y36188899D01*
X69003101Y36099929D01*
X68855142Y36038642D01*
X68698075Y36007400D01*
X68537925Y36007400D01*
X68380858Y36038642D01*
X68232899Y36099929D01*
X68099745Y36188899D01*
X67986499Y36302145D01*
X67897529Y36435299D01*
X67836242Y36583258D01*
X67805000Y36740325D01*
X67805000Y36900475D01*
X67836242Y37057542D01*
X67897529Y37205501D01*
X67986499Y37338655D01*
X68099745Y37451901D01*
X68232899Y37540871D01*
X68380858Y37602158D01*
X68537925Y37633400D01*
X68698075Y37633400D01*
X68855142Y37602158D01*
X68855142Y37602158D01*
G37*
G36*
X63775142Y37602158D02*
G01*
X63923101Y37540871D01*
X64056255Y37451901D01*
X64169501Y37338655D01*
X64258471Y37205501D01*
X64319758Y37057542D01*
X64351000Y36900475D01*
X64351000Y36740325D01*
X64319758Y36583258D01*
X64258471Y36435299D01*
X64169501Y36302145D01*
X64056255Y36188899D01*
X63923101Y36099929D01*
X63775142Y36038642D01*
X63618075Y36007400D01*
X63457925Y36007400D01*
X63300858Y36038642D01*
X63152899Y36099929D01*
X63019745Y36188899D01*
X62906499Y36302145D01*
X62817529Y36435299D01*
X62756242Y36583258D01*
X62725000Y36740325D01*
X62725000Y36900475D01*
X62756242Y37057542D01*
X62817529Y37205501D01*
X62906499Y37338655D01*
X63019745Y37451901D01*
X63152899Y37540871D01*
X63300858Y37602158D01*
X63457925Y37633400D01*
X63618075Y37633400D01*
X63775142Y37602158D01*
X63775142Y37602158D01*
G37*
G36*
X66315142Y37602158D02*
G01*
X66463101Y37540871D01*
X66596255Y37451901D01*
X66709501Y37338655D01*
X66798471Y37205501D01*
X66859758Y37057542D01*
X66891000Y36900475D01*
X66891000Y36740325D01*
X66859758Y36583258D01*
X66798471Y36435299D01*
X66709501Y36302145D01*
X66596255Y36188899D01*
X66463101Y36099929D01*
X66315142Y36038642D01*
X66158075Y36007400D01*
X65997925Y36007400D01*
X65840858Y36038642D01*
X65692899Y36099929D01*
X65559745Y36188899D01*
X65446499Y36302145D01*
X65357529Y36435299D01*
X65296242Y36583258D01*
X65265000Y36740325D01*
X65265000Y36900475D01*
X65296242Y37057542D01*
X65357529Y37205501D01*
X65446499Y37338655D01*
X65559745Y37451901D01*
X65692899Y37540871D01*
X65840858Y37602158D01*
X65997925Y37633400D01*
X66158075Y37633400D01*
X66315142Y37602158D01*
X66315142Y37602158D01*
G37*
G36*
X61811000Y36007400D02*
G01*
X60185000Y36007400D01*
X60185000Y37633400D01*
X61811000Y37633400D01*
X61811000Y36007400D01*
X61811000Y36007400D01*
G37*
G36*
X51029613Y37898498D02*
G01*
X51100721Y37891495D01*
X51237572Y37849981D01*
X51237575Y37849980D01*
X51363694Y37782568D01*
X51474243Y37691843D01*
X51564968Y37581294D01*
X51632380Y37455175D01*
X51632381Y37455172D01*
X51673895Y37318321D01*
X51687912Y37176000D01*
X51673895Y37033679D01*
X51633487Y36900475D01*
X51632380Y36896825D01*
X51564968Y36770706D01*
X51474243Y36660157D01*
X51363694Y36569432D01*
X51237575Y36502020D01*
X51237572Y36502019D01*
X51100721Y36460505D01*
X51029613Y36453502D01*
X50994060Y36450000D01*
X50922740Y36450000D01*
X50887187Y36453502D01*
X50816079Y36460505D01*
X50679228Y36502019D01*
X50679225Y36502020D01*
X50553106Y36569432D01*
X50442557Y36660157D01*
X50351832Y36770706D01*
X50284420Y36896825D01*
X50283313Y36900475D01*
X50242905Y37033679D01*
X50228888Y37176000D01*
X50242905Y37318321D01*
X50284419Y37455172D01*
X50284420Y37455175D01*
X50351832Y37581294D01*
X50442557Y37691843D01*
X50553106Y37782568D01*
X50679225Y37849980D01*
X50679228Y37849981D01*
X50816079Y37891495D01*
X50887187Y37898498D01*
X50922740Y37902000D01*
X50994060Y37902000D01*
X51029613Y37898498D01*
X51029613Y37898498D01*
G37*
G36*
X49684400Y36450000D02*
G01*
X48232400Y36450000D01*
X48232400Y37902000D01*
X49684400Y37902000D01*
X49684400Y36450000D01*
X49684400Y36450000D01*
G37*
G36*
X9071213Y38722498D02*
G01*
X9142321Y38715495D01*
X9279172Y38673981D01*
X9279175Y38673980D01*
X9405294Y38606568D01*
X9515843Y38515843D01*
X9606568Y38405294D01*
X9673980Y38279175D01*
X9673981Y38279172D01*
X9715495Y38142321D01*
X9729512Y38000000D01*
X9715495Y37857679D01*
X9673981Y37720828D01*
X9673980Y37720825D01*
X9606568Y37594706D01*
X9515843Y37484157D01*
X9405294Y37393432D01*
X9279175Y37326020D01*
X9279172Y37326019D01*
X9142321Y37284505D01*
X9071213Y37277502D01*
X9035660Y37274000D01*
X8964340Y37274000D01*
X8928787Y37277502D01*
X8857679Y37284505D01*
X8720828Y37326019D01*
X8720825Y37326020D01*
X8594706Y37393432D01*
X8484157Y37484157D01*
X8393432Y37594706D01*
X8326020Y37720825D01*
X8326019Y37720828D01*
X8284505Y37857679D01*
X8270488Y38000000D01*
X8284505Y38142321D01*
X8326019Y38279172D01*
X8326020Y38279175D01*
X8393432Y38405294D01*
X8484157Y38515843D01*
X8594706Y38606568D01*
X8720825Y38673980D01*
X8720828Y38673981D01*
X8857679Y38715495D01*
X8928787Y38722498D01*
X8964340Y38726000D01*
X9035660Y38726000D01*
X9071213Y38722498D01*
X9071213Y38722498D01*
G37*
G36*
X9071213Y40722498D02*
G01*
X9142321Y40715495D01*
X9279172Y40673981D01*
X9279175Y40673980D01*
X9405294Y40606568D01*
X9515843Y40515843D01*
X9606568Y40405294D01*
X9673980Y40279175D01*
X9673981Y40279172D01*
X9715495Y40142321D01*
X9729512Y40000000D01*
X9715495Y39857679D01*
X9673981Y39720828D01*
X9673980Y39720825D01*
X9606568Y39594706D01*
X9515843Y39484157D01*
X9405294Y39393432D01*
X9279175Y39326020D01*
X9279172Y39326019D01*
X9142321Y39284505D01*
X9071213Y39277502D01*
X9035660Y39274000D01*
X8964340Y39274000D01*
X8928787Y39277502D01*
X8857679Y39284505D01*
X8720828Y39326019D01*
X8720825Y39326020D01*
X8594706Y39393432D01*
X8484157Y39484157D01*
X8393432Y39594706D01*
X8326020Y39720825D01*
X8326019Y39720828D01*
X8284505Y39857679D01*
X8270488Y40000000D01*
X8284505Y40142321D01*
X8326019Y40279172D01*
X8326020Y40279175D01*
X8393432Y40405294D01*
X8484157Y40515843D01*
X8594706Y40606568D01*
X8720825Y40673980D01*
X8720828Y40673981D01*
X8857679Y40715495D01*
X8928787Y40722498D01*
X8964340Y40726000D01*
X9035660Y40726000D01*
X9071213Y40722498D01*
X9071213Y40722498D01*
G37*
G36*
X49080413Y41505298D02*
G01*
X49151521Y41498295D01*
X49288372Y41456781D01*
X49288375Y41456780D01*
X49414494Y41389368D01*
X49525043Y41298643D01*
X49615768Y41188094D01*
X49683180Y41061975D01*
X49683181Y41061972D01*
X49724695Y40925121D01*
X49738712Y40782800D01*
X49724695Y40640479D01*
X49686886Y40515843D01*
X49683180Y40503625D01*
X49615768Y40377506D01*
X49525043Y40266957D01*
X49414494Y40176232D01*
X49288375Y40108820D01*
X49288372Y40108819D01*
X49151521Y40067305D01*
X49080413Y40060302D01*
X49044860Y40056800D01*
X48973540Y40056800D01*
X48937987Y40060302D01*
X48866879Y40067305D01*
X48730028Y40108819D01*
X48730025Y40108820D01*
X48603906Y40176232D01*
X48493357Y40266957D01*
X48402632Y40377506D01*
X48335220Y40503625D01*
X48331514Y40515843D01*
X48293705Y40640479D01*
X48279688Y40782800D01*
X48293705Y40925121D01*
X48335219Y41061972D01*
X48335220Y41061975D01*
X48402632Y41188094D01*
X48493357Y41298643D01*
X48603906Y41389368D01*
X48730025Y41456780D01*
X48730028Y41456781D01*
X48866879Y41498295D01*
X48937987Y41505298D01*
X48973540Y41508800D01*
X49044860Y41508800D01*
X49080413Y41505298D01*
X49080413Y41505298D01*
G37*
G36*
X9071213Y42722498D02*
G01*
X9142321Y42715495D01*
X9279172Y42673981D01*
X9279175Y42673980D01*
X9405294Y42606568D01*
X9515843Y42515843D01*
X9606568Y42405294D01*
X9673980Y42279175D01*
X9673981Y42279172D01*
X9715495Y42142321D01*
X9729512Y42000000D01*
X9715495Y41857679D01*
X9673981Y41720828D01*
X9673980Y41720825D01*
X9606568Y41594706D01*
X9515843Y41484157D01*
X9405294Y41393432D01*
X9279175Y41326020D01*
X9279172Y41326019D01*
X9142321Y41284505D01*
X9071213Y41277502D01*
X9035660Y41274000D01*
X8964340Y41274000D01*
X8928787Y41277502D01*
X8857679Y41284505D01*
X8720828Y41326019D01*
X8720825Y41326020D01*
X8594706Y41393432D01*
X8484157Y41484157D01*
X8393432Y41594706D01*
X8326020Y41720825D01*
X8326019Y41720828D01*
X8284505Y41857679D01*
X8270488Y42000000D01*
X8284505Y42142321D01*
X8326019Y42279172D01*
X8326020Y42279175D01*
X8393432Y42405294D01*
X8484157Y42515843D01*
X8594706Y42606568D01*
X8720825Y42673980D01*
X8720828Y42673981D01*
X8857679Y42715495D01*
X8928787Y42722498D01*
X8964340Y42726000D01*
X9035660Y42726000D01*
X9071213Y42722498D01*
X9071213Y42722498D01*
G37*
G36*
X49735200Y42056800D02*
G01*
X48283200Y42056800D01*
X48283200Y43508800D01*
X49735200Y43508800D01*
X49735200Y42056800D01*
X49735200Y42056800D01*
G37*
G36*
X68855142Y45222158D02*
G01*
X69003101Y45160871D01*
X69136255Y45071901D01*
X69249501Y44958655D01*
X69338471Y44825501D01*
X69399758Y44677542D01*
X69431000Y44520475D01*
X69431000Y44360325D01*
X69399758Y44203258D01*
X69338471Y44055299D01*
X69249501Y43922145D01*
X69136255Y43808899D01*
X69003101Y43719929D01*
X68855142Y43658642D01*
X68698075Y43627400D01*
X68537925Y43627400D01*
X68380858Y43658642D01*
X68232899Y43719929D01*
X68099745Y43808899D01*
X67986499Y43922145D01*
X67897529Y44055299D01*
X67836242Y44203258D01*
X67805000Y44360325D01*
X67805000Y44520475D01*
X67836242Y44677542D01*
X67897529Y44825501D01*
X67986499Y44958655D01*
X68099745Y45071901D01*
X68232899Y45160871D01*
X68380858Y45222158D01*
X68537925Y45253400D01*
X68698075Y45253400D01*
X68855142Y45222158D01*
X68855142Y45222158D01*
G37*
G36*
X66315142Y45222158D02*
G01*
X66463101Y45160871D01*
X66596255Y45071901D01*
X66709501Y44958655D01*
X66798471Y44825501D01*
X66859758Y44677542D01*
X66891000Y44520475D01*
X66891000Y44360325D01*
X66859758Y44203258D01*
X66798471Y44055299D01*
X66709501Y43922145D01*
X66596255Y43808899D01*
X66463101Y43719929D01*
X66315142Y43658642D01*
X66158075Y43627400D01*
X65997925Y43627400D01*
X65840858Y43658642D01*
X65692899Y43719929D01*
X65559745Y43808899D01*
X65446499Y43922145D01*
X65357529Y44055299D01*
X65296242Y44203258D01*
X65265000Y44360325D01*
X65265000Y44520475D01*
X65296242Y44677542D01*
X65357529Y44825501D01*
X65446499Y44958655D01*
X65559745Y45071901D01*
X65692899Y45160871D01*
X65840858Y45222158D01*
X65997925Y45253400D01*
X66158075Y45253400D01*
X66315142Y45222158D01*
X66315142Y45222158D01*
G37*
G36*
X63775142Y45222158D02*
G01*
X63923101Y45160871D01*
X64056255Y45071901D01*
X64169501Y44958655D01*
X64258471Y44825501D01*
X64319758Y44677542D01*
X64351000Y44520475D01*
X64351000Y44360325D01*
X64319758Y44203258D01*
X64258471Y44055299D01*
X64169501Y43922145D01*
X64056255Y43808899D01*
X63923101Y43719929D01*
X63775142Y43658642D01*
X63618075Y43627400D01*
X63457925Y43627400D01*
X63300858Y43658642D01*
X63152899Y43719929D01*
X63019745Y43808899D01*
X62906499Y43922145D01*
X62817529Y44055299D01*
X62756242Y44203258D01*
X62725000Y44360325D01*
X62725000Y44520475D01*
X62756242Y44677542D01*
X62817529Y44825501D01*
X62906499Y44958655D01*
X63019745Y45071901D01*
X63152899Y45160871D01*
X63300858Y45222158D01*
X63457925Y45253400D01*
X63618075Y45253400D01*
X63775142Y45222158D01*
X63775142Y45222158D01*
G37*
G36*
X61235142Y45222158D02*
G01*
X61383101Y45160871D01*
X61516255Y45071901D01*
X61629501Y44958655D01*
X61718471Y44825501D01*
X61779758Y44677542D01*
X61811000Y44520475D01*
X61811000Y44360325D01*
X61779758Y44203258D01*
X61718471Y44055299D01*
X61629501Y43922145D01*
X61516255Y43808899D01*
X61383101Y43719929D01*
X61235142Y43658642D01*
X61078075Y43627400D01*
X60917925Y43627400D01*
X60760858Y43658642D01*
X60612899Y43719929D01*
X60479745Y43808899D01*
X60366499Y43922145D01*
X60277529Y44055299D01*
X60216242Y44203258D01*
X60185000Y44360325D01*
X60185000Y44520475D01*
X60216242Y44677542D01*
X60277529Y44825501D01*
X60366499Y44958655D01*
X60479745Y45071901D01*
X60612899Y45160871D01*
X60760858Y45222158D01*
X60917925Y45253400D01*
X61078075Y45253400D01*
X61235142Y45222158D01*
X61235142Y45222158D01*
G37*
G36*
X26292200Y45567400D02*
G01*
X25921091Y45567400D01*
X25896705Y45564998D01*
X25873256Y45557885D01*
X25851645Y45546334D01*
X25832703Y45530789D01*
X25817158Y45511847D01*
X25805607Y45490236D01*
X25798494Y45466787D01*
X25796092Y45442401D01*
X25798494Y45418015D01*
X25805607Y45394566D01*
X25817158Y45372955D01*
X25832703Y45354013D01*
X25851645Y45338468D01*
X25873255Y45326917D01*
X25949564Y45295309D01*
X26056188Y45224065D01*
X26146865Y45133388D01*
X26218109Y45026764D01*
X26267183Y44908290D01*
X26292200Y44782518D01*
X26292200Y44654282D01*
X26267183Y44528510D01*
X26218109Y44410036D01*
X26146865Y44303412D01*
X26056188Y44212735D01*
X25949564Y44141491D01*
X25949563Y44141490D01*
X25949562Y44141490D01*
X25831090Y44092417D01*
X25705319Y44067400D01*
X25577081Y44067400D01*
X25451310Y44092417D01*
X25332838Y44141490D01*
X25332837Y44141490D01*
X25332836Y44141491D01*
X25226212Y44212735D01*
X25135535Y44303412D01*
X25064291Y44410036D01*
X25015217Y44528510D01*
X24990200Y44654282D01*
X24990200Y44782518D01*
X25015217Y44908290D01*
X25064291Y45026764D01*
X25135535Y45133388D01*
X25226212Y45224065D01*
X25332836Y45295309D01*
X25409145Y45326917D01*
X25430755Y45338468D01*
X25449697Y45354013D01*
X25465242Y45372955D01*
X25476793Y45394566D01*
X25483906Y45418015D01*
X25486308Y45442401D01*
X25483906Y45466787D01*
X25476793Y45490236D01*
X25465242Y45511847D01*
X25449697Y45530789D01*
X25430755Y45546334D01*
X25409144Y45557885D01*
X25385695Y45564998D01*
X25361309Y45567400D01*
X24990200Y45567400D01*
X24990200Y46869400D01*
X26292200Y46869400D01*
X26292200Y45567400D01*
X26292200Y45567400D01*
G37*
G36*
X44016400Y46888900D02*
G01*
X43645291Y46888900D01*
X43620905Y46886498D01*
X43597456Y46879385D01*
X43575845Y46867834D01*
X43556903Y46852289D01*
X43541358Y46833347D01*
X43529807Y46811736D01*
X43522694Y46788287D01*
X43520292Y46763901D01*
X43522694Y46739515D01*
X43529807Y46716066D01*
X43541358Y46694455D01*
X43556903Y46675513D01*
X43575845Y46659968D01*
X43597455Y46648417D01*
X43673764Y46616809D01*
X43780388Y46545565D01*
X43871065Y46454888D01*
X43942309Y46348264D01*
X43991383Y46229790D01*
X44016400Y46104018D01*
X44016400Y45975782D01*
X43991383Y45850010D01*
X43942309Y45731536D01*
X43871065Y45624912D01*
X43780388Y45534235D01*
X43673764Y45462991D01*
X43673763Y45462990D01*
X43673762Y45462990D01*
X43555290Y45413917D01*
X43429519Y45388900D01*
X43301281Y45388900D01*
X43175510Y45413917D01*
X43057038Y45462990D01*
X43057037Y45462990D01*
X43057036Y45462991D01*
X42950412Y45534235D01*
X42859735Y45624912D01*
X42788491Y45731536D01*
X42739417Y45850010D01*
X42714400Y45975782D01*
X42714400Y46104018D01*
X42739417Y46229790D01*
X42788491Y46348264D01*
X42859735Y46454888D01*
X42950412Y46545565D01*
X43057036Y46616809D01*
X43133345Y46648417D01*
X43154955Y46659968D01*
X43173897Y46675513D01*
X43189442Y46694455D01*
X43200993Y46716066D01*
X43208106Y46739515D01*
X43210508Y46763901D01*
X43208106Y46788287D01*
X43200993Y46811736D01*
X43189442Y46833347D01*
X43173897Y46852289D01*
X43154955Y46867834D01*
X43133344Y46879385D01*
X43109895Y46886498D01*
X43085509Y46888900D01*
X42714400Y46888900D01*
X42714400Y48190900D01*
X44016400Y48190900D01*
X44016400Y46888900D01*
X44016400Y46888900D01*
G37*
G36*
X9273000Y45467000D02*
G01*
X7821000Y45467000D01*
X7821000Y46919000D01*
X9273000Y46919000D01*
X9273000Y45467000D01*
X9273000Y45467000D01*
G37*
G36*
X6054900Y46623400D02*
G01*
X4602900Y46623400D01*
X4602900Y48075400D01*
X6054900Y48075400D01*
X6054900Y46623400D01*
X6054900Y46623400D01*
G37*
G36*
X60734600Y48463000D02*
G01*
X60363491Y48463000D01*
X60339105Y48460598D01*
X60315656Y48453485D01*
X60294045Y48441934D01*
X60275103Y48426389D01*
X60259558Y48407447D01*
X60248007Y48385836D01*
X60240894Y48362387D01*
X60238492Y48338001D01*
X60240894Y48313615D01*
X60248007Y48290166D01*
X60259558Y48268555D01*
X60275103Y48249613D01*
X60294045Y48234068D01*
X60315655Y48222517D01*
X60391964Y48190909D01*
X60498588Y48119665D01*
X60589265Y48028988D01*
X60660509Y47922364D01*
X60709583Y47803890D01*
X60734600Y47678118D01*
X60734600Y47549882D01*
X60709583Y47424110D01*
X60660509Y47305636D01*
X60589265Y47199012D01*
X60498588Y47108335D01*
X60391964Y47037091D01*
X60391963Y47037090D01*
X60391962Y47037090D01*
X60273490Y46988017D01*
X60147719Y46963000D01*
X60019481Y46963000D01*
X59893710Y46988017D01*
X59775238Y47037090D01*
X59775237Y47037090D01*
X59775236Y47037091D01*
X59668612Y47108335D01*
X59577935Y47199012D01*
X59506691Y47305636D01*
X59457617Y47424110D01*
X59432600Y47549882D01*
X59432600Y47678118D01*
X59457617Y47803890D01*
X59506691Y47922364D01*
X59577935Y48028988D01*
X59668612Y48119665D01*
X59775236Y48190909D01*
X59851545Y48222517D01*
X59873155Y48234068D01*
X59892097Y48249613D01*
X59907642Y48268555D01*
X59919193Y48290166D01*
X59926306Y48313615D01*
X59928708Y48338001D01*
X59926306Y48362387D01*
X59919193Y48385836D01*
X59907642Y48407447D01*
X59892097Y48426389D01*
X59873155Y48441934D01*
X59851544Y48453485D01*
X59828095Y48460598D01*
X59803709Y48463000D01*
X59432600Y48463000D01*
X59432600Y49765000D01*
X60734600Y49765000D01*
X60734600Y48463000D01*
X60734600Y48463000D01*
G37*
G36*
X13413813Y48434098D02*
G01*
X13484921Y48427095D01*
X13620931Y48385836D01*
X13621775Y48385580D01*
X13747894Y48318168D01*
X13858443Y48227443D01*
X13949168Y48116894D01*
X14016580Y47990775D01*
X14016581Y47990772D01*
X14058095Y47853921D01*
X14072112Y47711600D01*
X14058095Y47569279D01*
X14030255Y47477505D01*
X14016580Y47432425D01*
X13949168Y47306306D01*
X13858443Y47195757D01*
X13747894Y47105032D01*
X13621775Y47037620D01*
X13621772Y47037619D01*
X13484921Y46996105D01*
X13413813Y46989102D01*
X13378260Y46985600D01*
X13306940Y46985600D01*
X13271387Y46989102D01*
X13200279Y46996105D01*
X13063428Y47037619D01*
X13063425Y47037620D01*
X12937306Y47105032D01*
X12826757Y47195757D01*
X12736032Y47306306D01*
X12668620Y47432425D01*
X12654945Y47477505D01*
X12627105Y47569279D01*
X12613088Y47711600D01*
X12627105Y47853921D01*
X12668619Y47990772D01*
X12668620Y47990775D01*
X12736032Y48116894D01*
X12826757Y48227443D01*
X12937306Y48318168D01*
X13063425Y48385580D01*
X13064269Y48385836D01*
X13200279Y48427095D01*
X13271387Y48434098D01*
X13306940Y48437600D01*
X13378260Y48437600D01*
X13413813Y48434098D01*
X13413813Y48434098D01*
G37*
G36*
X8618213Y48915498D02*
G01*
X8689321Y48908495D01*
X8826172Y48866981D01*
X8826175Y48866980D01*
X8952294Y48799568D01*
X9062843Y48708843D01*
X9153568Y48598294D01*
X9220980Y48472175D01*
X9220981Y48472172D01*
X9262495Y48335321D01*
X9276512Y48193000D01*
X9262495Y48050679D01*
X9244948Y47992836D01*
X9220980Y47913825D01*
X9153568Y47787706D01*
X9062843Y47677157D01*
X8952294Y47586432D01*
X8826175Y47519020D01*
X8826172Y47519019D01*
X8689321Y47477505D01*
X8618213Y47470502D01*
X8582660Y47467000D01*
X8511340Y47467000D01*
X8475787Y47470502D01*
X8404679Y47477505D01*
X8267828Y47519019D01*
X8267825Y47519020D01*
X8141706Y47586432D01*
X8031157Y47677157D01*
X7940432Y47787706D01*
X7873020Y47913825D01*
X7849052Y47992836D01*
X7831505Y48050679D01*
X7817488Y48193000D01*
X7831505Y48335321D01*
X7873019Y48472172D01*
X7873020Y48472175D01*
X7940432Y48598294D01*
X8031157Y48708843D01*
X8141706Y48799568D01*
X8267825Y48866980D01*
X8267828Y48866981D01*
X8404679Y48908495D01*
X8475787Y48915498D01*
X8511340Y48919000D01*
X8582660Y48919000D01*
X8618213Y48915498D01*
X8618213Y48915498D01*
G37*
G36*
X67795800Y48581091D02*
G01*
X67798202Y48556705D01*
X67805315Y48533256D01*
X67816866Y48511645D01*
X67832411Y48492703D01*
X67851353Y48477158D01*
X67872964Y48465607D01*
X67896413Y48458494D01*
X67920799Y48456092D01*
X67945185Y48458494D01*
X67968634Y48465607D01*
X67990245Y48477158D01*
X68009187Y48492703D01*
X68024732Y48511645D01*
X68036283Y48533256D01*
X68067890Y48609562D01*
X68139135Y48716188D01*
X68229812Y48806865D01*
X68336436Y48878109D01*
X68409794Y48908495D01*
X68454910Y48927183D01*
X68580681Y48952200D01*
X68708919Y48952200D01*
X68834690Y48927183D01*
X68879807Y48908495D01*
X68953164Y48878109D01*
X69059788Y48806865D01*
X69150465Y48716188D01*
X69221710Y48609562D01*
X69270783Y48491090D01*
X69295800Y48365319D01*
X69295800Y48237081D01*
X69270783Y48111310D01*
X69255909Y48075400D01*
X69221709Y47992836D01*
X69150465Y47886212D01*
X69059788Y47795535D01*
X68953164Y47724291D01*
X68953163Y47724290D01*
X68953162Y47724290D01*
X68834690Y47675217D01*
X68708919Y47650200D01*
X68580681Y47650200D01*
X68454910Y47675217D01*
X68336438Y47724290D01*
X68336437Y47724290D01*
X68336436Y47724291D01*
X68229812Y47795535D01*
X68139135Y47886212D01*
X68067891Y47992836D01*
X68036283Y48069145D01*
X68024732Y48090755D01*
X68009187Y48109697D01*
X67990245Y48125242D01*
X67968634Y48136793D01*
X67945185Y48143906D01*
X67920799Y48146308D01*
X67896413Y48143906D01*
X67872964Y48136793D01*
X67851353Y48125242D01*
X67832411Y48109697D01*
X67816866Y48090755D01*
X67805315Y48069144D01*
X67798202Y48045695D01*
X67795800Y48021309D01*
X67795800Y47650200D01*
X66493800Y47650200D01*
X66493800Y48952200D01*
X67795800Y48952200D01*
X67795800Y48581091D01*
X67795800Y48581091D01*
G37*
G36*
X5400113Y50071898D02*
G01*
X5471221Y50064895D01*
X5608072Y50023381D01*
X5608075Y50023380D01*
X5734194Y49955968D01*
X5844743Y49865243D01*
X5935468Y49754694D01*
X6002880Y49628575D01*
X6002881Y49628572D01*
X6044395Y49491721D01*
X6058412Y49349400D01*
X6044395Y49207079D01*
X6002881Y49070228D01*
X6002880Y49070225D01*
X5935468Y48944106D01*
X5844743Y48833557D01*
X5734194Y48742832D01*
X5608075Y48675420D01*
X5608072Y48675419D01*
X5471221Y48633905D01*
X5400113Y48626902D01*
X5364560Y48623400D01*
X5293240Y48623400D01*
X5257687Y48626902D01*
X5186579Y48633905D01*
X5049728Y48675419D01*
X5049725Y48675420D01*
X4923606Y48742832D01*
X4813057Y48833557D01*
X4722332Y48944106D01*
X4654920Y49070225D01*
X4654919Y49070228D01*
X4613405Y49207079D01*
X4599388Y49349400D01*
X4613405Y49491721D01*
X4654919Y49628572D01*
X4654920Y49628575D01*
X4722332Y49754694D01*
X4813057Y49865243D01*
X4923606Y49955968D01*
X5049725Y50023380D01*
X5049728Y50023381D01*
X5186579Y50064895D01*
X5257687Y50071898D01*
X5293240Y50075400D01*
X5364560Y50075400D01*
X5400113Y50071898D01*
X5400113Y50071898D01*
G37*
G36*
X54193000Y48804000D02*
G01*
X52741000Y48804000D01*
X52741000Y50256000D01*
X54193000Y50256000D01*
X54193000Y48804000D01*
X54193000Y48804000D01*
G37*
G36*
X49793700Y48858600D02*
G01*
X48341700Y48858600D01*
X48341700Y50310600D01*
X49793700Y50310600D01*
X49793700Y48858600D01*
X49793700Y48858600D01*
G37*
G36*
X14068600Y48985600D02*
G01*
X12616600Y48985600D01*
X12616600Y50437600D01*
X14068600Y50437600D01*
X14068600Y48985600D01*
X14068600Y48985600D01*
G37*
G36*
X53538213Y52252498D02*
G01*
X53609321Y52245495D01*
X53746172Y52203981D01*
X53746175Y52203980D01*
X53872294Y52136568D01*
X53982843Y52045843D01*
X54073568Y51935294D01*
X54140980Y51809175D01*
X54140981Y51809172D01*
X54182495Y51672321D01*
X54196512Y51530000D01*
X54182495Y51387679D01*
X54157544Y51305428D01*
X54140980Y51250825D01*
X54073568Y51124706D01*
X53982843Y51014157D01*
X53872294Y50923432D01*
X53746175Y50856020D01*
X53746172Y50856019D01*
X53609321Y50814505D01*
X53538213Y50807502D01*
X53502660Y50804000D01*
X53431340Y50804000D01*
X53395787Y50807502D01*
X53324679Y50814505D01*
X53187828Y50856019D01*
X53187825Y50856020D01*
X53061706Y50923432D01*
X52951157Y51014157D01*
X52860432Y51124706D01*
X52793020Y51250825D01*
X52776456Y51305428D01*
X52751505Y51387679D01*
X52737488Y51530000D01*
X52751505Y51672321D01*
X52793019Y51809172D01*
X52793020Y51809175D01*
X52860432Y51935294D01*
X52951157Y52045843D01*
X53061706Y52136568D01*
X53187825Y52203980D01*
X53187828Y52203981D01*
X53324679Y52245495D01*
X53395787Y52252498D01*
X53431340Y52256000D01*
X53502660Y52256000D01*
X53538213Y52252498D01*
X53538213Y52252498D01*
G37*
G36*
X49138913Y52307098D02*
G01*
X49210021Y52300095D01*
X49346872Y52258581D01*
X49346875Y52258580D01*
X49472994Y52191168D01*
X49583543Y52100443D01*
X49674268Y51989894D01*
X49741680Y51863775D01*
X49741681Y51863772D01*
X49783195Y51726921D01*
X49797212Y51584600D01*
X49783195Y51442279D01*
X49766632Y51387679D01*
X49741680Y51305425D01*
X49674268Y51179306D01*
X49583543Y51068757D01*
X49472994Y50978032D01*
X49346875Y50910620D01*
X49346872Y50910619D01*
X49210021Y50869105D01*
X49138913Y50862102D01*
X49103360Y50858600D01*
X49032040Y50858600D01*
X48996487Y50862102D01*
X48925379Y50869105D01*
X48788528Y50910619D01*
X48788525Y50910620D01*
X48662406Y50978032D01*
X48551857Y51068757D01*
X48461132Y51179306D01*
X48393720Y51305425D01*
X48368768Y51387679D01*
X48352205Y51442279D01*
X48338188Y51584600D01*
X48352205Y51726921D01*
X48393719Y51863772D01*
X48393720Y51863775D01*
X48461132Y51989894D01*
X48551857Y52100443D01*
X48662406Y52191168D01*
X48788525Y52258580D01*
X48788528Y52258581D01*
X48925379Y52300095D01*
X48996487Y52307098D01*
X49032040Y52310600D01*
X49103360Y52310600D01*
X49138913Y52307098D01*
X49138913Y52307098D01*
G37*
G36*
X20910300Y52291200D02*
G01*
X19008300Y52291200D01*
X19008300Y54193200D01*
X20910300Y54193200D01*
X20910300Y52291200D01*
X20910300Y52291200D01*
G37*
G36*
X34613600Y52303900D02*
G01*
X32711600Y52303900D01*
X32711600Y54205900D01*
X34613600Y54205900D01*
X34613600Y52303900D01*
X34613600Y52303900D01*
G37*
G36*
X27768300Y52303900D02*
G01*
X25866300Y52303900D01*
X25866300Y54205900D01*
X27768300Y54205900D01*
X27768300Y52303900D01*
X27768300Y52303900D01*
G37*
G36*
X51449213Y55424498D02*
G01*
X51520321Y55417495D01*
X51657172Y55375981D01*
X51657175Y55375980D01*
X51783294Y55308568D01*
X51893843Y55217843D01*
X51984568Y55107294D01*
X52051980Y54981175D01*
X52051981Y54981172D01*
X52093495Y54844321D01*
X52107512Y54702000D01*
X52093495Y54559679D01*
X52051981Y54422828D01*
X52051980Y54422825D01*
X51984568Y54296706D01*
X51893843Y54186157D01*
X51783294Y54095432D01*
X51657175Y54028020D01*
X51657172Y54028019D01*
X51520321Y53986505D01*
X51449213Y53979502D01*
X51413660Y53976000D01*
X51342340Y53976000D01*
X51306787Y53979502D01*
X51235679Y53986505D01*
X51098828Y54028019D01*
X51098825Y54028020D01*
X50972706Y54095432D01*
X50862157Y54186157D01*
X50771432Y54296706D01*
X50704020Y54422825D01*
X50704019Y54422828D01*
X50662505Y54559679D01*
X50648488Y54702000D01*
X50662505Y54844321D01*
X50704019Y54981172D01*
X50704020Y54981175D01*
X50771432Y55107294D01*
X50862157Y55217843D01*
X50972706Y55308568D01*
X51098825Y55375980D01*
X51098828Y55375981D01*
X51235679Y55417495D01*
X51306787Y55424498D01*
X51342340Y55428000D01*
X51413660Y55428000D01*
X51449213Y55424498D01*
X51449213Y55424498D01*
G37*
G36*
X54104000Y53976000D02*
G01*
X52652000Y53976000D01*
X52652000Y55428000D01*
X54104000Y55428000D01*
X54104000Y53976000D01*
X54104000Y53976000D01*
G37*
G36*
X20236695Y56696654D02*
G01*
X20409766Y56624966D01*
X20409767Y56624965D01*
X20565527Y56520890D01*
X20697990Y56388427D01*
X20697991Y56388425D01*
X20802066Y56232666D01*
X20873754Y56059595D01*
X20910300Y55875867D01*
X20910300Y55688533D01*
X20873754Y55504805D01*
X20802066Y55331734D01*
X20802065Y55331733D01*
X20697990Y55175973D01*
X20565527Y55043510D01*
X20487118Y54991119D01*
X20409766Y54939434D01*
X20236695Y54867746D01*
X20052967Y54831200D01*
X19865633Y54831200D01*
X19681905Y54867746D01*
X19508834Y54939434D01*
X19431482Y54991119D01*
X19353073Y55043510D01*
X19220610Y55175973D01*
X19116535Y55331733D01*
X19116534Y55331734D01*
X19044846Y55504805D01*
X19008300Y55688533D01*
X19008300Y55875867D01*
X19044846Y56059595D01*
X19116534Y56232666D01*
X19220609Y56388425D01*
X19220610Y56388427D01*
X19353073Y56520890D01*
X19508833Y56624965D01*
X19508834Y56624966D01*
X19681905Y56696654D01*
X19865633Y56733200D01*
X20052967Y56733200D01*
X20236695Y56696654D01*
X20236695Y56696654D01*
G37*
G36*
X33939995Y56709354D02*
G01*
X34113066Y56637666D01*
X34132074Y56624965D01*
X34268827Y56533590D01*
X34401290Y56401127D01*
X34401291Y56401125D01*
X34505366Y56245366D01*
X34577054Y56072295D01*
X34613600Y55888567D01*
X34613600Y55701233D01*
X34577054Y55517505D01*
X34505366Y55344434D01*
X34505365Y55344433D01*
X34401290Y55188673D01*
X34268827Y55056210D01*
X34190418Y55003819D01*
X34113066Y54952134D01*
X33939995Y54880446D01*
X33756267Y54843900D01*
X33568933Y54843900D01*
X33385205Y54880446D01*
X33212134Y54952134D01*
X33134782Y55003819D01*
X33056373Y55056210D01*
X32923910Y55188673D01*
X32819835Y55344433D01*
X32819834Y55344434D01*
X32748146Y55517505D01*
X32711600Y55701233D01*
X32711600Y55888567D01*
X32748146Y56072295D01*
X32819834Y56245366D01*
X32923909Y56401125D01*
X32923910Y56401127D01*
X33056373Y56533590D01*
X33193126Y56624965D01*
X33212134Y56637666D01*
X33385205Y56709354D01*
X33568933Y56745900D01*
X33756267Y56745900D01*
X33939995Y56709354D01*
X33939995Y56709354D01*
G37*
G36*
X27094695Y56709354D02*
G01*
X27267766Y56637666D01*
X27286774Y56624965D01*
X27423527Y56533590D01*
X27555990Y56401127D01*
X27555991Y56401125D01*
X27660066Y56245366D01*
X27731754Y56072295D01*
X27768300Y55888567D01*
X27768300Y55701233D01*
X27731754Y55517505D01*
X27660066Y55344434D01*
X27660065Y55344433D01*
X27555990Y55188673D01*
X27423527Y55056210D01*
X27345118Y55003819D01*
X27267766Y54952134D01*
X27094695Y54880446D01*
X26910967Y54843900D01*
X26723633Y54843900D01*
X26539905Y54880446D01*
X26366834Y54952134D01*
X26289482Y55003819D01*
X26211073Y55056210D01*
X26078610Y55188673D01*
X25974535Y55344433D01*
X25974534Y55344434D01*
X25902846Y55517505D01*
X25866300Y55701233D01*
X25866300Y55888567D01*
X25902846Y56072295D01*
X25974534Y56245366D01*
X26078609Y56401125D01*
X26078610Y56401127D01*
X26211073Y56533590D01*
X26347826Y56624965D01*
X26366834Y56637666D01*
X26539905Y56709354D01*
X26723633Y56745900D01*
X26910967Y56745900D01*
X27094695Y56709354D01*
X27094695Y56709354D01*
G37*
M02*
